{
  "recipes": [
    {
      "id": "mariner.tide.pickcustomtide.thebes.layer.1",
      "extantreqs": {
        "mariner.aspects.vaults.thebes.layer.1": 1
      },
      "deckeffects": {
        "mariner.decks.tide.thebes.layer.1": 1
      },
      "linked": [
        {
          "id": "mariner.tide.thebes.layer.1.spawnevent.suspicion"
        },
        {
          "id": "mariner.tide.thebes.layer.1.spawnevent.colossus"
        },
        {
          "id": "mariner.tide.thebes.layer.1.spawnevent.scales"
        },
        {
          "id": "mariner.tide.thebes.layer.1.spawnevent.others"
        },
        {
          "id": "mariner.tide.postevent"
        }
      ]
    },
    {
      "id": "mariner.tide.thebes.layer.1.spawnevent.others",
      "requirements": {
        "mariner.events.vaults.thebes.events.others": 1
      },
      "effects": {
        "mariner.events.vaults.thebes.events.others": -1
      },
      "inductions": [
        {
          "id": "mariner.vaults.thebes.events.others"
        }
      ],
      "linked": [
        {
          "id": "mariner.tide.postevent"
        }
      ]
    },
    {
      "id": "mariner.tide.thebes.layer.1.spawnevent.scales",
      "requirements": {
        "mariner.events.vaults.thebes.events.scales": 1
      },
      "effects": {
        "mariner.events.vaults.thebes.events.scales": -1
      },
      "inductions": [
        {
          "id": "mariner.vaults.thebes.events.scales"
        }
      ],
      "linked": [
        {
          "id": "mariner.tide.postevent"
        }
      ]
    },
    {
      "id": "mariner.tide.thebes.layer.1.spawnevent.colossus",
      "requirements": {
        "mariner.events.vaults.thebes.events.colossus": 1
      },
      "effects": {
        "mariner.events.vaults.thebes.events.colossus": -1
      },
      "inductions": [
        {
          "id": "mariner.vaults.thebes.events.colossus"
        }
      ],
      "linked": [
        {
          "id": "mariner.tide.postevent"
        }
      ]
    },
    {
      "id": "mariner.tide.thebes.layer.1.spawnevent.suspicion",
      "requirements": {
        "seasonsuspicion": 1
      },
      "effects": {
        "seasonsuspicion": -1
      },
      "inductions": [
        {
          "id": "mariner.tide.suspicion.pre"
        }
      ],
      "linked": [
        {
          "id": "mariner.tide.postevent"
        }
      ]
    }
  ]
}