{
  "recipes": [
    {
      "id": "mariner.tide.pickcustomtide.rescuemission.layer.2",
      "extantreqs": {
        "mariner.aspects.vaults.rescuemission.layer.2": 1
      },
      "deckeffects": {
        "mariner.decks.tide.rescuemission.layer.2": 1
      },
      "linked": [
        {
          "id": "mariner.tide.rescuemission.layer.2.spawnevent.suspicion"
        },
        {
          "id": "mariner.tide.rescuemission.layer.2.spawnevent.marinemists"
        },
        {
          "id": "mariner.tide.rescuemission.layer.2.spawnevent.windrises"
        },
        {
          "id": "mariner.tide.rescuemission.layer.2.spawnevent.fairweather"
        },
        {
          "id": "mariner.tide.postevent"
        }
      ]
    },
    {
      "id": "mariner.tide.rescuemission.layer.2.spawnevent.fairweather",
      "requirements": {
        "mariner.events.vaults.rescuemission.events.fairweather": 1
      },
      "effects": {
        "mariner.events.vaults.rescuemission.events.fairweather": -1
      },
      "inductions": [
        {
          "id": "mariner.vaults.rescuemission.events.fairweather"
        }
      ],
      "linked": [
        {
          "id": "mariner.tide.postevent"
        }
      ]
    },
    {
      "id": "mariner.tide.rescuemission.layer.2.spawnevent.windrises",
      "requirements": {
        "mariner.events.vaults.rescuemission.events.windrises": 1
      },
      "effects": {
        "mariner.events.vaults.rescuemission.events.windrises": -1
      },
      "inductions": [
        {
          "id": "mariner.vaults.rescuemission.events.windrises"
        }
      ],
      "linked": [
        {
          "id": "mariner.tide.postevent"
        }
      ]
    },
    {
      "id": "mariner.tide.rescuemission.layer.2.spawnevent.marinemists",
      "requirements": {
        "mariner.events.vaults.rescuemission.events.marinemists": 1
      },
      "effects": {
        "mariner.events.vaults.rescuemission.events.marinemists": -1
      },
      "inductions": [
        {
          "id": "mariner.vaults.rescuemission.events.marinemists"
        }
      ],
      "linked": [
        {
          "id": "mariner.tide.postevent"
        }
      ]
    },
    {
      "id": "mariner.tide.rescuemission.layer.2.spawnevent.suspicion",
      "requirements": {
        "seasonsuspicion": 1
      },
      "effects": {
        "seasonsuspicion": -1
      },
      "inductions": [
        {
          "id": "mariner.tide.suspicion.pre"
        }
      ],
      "linked": [
        {
          "id": "mariner.tide.postevent"
        }
      ]
    }
  ]
}