{
  "recipes": [
    {
      "id": "mariner.tide.pickcustomtide.sunkencity.layer.2",
      "extantreqs": {
        "mariner.aspects.vaults.sunkencity.layer.2": 1
      },
      "deckeffects": {
        "mariner.decks.tide.sunkencity.layer.2": 1
      },
      "linked": [
        {
          "id": "mariner.tide.sunkencity.layer.2.spawnevent.suspicion"
        },
        {
          "id": "mariner.tide.sunkencity.layer.2.spawnevent.tidepools"
        },
        {
          "id": "mariner.tide.sunkencity.layer.2.spawnevent.specters"
        },
        {
          "id": "mariner.tide.sunkencity.layer.2.spawnevent.seagull"
        },
        {
          "id": "mariner.tide.postevent"
        }
      ]
    },
    {
      "id": "mariner.tide.sunkencity.layer.2.spawnevent.seagull",
      "requirements": {
        "mariner.events.vaults.sunkencity.events.seagull": 1
      },
      "effects": {
        "mariner.events.vaults.sunkencity.events.seagull": -1
      },
      "inductions": [
        {
          "id": "mariner.vaults.sunkencity.events.seagull"
        }
      ],
      "linked": [
        {
          "id": "mariner.tide.postevent"
        }
      ]
    },
    {
      "id": "mariner.tide.sunkencity.layer.2.spawnevent.specters",
      "requirements": {
        "mariner.events.vaults.sunkencity.events.specters": 1
      },
      "effects": {
        "mariner.events.vaults.sunkencity.events.specters": -1
      },
      "inductions": [
        {
          "id": "mariner.vaults.sunkencity.events.specters"
        }
      ],
      "linked": [
        {
          "id": "mariner.tide.postevent"
        }
      ]
    },
    {
      "id": "mariner.tide.sunkencity.layer.2.spawnevent.tidepools",
      "requirements": {
        "mariner.events.vaults.sunkencity.events.tidepools": 1
      },
      "effects": {
        "mariner.events.vaults.sunkencity.events.tidepools": -1
      },
      "inductions": [
        {
          "id": "mariner.vaults.sunkencity.events.tidepools"
        }
      ],
      "linked": [
        {
          "id": "mariner.tide.postevent"
        }
      ]
    },
    {
      "id": "mariner.tide.sunkencity.layer.2.spawnevent.suspicion",
      "requirements": {
        "seasonsuspicion": 1
      },
      "effects": {
        "seasonsuspicion": -1
      },
      "inductions": [
        {
          "id": "mariner.tide.suspicion.pre"
        }
      ],
      "linked": [
        {
          "id": "mariner.tide.postevent"
        }
      ]
    }
  ]
}