{
  "recipes": [
    {
      "id": "mariner.tide.pickcustomtide.sunkencity.layer.1",
      "extantreqs": {
        "mariner.aspects.vaults.sunkencity.layer.1": 1
      },
      "deckeffects": {
        "mariner.decks.tide.sunkencity.layer.1": 1
      },
      "linked": [
        {
          "id": "mariner.tide.sunkencity.layer.1.spawnevent.suspicion"
        },
        {
          "id": "mariner.tide.sunkencity.layer.1.spawnevent.seagulls"
        },
        {
          "id": "mariner.tide.sunkencity.layer.1.spawnevent.stormtakesus"
        },
        {
          "id": "mariner.tide.postevent"
        }
      ]
    },
    {
      "id": "mariner.tide.sunkencity.layer.1.spawnevent.stormtakesus",
      "requirements": {
        "mariner.events.vaults.sunkencity.events.stormtakesus": 1
      },
      "effects": {
        "mariner.events.vaults.sunkencity.events.stormtakesus": -1
      },
      "inductions": [
        {
          "id": "mariner.vaults.sunkencity.events.stormtakesus"
        }
      ],
      "linked": [
        {
          "id": "mariner.tide.postevent"
        }
      ]
    },
    {
      "id": "mariner.tide.sunkencity.layer.1.spawnevent.seagulls",
      "requirements": {
        "mariner.events.vaults.sunkencity.events.seagulls": 1
      },
      "effects": {
        "mariner.events.vaults.sunkencity.events.seagulls": -1
      },
      "inductions": [
        {
          "id": "mariner.vaults.sunkencity.events.seagulls"
        }
      ],
      "linked": [
        {
          "id": "mariner.tide.postevent"
        }
      ]
    },
    {
      "id": "mariner.tide.sunkencity.layer.1.spawnevent.suspicion",
      "requirements": {
        "seasonsuspicion": 1
      },
      "effects": {
        "seasonsuspicion": -1
      },
      "inductions": [
        {
          "id": "mariner.tide.suspicion.pre"
        }
      ],
      "linked": [
        {
          "id": "mariner.tide.postevent"
        }
      ]
    }
  ]
}