{
  "recipes": [
    {
      "id": "mariner.tradestory.bizerta.galantha",
      "craftable": true,
      "actionId": "mariner.navigate",
      "requirements": {
        "mariner.recipient.medsea.bizerta.galantha": 1,
        "mariner.story": 1
      },
      "label": "Trade stories with the Galantha",
      "startdescription": "She blinks slowly, twice",
      "warmup": 20,
      "description": "<>",
      "furthermore": [
        {
          "aspects": {
            "mariner.signal.exhauststory": 1
          }
        },
        {
          "effects": {
            "mariner.stories.bizerta.galantha": 1
          }
        }
      ]
    }
  ]
}