{
  "recipes": [
    {
      "id": "mariner.tradestory.bizerta.placedesol",
      "craftable": true,
      "actionId": "mariner.navigate",
      "requirements": {
        "mariner.locations.medsea.bizerta.placedesol": 1,
        "mariner.story": 1
      },
      "label": "Trade Stories at the Place de Sol",
      "startdescription": "Stories are told in layers, and stories are told in frames. In this case, the frame is a small wooded box, on the blazing heat of the oldest continent, between billowing layers of tarp. but the frame is also the storyteller, bright-eyed and dust-drenched, the country, occupied first by one master to the west and now another to the north.",
      "warmup": 20,
      "description": "I watch this story with all the schizophrenic delight in three layers at once, the childrens laughing, the wisdom passing on, the the revolution brewing.",
      "furthermore": [
        {
          "aspects": {
            "mariner.signal.exhauststory": 1
          }
        },
        {
          "effects": {
            "mariner.stories.bizerta.placedesol": 1
          }
        }
      ]
    }
  ]
}