{
  "elements": [
    {
      "isAspect": true,
      "id": "mariner.flag.operation.lead.set",
      "noArtNeeded": false,
      "isHidden": false,
      "label": "[HIDDEN] mariner.flag.operation.lead.set"
    },
    {
      "isAspect": true,
      "id": "mariner.flag.operation.silver.set",
      "noArtNeeded": false,
      "isHidden": false,
      "label": "[HIDDEN] mariner.flag.operation.silver.set"
    },
    {
      "isAspect": true,
      "id": "mariner.flag.operation.gold.set",
      "noArtNeeded": false,
      "isHidden": false,
      "label": "[HIDDEN] mariner.flag.operation.gold.set"
    }
  ]
}