{
  "recipes": [
    {
      "id": "mariner.sailing.seaevents.start.drinking",
      "warmup": 20,
      "label": "Drunken Mates",
      "startdescription": "It is known that sailors like a drink when they are on shore, but when that behavior follows the ship to sea, trouble comes in its wake. My ship stinks of gin and malcontent. I could solve this with stern authority of Winter or the opposition of Edge.",
      "slots": [
        {
          "actionId": "mariner.sail",
          "id": "mariner.sail1",
          "label": "Help",
          "description": "Which implements are available for my approach.",
          "required": {
            "funds": 1,
            "mariner.crew": 1,
            "mariner.tune": 1,
            "tool": 1,
            "mariner.inspiration.nature": 1,
            "mariner.lackheart": 1,
            "mariner.halfheart": 1
          },
          "forbidden": {
            "mariner.crew.traits.landlubber": 1,
            "mariner.crew.exhausted": 1,
            "mariner.tool.broken": 1,
            "mariner.lackheart.exhausted": 1,
            "mariner.halfheart.exhausted": 1,
            "mariner.vaults.help": 1
          }
        },
        {
          "actionId": "mariner.sail",
          "id": "mariner.sail2",
          "label": "Help",
          "description": "Which implements are available for my approach.",
          "required": {
            "funds": 1,
            "mariner.crew": 1,
            "mariner.tune": 1,
            "tool": 1,
            "mariner.inspiration.nature": 1,
            "mariner.lackheart": 1,
            "mariner.halfheart": 1
          },
          "forbidden": {
            "mariner.crew.traits.landlubber": 1,
            "mariner.crew.exhausted": 1,
            "mariner.tool.broken": 1,
            "mariner.lackheart.exhausted": 1,
            "mariner.halfheart.exhausted": 1,
            "mariner.vaults.help": 1
          }
        },
        {
          "actionId": "mariner.sail",
          "id": "mariner.sail3",
          "label": "Help",
          "description": "Which implements are available for my approach.",
          "required": {
            "funds": 1,
            "mariner.crew": 1,
            "mariner.tune": 1,
            "tool": 1,
            "mariner.inspiration.nature": 1,
            "mariner.lackheart": 1,
            "mariner.halfheart": 1
          },
          "forbidden": {
            "mariner.crew.traits.landlubber": 1,
            "mariner.crew.exhausted": 1,
            "mariner.tool.broken": 1,
            "mariner.lackheart.exhausted": 1,
            "mariner.halfheart.exhausted": 1,
            "mariner.vaults.help": 1
          }
        }
      ],
      "linked": [
        {
          "id": "mariner.sailing.seaevents.drinking.outcome.success",
          "chance": "([edge]/7)*100"
        },
        {
          "id": "mariner.sailing.seaevents.drinking.outcome.success",
          "chance": "([winter]/7)*100"
        },
        {
          "id": "mariner.sailing.seaevents.drinking.outcome.success",
          "chance": 10
        },
        {
          "id": "mariner.sailing.seaevents.drinking.outcome.drinkingfailure"
        }
      ]
    },
    {
      "id": "mariner.sailing.seaevents.drinking.outcome.success",
      "warmup": 20,
      "label": "The Specter of Discipline",
      "startdescription": "I have smashed every bottle I could find, and have made those responsible pour over the deck for the shattered glass. They may despise me, but the ship will run with military precision.",
      "linked": [
        {
          "id": "mariner.sailing.postevent"
        }
      ]
    },
    {
      "id": "mariner.sailing.seaevents.drinking.outcome.drinkingfailure",
      "warmup": 20,
      "label": "Spirits on Deck",
      "startdescription": "They may nod along to my speeches, but they all have a bottle stashed for their shifts. The discipline has been broken, and it will take time to rebuild it.",
      "furthermore": [
        {
          "target": "~/tabletop",
          "mutations": {
            "[mariner.crew] && [mariner.crew.traits.boozy] && [mariner.crew.exhausted]<1": {
              "mutate": "mariner.crew.exhausted",
              "level": 5,
              "limit": 30
            }
          }
        },
        {
          "target": "~/tabletop",
          "mutations": {
            "[mariner.crew] && [mariner.crew.exhausted]<1": {
              "mutate": "mariner.crew.exhausted",
              "level": 5,
              "limit": 3
            }
          }
        }
      ],
      "linked": [
        {
          "id": "mariner.sailing.postevent"
        }
      ]
    }
  ]
}