{
  "recipes": [
    {
      "id": "mariner.conversations.medsea.bizerta.hakim.chest",
      "craftable": true,
      "actionId": "talk",
      "warmup": 60,
      "label": "<Discuss the Warded Chest with Hakim>",
      "startdescription": "\"<What do you have for me?>\"",
      "grandReqs": {
        "mariner.vaults.thebes.chest": 1,
        "mariner.locations.medsea.bizerta.hakim": 1,
        "mariner.location.hostile": -1
      },
      "description": "\"I am not sure what I could do with this... I only dabble, and this is beyond mere dabblings. I have seen similar artifacts when i studied in Alexandria. I doubt you got permission to take it. Those glyphs are Hyksosan, and that image is clearly a version of the Elegiast. While he is not the unkindest hour, his power over wards are significant. I would take this to someone versed in spiritual matters, and confident in their abilities.\""
    },
    {
      "id": "mariner.conversations.medsea.bizerta.hakim.hyksos",
      "craftable": true,
      "actionId": "talk",
      "warmup": 60,
      "label": "Discuss the Unknown Glyphs with Hakim",
      "startdescription": "\"<You seek my help in a scholarly pursuit? I shall endeavor to supply.>\"",
      "grandReqs": {
        "mariner.vaults.damascus.glyphs.hidden": 1,
        "mariner.locations.medsea.bizerta.hakim": 1,
        "mariner.location.hostile": -1
      },
      "description": "Hakim looks at the markings for only a few moments, before recoiling harshly and folding the paper with a decided hand. \"I do know this script, from the time I spend studying the deeper mysteries in Alexandria. You have copied an Hyksosan ward there. Reading it itself can be dangerous, so I dare not look to close... But it seems like a threat, or possible an invitation.\""
    },
    {
      "id": "mariner.conversations.medsea.bizerta.hakim.songwinter",
      "craftable": true,
      "actionId": "talk",
      "warmup": 60,
      "label": "<Discuss the Power of my Songs>",
      "startdescription": "\"<I never enrolled in the conservatory, but I can share what I learned in my studies.>\"",
      "grandReqs": {
        "mariner.song.winter": 1,
        "mariner.locations.medsea.bizerta.hakim": 1,
        "mariner.location.hostile": -1
      },
      "description": "<\"Winter may seem far here, but the desert nights are bitter cold. and in that bleak expanse of pale starlight, the dead can come to mind with crisp clarity. If you aim your music at the direction of Winter, the dead can be influenced. reanimated, parlayed, quieted, if paired with the appropriate Intent.\">"
    },
    {
      "id": "mariner.conversations.medsea.bizerta.hakim.songmoth",
      "craftable": true,
      "actionId": "talk",
      "warmup": 60,
      "label": "<Discuss the Power of my Songs>",
      "startdescription": "\"<I never enrolled in the conservatory, but I can share what I learned in my studies.\"",
      "grandReqs": {
        "mariner.song.moth": 1,
        "mariner.locations.medsea.bizerta.hakim": 1,
        "mariner.location.hostile": -1
      },
      "description": "<\"The songs of Moth? I hear prague I heard it expressed as the songs the wind plays through deep forest. but that is not the language the wind speaks here. Knotwingknot is a rare visitor here, and usually the Imago drives her winds past our windows. Perhaps talk to someone on the Continent.\">"
    },
    {
      "id": "mariner.conversations.medsea.bizerta.hakim.halfheart",
      "craftable": true,
      "actionId": "talk",
      "warmup": 60,
      "label": "<Ask about my Halfheart>",
      "startdescription": "\"<A split soul? A common motif...>\"",
      "grandReqs": {
        "mariner.halfheart": 1,
        "mariner.locations.medsea.bizerta.hakim": 1,
        "mariner.location.hostile": -1
      },
      "description": "\"You can find the split soul in literature, folklore, philosophy. Plato himself thought that all humans in the world where halved beings, and the Egyptians recognised several parts of course. I wonder, with enough anatomical ans metaphysical knowledge, could a split soul be stitched together like the body can be? Would that have been what my friend had been pursuing?\""
    },
    {
      "id": "mariner.conversations.medsea.bizerta.hakim.lackheart",
      "craftable": true,
      "actionId": "talk",
      "warmup": 60,
      "label": "<Ask after Inner Darkness>",
      "startdescription": "\"<Emptyness in your life can spring from many sorrows.>\"",
      "grandReqs": {
        "mariner.lackheart": 1,
        "mariner.locations.medsea.bizerta.hakim": 1,
        "mariner.location.hostile": -1
      },
      "description": "\"Grief, the grind of life., a loss of purpose, a loss of self. I am watching the world burn, and I just hope that under the soot lies something better. I build mysekf up through education, travel and modern thought. But what certainty do I have is that what I gain is better then what I leave behind?\""
    },
    {
      "id": "mariner.conversations.medsea.bizerta.hakim.quest.student.1",
      "craftable": true,
      "actionId": "talk",
      "warmup": 60,
      "label": "<Discuss with Hakim>",
      "startdescription": "\"<>\"",
      "grandReqs": {
        "mariner.song.knock": 1,
        "mariner.locations.medsea.bizerta.hakim": 1,
        "mariner.location.hostile": -1
      },
      "description": "\"he was a friend. Once I would have considered him close as a brother. But these days I didn't even know he had returned to Bizerte, and I don't know where his pursuits have taken him since we last met. He studied Medicine then, in Alexandria, and we debated the Histories and the Lesser Dreams on young nights and old mornings.\""
    },
    {
      "id": "mariner.conversations.medsea.bizerta.hakim.quest.student.2",
      "craftable": true,
      "actionId": "talk",
      "warmup": 60,
      "label": "<Discuss with Hakim>",
      "startdescription": "\"<>\"",
      "grandReqs": {
        "mariner.song.knock": 1,
        "mariner.locations.medsea.bizerta.hakim": 1,
        "mariner.location.hostile": -1
      },
      "description": "\"A secret fraternity of auto-what? No, never mind, do not tell me now.. I never had the stomach for the surgeon's theater like him. I can see how this would have drawn him in. He always had the tendency to burn bright with Illumination but be poor in Preservation, even of himself.\""
    },
    {
      "id": "mariner.conversations.medsea.bizerta.hakim.quest.stench.1",
      "craftable": true,
      "actionId": "talk",
      "warmup": 60,
      "label": "<Discuss with Hakim>",
      "startdescription": "\"<>\"",
      "grandReqs": {
        "mariner.song.knock": 1,
        "mariner.locations.medsea.bizerta.hakim": 1,
        "mariner.location.hostile": -1
      },
      "description": "\"The goings on in a hospital he entered at a decade ago? It is a tenuous connection, some might even call it a leap. But until you are sure it is not related, I am glad you are pursuing it.\""
    },
    {
      "id": "mariner.conversations.medsea.bizerta.hakim.quest.bewitch.1",
      "craftable": true,
      "actionId": "talk",
      "warmup": 60,
      "label": "<Discuss with Hakim>",
      "startdescription": "\"<>\"",
      "grandReqs": {
        "mariner.song.knock": 1,
        "mariner.locations.medsea.bizerta.hakim": 1,
        "mariner.location.hostile": -1
      },
      "description": "\"Talents such as yours are appealing to many… What you are willing to do with them is up to yourself and your god.\""
    },
    {
      "id": "mariner.conversations.medsea.bizerta.hakim.quest.bewitch.2",
      "craftable": true,
      "actionId": "talk",
      "warmup": 60,
      "label": "<Discuss with Hakim>",
      "startdescription": "\"<>\"",
      "grandReqs": {
        "mariner.song.knock": 1,
        "mariner.locations.medsea.bizerta.hakim": 1,
        "mariner.location.hostile": -1
      },
      "description": "\"I have attempted to follow the news in Marseille from here. Plenty of french newspapers in the stalls. I heard of the irregularities, and I couldn't help but wonder if you had been involved.\""
    },
    {
      "id": "mariner.conversations.medsea.bizerta.hakim.quest.towers.1",
      "craftable": true,
      "actionId": "talk",
      "warmup": 60,
      "label": "<Discuss with Hakim>",
      "startdescription": "\"<>\"",
      "grandReqs": {
        "mariner.song.knock": 1,
        "mariner.locations.medsea.bizerta.hakim": 1,
        "mariner.location.hostile": -1
      },
      "description": "\"When I first entered the Mansus, it was with him… three of us, holed up in our dorm. Scissors next to the bed. But I do not know much beyond the Silver Road and the dark Woods. I did not enjoy the urges I felt blooming there, and decided that the light of the Mansus was best admired from a safe distance.\""
    },
    {
      "id": "mariner.conversations.medsea.bizerta.hakim.quest.truth.1",
      "craftable": true,
      "actionId": "talk",
      "warmup": 60,
      "label": "<Discuss with Hakim>",
      "startdescription": "\"<>\"",
      "grandReqs": {
        "mariner.song.knock": 1,
        "mariner.locations.medsea.bizerta.hakim": 1,
        "mariner.location.hostile": -1
      },
      "description": "\"Luxor! Marvelous city, marvelous history. I spend a gap year there, attempting to follow the Nile up to the point where it flows out of Myth and into Legend. Misguided, I know now, since I read the Book of the Centipede… But still, a marvelous experience with marvelous friends. We spent a week in Luxor, eating Freekah, seeing the Temple, and providing each other excuses not to leave civilization behind.\""
    },
    {
      "id": "mariner.conversations.medsea.bizerta.hakim.quest.sisterhood.1",
      "craftable": true,
      "actionId": "talk",
      "warmup": 60,
      "label": "<Discuss with Hakim>",
      "startdescription": "\"<>\"",
      "grandReqs": {
        "mariner.song.knock": 1,
        "mariner.locations.medsea.bizerta.hakim": 1,
        "mariner.location.hostile": -1
      },
      "description": "\"I have been introduced to this mother Euphresme, I believe. I would wish for any visitor of the Queen of Cities to spend an evening with her. I cannot say I am too surprised to hear she operated a secret sect within her church, I doubt even a fraction of her secrets have been revealed so far. I do remember a young woman from Constaninople passing through here as a child. She traveled south, said she sought the edge of the map.\""
    },
    {
      "id": "mariner.conversations.medsea.bizerta.hakim.quest.caper.1",
      "craftable": true,
      "actionId": "talk",
      "warmup": 60,
      "label": "<Discuss with Hakim>",
      "startdescription": "\"<>\"",
      "grandReqs": {
        "mariner.song.knock": 1,
        "mariner.locations.medsea.bizerta.hakim": 1,
        "mariner.location.hostile": -1
      },
      "description": "\"I have not kept up with the peerage in a while, but I do believe I have heard of this Hunyadi when I was in boeda-pesht. Not that I normally hang out with aristocracy, but they do like to slum… Some of the good old boys came down to join us in the demi-monde for a salon… though I believe their minds were more on the absinthe than on the politics. But I believe the name Hunyadi fell… as a lay-about, a rake, a lucky-one, a traitor.\""
    },
    {
      "id": "mariner.conversations.medsea.bizerta.hakim.quest.constelate.1",
      "craftable": true,
      "actionId": "talk",
      "warmup": 60,
      "label": "<Discuss with Hakim>",
      "startdescription": "\"<>\"",
      "grandReqs": {
        "mariner.song.knock": 1,
        "mariner.locations.medsea.bizerta.hakim": 1,
        "mariner.location.hostile": -1
      },
      "description": "\"The House of Lethe? I must have missed that class… or that tome, depending on if this is history or Histories.\""
    },
    {
      "id": "mariner.conversations.medsea.bizerta.hakim.quest.imago.1",
      "craftable": true,
      "actionId": "talk",
      "warmup": 60,
      "label": "<Discuss with Hakim>",
      "startdescription": "\"<>\"",
      "grandReqs": {
        "mariner.song.knock": 1,
        "mariner.locations.medsea.bizerta.hakim": 1,
        "mariner.location.hostile": -1
      },
      "description": "\"Matthias and Imago? I read one or two of the accounts, translated of course, but with the copied illustrations. A friend worked on them, and shared them with our Young Arab club meetings. I discussed them with Mortimer. He wished to understand Mattias, but I could not help being drawn to this fierce, fiery winged creature. The nature of humanity is dust, is the nature of Names light, or subtle fire?\""
    },
    {
      "id": "mariner.conversations.medsea.bizerta.hakim.quest.muse.1",
      "craftable": true,
      "actionId": "talk",
      "warmup": 60,
      "label": "<Discuss with Hakim>",
      "startdescription": "\"<>\"",
      "grandReqs": {
        "mariner.song.knock": 1,
        "mariner.locations.medsea.bizerta.hakim": 1,
        "mariner.location.hostile": -1
      },
      "description": "\"I have not ventured much further north than Paris and Vienna, and I do not visit the clubs that dancers frequent very often. Cafes are more my style.\""
    },
    {
      "id": "mariner.conversations.medsea.bizerta.hakim.wary.showfindings",
      "craftable": true,
      "actionId": "talk",
      "maxexecutions": 1,
      "warmup": 60,
      "label": "<Show Findings>",
      "startdescription": "<>",
      "grandReqs": {
        "mariner.vaults.bizerta_morgue.casefile": 1,
        "mariner.quests.frenchheartcult": 1,
        "root/mariner.globalflags.quest.frenchheartcult.startedviatheprofessor": -1,
        "mariner.locations.medsea.bizerta.hakim.wary": 1,
        "mariner.location.hostile": -1
      },
      "furthermore": [
        {
          "target": "~/visible",
          "aspects": {
            "mariner.questsignal.frenchheartcult.applyupdate.showedfindingstohakim": 1
          }
        },
        {
          "effects": {
            "mariner.locations.medsea.marseille.professor.away": 1
          }
        },
        {
          "aspects": {
            "mariner.signal.applydefaultroutine": 1
          }
        }
      ],
      "linked": []
    },
    {
      "id": "mariner.conversations.medsea.bizerta.hakim.wary",
      "craftable": true,
      "actionId": "talk",
      "label": "<Too Wary To Talk>",
      "startdescription": "<>",
      "description": "<Hakim is still too weary to talk.>",
      "requirements": {
        "mariner.locations.medsea.bizerta.hakim.wary": 1
      }
    }
  ]
}