{
  "recipes": [
    {
      "id": "mariner.sailing.mainloop",
      "label": "Sailing",
      "actionId": "mariner.sail",
      "startdescription": "<b><u>Current stats:</u></b><br><u>Speed</u>: @#mariner.ship.speed|$value#|0@ (ship: @#mariner.ship.speed|$value@)<br><u>Discretion</u>: @#mariner.ship.discretion|$value#|0@ (ship: @#mariner.ship.discretion|$value@)@#mariner.ship.grammarie|<br><u>Grammarie</u>: @@#mariner.ship.grammarie|$value@ (ship: @#mariner.ship.grammarie|$value@)<br>Progress: @#mariner.sailing.distancetravelled|$value#|0@/@#mariner.sailing.totaldistance|$value@ (@#mariner.sailing.distancetravelledinpercents|$value#|0@%)<br><br>What might find us next upon the sea?",
      "craftable": false,
      "warmup": 4,
      "furthermore": [
        {
          "movements": {
            "~/tabletop": [
              "mariner.crew"
            ]
          }
        }
      ],
      "linked": [
        {
          "id": "mariner.sailing.checkforevent.influenced",
          "chance": "([~/exterior : mariner.mooninfluence.winter] * 10) + ([~/exterior : mariner.influences.winter] * 10) + ([~/exterior:mariner.crew.traits.goodfortuned] * 5) - ([~/exterior:mariner.crew.traits.unlucky] * 5)"
        },
        {
          "id": "mariner.sailing.pickevent",
          "chance": 70
        },
        {
          "id": "mariner.sailing.noevent"
        }
      ],
      "alt": [
        "mariner.sailing.sinking",
        "mariner.sailing.repairatsea",
        "mariner.sailing.throwcargo",
        "mariner.sailing.crewman",
        "mariner.sailing.mate",
        "mariner.sailing.carpenter",
        "mariner.sailing.cook",
        "mariner.sailing.officer",
        "mariner.sailing.conman",
        "mariner.sailing.merchant",
        "mariner.sailing.quartermaster",
        "mariner.sailing.surgeon",
        "mariner.sailing.refreshsong"
      ],
      "slots": [
        {
          "id": "action",
          "actionId": "mariner.sail",
          "label": "<Action?>",
          "description": "<There is always enough to do while at sea. I can attempt to patch the ship with a repair kit, lighten our load by tossing cargo over board, or set one of my crew members to work.>",
          "required": {
            "mariner.repairkit": 1,
            "mariner.cargo": 1,
            "mariner.crew": 1,
            "mariner.thrill": 1
          },
          "forbidden": {
            "mariner.crew.exhausted": 1
          }
        }
      ]
    },
    {
      "id": "mariner.sailing.openseamainloop",
      "label": "Sailing",
      "actionId": "mariner.sail",
      "startdescription": "What might find us next upon the sea? [OPEN SEA]",
      "craftable": false,
      "warmup": 20,
      "requirements": {
        "mariner.destination": -1
      },
      "furthermore": [
        {
          "movements": {
            "~/tabletop": [
              "mariner.crew"
            ]
          }
        }
      ],
      "slots": [
        {
          "id": "action",
          "actionId": "mariner.sail",
          "label": "<New Course? Action to take?>",
          "description": "<There are always many things to do at sea, but we can still choose where we focus our attention.>",
          "required": {
            "mariner.destination": 1,
            "mariner.repairkit": 1,
            "mariner.cargo": 1,
            "mariner.crew": 1,
            "mariner.thrill": 1
          },
          "forbidden": {
            "mariner.crew.exhausted": 1
          }
        }
      ],
      "linked": [
        {
          "id": "mariner.sailing.checkforevent.influenced",
          "chance": "([~/exterior : mariner.mooninfluence.winter] * 10) + ([~/exterior : mariner.influences.winter] * 10) + ([~/exterior:mariner.crew.traits.goodfortuned] * 5) - ([~/exterior:mariner.crew.traits.unlucky] * 5)"
        },
        {
          "id": "mariner.sailing.pickevent",
          "chance": 70
        },
        {
          "id": "mariner.sailing.noevent"
        }
      ],
      "alt": [
        "mariner.sailing.sinking",
        "mariner.sailing.setcourse.from.*",
        "mariner.sailing.repairatsea",
        "mariner.sailing.throwcargo",
        "mariner.sailing.crewman",
        "mariner.sailing.mate",
        "mariner.sailing.carpenter",
        "mariner.sailing.cook",
        "mariner.sailing.officer",
        "mariner.sailing.conman",
        "mariner.sailing.merchant",
        "mariner.sailing.quartermaster",
        "mariner.sailing.surgeon",
        "mariner.sailing.refreshsong"
      ]
    }
  ]
}