{
  "elements": [
    {
      "id": "mariner.passengeropportunity.goingto.northsea.london",
      "label": "Potential Client, Going to London",
      "description": "This one is looking for a ship to get them to London. They will reward us if we bring them to London, but their patience is limited.",
      "lifetime": 400,
      "icon": "mariner.opportunity.passenger",
      "aspects": {
        "mariner.passenger.opportunity": 1,
        "mariner.local": 1,
        "modded_talk_allowed": 1
      },
      "xtriggers": {
        "mariner.acceptclient": "mariner.passenger.goingto.northsea.london"
      }
    },
    {
      "id": "mariner.passenger.goingto.northsea.london",
      "label": "Passenger, Going to London",
      "description": "Passenger, going to London. They will reward us if we bring them to London, but their patience is limited.",
      "lifetime": 600,
      "icon": "generic_c_grail",
      "aspects": {
        "mariner.passenger": 1,
        "mariner.passenger.wantstogoto.northsea.london": 1,
        "mariner.cabinuse": 1
      },
      "xtriggers": {
        "mariner.signal.freakout": [
          {
            "morpheffect": "mutate",
            "id": "mariner.passenger.freakedout",
            "level": 1
          }
        ]
      },
      "decayTo": "mariner.lastingnotoriety"
    },
    {
      "id": "mariner.passengeropportunity.goingto.northsea.amsterdam",
      "label": "Potential Client, Going to Amsterdam",
      "description": "This one is looking for a ship to get them to Amsterdam. They will reward us if we bring them to Amsterdam, but their patience is limited.",
      "lifetime": 400,
      "icon": "mariner.opportunity.passenger",
      "aspects": {
        "mariner.passenger.opportunity": 1,
        "mariner.local": 1,
        "modded_talk_allowed": 1
      },
      "xtriggers": {
        "mariner.acceptclient": "mariner.passenger.goingto.northsea.amsterdam"
      }
    },
    {
      "id": "mariner.passenger.goingto.northsea.amsterdam",
      "label": "Passenger, Going to Amsterdam",
      "description": "Passenger, going to Amsterdam. They will reward us if we bring them to Amsterdam, but their patience is limited.",
      "lifetime": 600,
      "icon": "generic_c_grail",
      "aspects": {
        "mariner.passenger": 1,
        "mariner.passenger.wantstogoto.northsea.amsterdam": 1,
        "mariner.cabinuse": 1
      },
      "xtriggers": {
        "mariner.signal.freakout": [
          {
            "morpheffect": "mutate",
            "id": "mariner.passenger.freakedout",
            "level": 1
          }
        ]
      },
      "decayTo": "mariner.lastingnotoriety"
    },
    {
      "id": "mariner.passengeropportunity.goingto.northsea.copenhagen",
      "label": "Potential Client, Going to Copenhagen",
      "description": "This one is looking for a ship to get them to Copenhagen. They will reward us if we bring them to Copenhagen, but their patience is limited.",
      "lifetime": 400,
      "icon": "mariner.opportunity.passenger",
      "aspects": {
        "mariner.passenger.opportunity": 1,
        "mariner.local": 1,
        "modded_talk_allowed": 1
      },
      "xtriggers": {
        "mariner.acceptclient": "mariner.passenger.goingto.northsea.copenhagen"
      }
    },
    {
      "id": "mariner.passenger.goingto.northsea.copenhagen",
      "label": "Passenger, Going to Copenhagen",
      "description": "Passenger, going to Copenhagen. They will reward us if we bring them to Copenhagen, but their patience is limited.",
      "lifetime": 600,
      "icon": "generic_c_grail",
      "aspects": {
        "mariner.passenger": 1,
        "mariner.passenger.wantstogoto.northsea.copenhagen": 1,
        "mariner.cabinuse": 1
      },
      "xtriggers": {
        "mariner.signal.freakout": [
          {
            "morpheffect": "mutate",
            "id": "mariner.passenger.freakedout",
            "level": 1
          }
        ]
      },
      "decayTo": "mariner.lastingnotoriety"
    }
  ]
}