{
    "recipes": [
        {
            "id": "mariner.acceptclient.cabinfull",
            "label": "No Room Left in Cabins",
            "hintOnly": true,
            "actionId": "talk",
            "requirements": {
                "mariner.passenger.opportunity": 1
            },
            "grandReqs": {
                "[~/extant:mariner.cabinuse]": "[~/extant:mariner.ship.cabinsize]"
            },
            "startdescription": "I will have to turn these hopeful travelers down, as the Kite is at her capacity."
        },
        {
            "id": "mariner.acceptclient",
            "label": "Accept this Passenger?",
            "craftable": true,
            "actionId": "talk",
            "requirements": {
                "mariner.passenger.opportunity": 1
            },
            "grandReqs": {
                "[~/extant:mariner.cabinuse]": "-[~/extant:mariner.ship.cabinsize]"
            },
            "warmup": 10,
            "aspects": {
                "mariner.acceptclient": 1
            }
        }
    ]
}