{
  "elements": [
    {
      "isAspect": true,
      "id": "mariner.waypoint",
      "label": "Waypoint"
    },
    {
      "isAspect": true,
      "id": "mariner.locations.northsea.london.destination",
      "label": "In London",
      "description": "This is not here; It is in London.",
      "decayTo": "anything really"
    },
    {
      "isAspect": true,
      "id": "mariner.locations.northsea.amsterdam.destination",
      "label": "In Amsterdam",
      "description": "This is not here; It is in Amsterdam.",
      "decayTo": "anything really"
    },
    {
      "isAspect": true,
      "id": "mariner.locations.northsea.copenhagen.destination",
      "label": "In Copenhagen",
      "description": "This is not here; It is in Copenhagen.",
      "decayTo": "anything really"
    },
    {
      "isAspect": true,
      "id": "mariner.locations.medsea.marseille.destination",
      "label": "In Marseille",
      "description": "This is not here; It is in Marseille.",
      "decayTo": "anything really"
    },
    {
      "isAspect": true,
      "id": "mariner.locations.medsea.bizerta.destination",
      "label": "In Bizerta",
      "description": "This is not here; It is in Bizerta.",
      "decayTo": "anything really"
    },
    {
      "isAspect": true,
      "id": "mariner.locations.medsea.constantinople.destination",
      "label": "In Constantinople",
      "description": "This is not here; It is in Constantinople.",
      "decayTo": "anything really"
    },
    {
      "isAspect": true,
      "id": "mariner.locations.medsea.haifa.destination",
      "label": "In Haïfa",
      "description": "This is not here; It is in Haïfa.",
      "decayTo": "anything really"
    }
  ]
}