{
  "recipes": [
    {
      "id": "mariner.combinetofindlocationin.northsea",
      "craftable": true,
      "actionId": "mariner.navigate",
      "warmup": 60,
      "label": "Pull a Thread",
      "startdescription": "If I weigh the local news I have scavenged in bars against the snippets I have obtained from my contacts, I may be able to make new connections, find new opportunities and discover truly extraordinary places.",
      "requirements": {
        "mariner.scrapofinformation": 1,
        "mariner.rumour.northsea": 1
      },
      "deckeffects": {
        "mariner.decks.locations.northsea.discoverable": 1
      },
      "effects": {
        "mariner.scrapofinformation": -1,
        "mariner.rumour.northsea": -1
      },
      "linked": [
        {
          "id": "mariner.applyactionpostfindlocation.start.*"
        }
      ]
    },
    {
      "id": "mariner.combinetofindlocationin.medsea",
      "craftable": true,
      "actionId": "mariner.navigate",
      "warmup": 60,
      "label": "Pull a Thread",
      "startdescription": "If I weigh the local news I have scavenged in bars against the snippets I have obtained from my contacts, I may be able to make new connections, find new opportunities and discover truly extraordinary places.",
      "requirements": {
        "mariner.scrapofinformation": 1,
        "mariner.rumour.medsea": 1
      },
      "deckeffects": {
        "mariner.decks.locations.medsea.discoverable": 1
      },
      "effects": {
        "mariner.scrapofinformation": -1,
        "mariner.rumour.medsea": -1
      },
      "linked": [
        {
          "id": "mariner.applyactionpostfindlocation.start.*"
        }
      ]
    }
  ]
}