{
    "recipes": [
        {
            "id": "mariner.explore.oddcorners",
            "label": "Odd Engagements",
            "actionId": "explore",
            "craftable": true,
            "requirements": {
                "mariner.oddcorners": 1
            },
            "startdescription": "I wander this tangled knot of street, letting my thoughts fray and awareness widen. A waft of poetry from a diveroom bar, a half-understood ritual performed by half-wise fools, or perhaps the familar tune of the Raconteur Network.",
            "warmup": 60,
            "deckeffects": {
                "mariner.decks.oddcorners": 2
            },
            "furthermore": [
                {
                    "effects": {
                        "mariner.addgroundedness.caller": 2
                    }
                },
                {
                    "aspects": {
                        "mariner.function.caller": 1
                    }
                }
            ]
        }
    ]
}