{
  "recipes": [
    {
      "id": "mariner.sailing.grammarievents.level1.start.ShipOfWinter",
      "warmup": 20,
      "grandReqs": {
        "[~/exterior : { [mariner.crew] } : moth] + [ ~/local: { [mariner.ship.kite] } : moth]": 10
      },
      "label": "<The Patient Ship>",
      "startdescription": "Time on board can become a crawl...",
      "linked": [
        {
          "id": "mariner.sailing.grammarievents.level1.ShipOfWinter.outcome.end"
        }
      ]
    },
    {
      "id": "mariner.sailing.grammarievents.level1.ShipOfWinter.outcome.end",
      "warmup": 20,
      "label": "The Patient Ship: Each Journey A Moment",
      "startdescription": "<Time on board can become a crawl as change itself fears to disturb the captains discipline. misfortune quiets, homesickness is smothered uder the weight of pallid acceptance. Our end may come, onde day, but until that day my crew fate is shackled to mine. On a journey like this one, the call of the shore quiets like a shout through a showflurry, and I will not lose my crew to longing.>",
      "linked": [
        {
          "id": "mariner.sailing.postevent"
        }
      ],
      "furthermore": [
        {
          "target": "~/exterior",
          "mutations": [
            {
              "filter": "mariner.crew",
              "mutate": "mariner.crew.longing",
              "limit": 20,
              "level": -2,
              "additive": true
            }
          ]
        }
      ]
    }
  ]
}