{
  "recipes": [
    {
      "id": "mariner.saving",
      "actionId": "mariner.sing",
      "craftable": true,
      "grandReqs": {
        "mariner.atsea": -1,
        "[~/exterior : {[mariner.vault] = 0} : mariner.docked]": 1,
        "mariner.moon": 1,
        "mariner.story": "1 + [~/visible : aspectmax/desire]"
      },
      "warmup": 10,
      "label": "<A Dialogue of One>",
      "startdescription": "<The moon is a good audience. the moon is a steady companion. the moon is a faithful guide. I can feel secure in my story being kept safe there.>",
      "description": "<My future is uncertain, but my past is secure.>",
      "furthermore": [
        {
          "aspects": {
            "mariner.signal.clearmoonbonuses": 1
          }
        },
        {
          "aspects": {
            "mariner.signal.applymoonbonusaspects": 1
          }
        },
        {
          "aspects": {
            "mariner.signal.installmoonbonuses": 1,
            "mariner.signal.exhauststory": 1
          }
        }
      ],
      "saveCheckpoint": true
    }
  ]
}