{
  "elements": [
    {
      "id": "mariner.vaults.damascus.bird",
      "label": "<bird>",
      "unique": true,
      "description": "<The Lethians, who seperated themselves from the affairs of the House, hold sacred a certain bird who holds vigil at gravesights and laments the dead. Why this breach in their own sturdy rules? Because the Elegiast allowed them something they desired even more?>"
    },
    {
      "id": "mariner.vaults.damascus.page1_totake",
      "label": "<First Part of Matthias and the Imago: Loss>",
      "aspects": {
        "mariner.navigate_allowed": 1
      },
      "unique": true,
      "description": "<Copied scribbled notes, in hopefully recognisable aramaic. I should see if any of my contacts can assist me in translating the story.>",
      "slots": [
        {
          "id": "pages2",
          "label": "Other Pages",
          "description": "The other pages that together make up Loss.",
          "actionId": "mariner.navigate",
          "required": {
            "mariner.vaults.damascus.page2_totake": 1
          }
        },
        {
          "id": "pages3",
          "label": "Other pages",
          "description": "The other pages that together make up Loss.",
          "actionId": "mariner.navigate",
          "required": {
            "mariner.vaults.damascus.page3_totake": 1
          }
        },
        {
          "id": "pages4",
          "label": "Other pages",
          "description": "The other pages that together make up Loss.",
          "actionId": "mariner.navigate",
          "required": {
            "mariner.vaults.damascus.page4_totake": 1
          }
        }
      ]
    },
    {
      "id": "mariner.vaults.damascus.page2_totake",
      "label": "<Second Part of Matthias and the Imago: Loss>",
      "aspects": {
        "mariner.navigate_allowed": 1
      },
      "unique": true,
      "description": "<Copied scribbled notes, in hopefully recognisable aramaic. I should see if any of my contacts can assist me in translating the story.>",
      "slots": [
        {
          "id": "pages2",
          "label": "Other Pages",
          "description": "The other pages that together make up Loss.",
          "actionId": "mariner.navigate",
          "required": {
            "mariner.vaults.damascus.page1_totake": 1
          }
        },
        {
          "id": "pages3",
          "label": "Other pages",
          "description": "The other pages that together make up Loss.",
          "actionId": "mariner.navigate",
          "required": {
            "mariner.vaults.damascus.page3_totake": 1
          }
        },
        {
          "id": "pages4",
          "label": "Other pages",
          "description": "The other pages that together make up Loss.",
          "actionId": "mariner.navigate",
          "required": {
            "mariner.vaults.damascus.page4_totake": 1
          }
        }
      ]
    },
    {
      "id": "mariner.vaults.damascus.page3_totake",
      "label": "<Third Part of Matthias and the Imago: Loss>",
      "aspects": {
        "mariner.navigate_allowed": 1
      },
      "unique": true,
      "description": "<Copied scribbled notes, in hopefully recognisable aramaic. I should see if any of my contacts can assist me in translating the story.>",
      "slots": [
        {
          "id": "pages2",
          "label": "Other Pages",
          "description": "The other pages that together make up Loss.",
          "actionId": "mariner.navigate",
          "required": {
            "mariner.vaults.damascus.page2_totake": 1
          }
        },
        {
          "id": "pages3",
          "label": "Other pages",
          "description": "The other pages that together make up Loss.",
          "actionId": "mariner.navigate",
          "required": {
            "mariner.vaults.damascus.page1_totake": 1
          }
        },
        {
          "id": "pages4",
          "label": "Other pages",
          "description": "The other pages that together make up Loss.",
          "actionId": "mariner.navigate",
          "required": {
            "mariner.vaults.damascus.page4_totake": 1
          }
        }
      ]
    },
    {
      "id": "mariner.vaults.damascus.page4_totake",
      "label": "<Final Part of Matthias and the Imago: Loss>",
      "aspects": {
        "mariner.navigate_allowed": 1
      },
      "unique": true,
      "description": "<The final section of the book has been deemed too dangerous for public viewing, even when they are written in a language dead to the vulgar masses.>",
      "slots": [
        {
          "id": "pages2",
          "label": "Other Pages",
          "description": "The other pages that together make up Loss.",
          "actionId": "mariner.navigate",
          "required": {
            "mariner.vaults.damascus.page2_totake": 1
          }
        },
        {
          "id": "pages3",
          "label": "Other pages",
          "description": "The other pages that together make up Loss.",
          "actionId": "mariner.navigate",
          "required": {
            "mariner.vaults.damascus.page3_totake": 1
          }
        },
        {
          "id": "pages4",
          "label": "Other pages",
          "description": "The other pages that together make up Loss.",
          "actionId": "mariner.navigate",
          "required": {
            "mariner.vaults.damascus.page1_totake": 1
          }
        }
      ]
    },
    {
      "id": "mariner.vaults.damascus.glyphs.hidden",
      "label": "Rubbings of Markings in an Unfamiliar Script",
      "description": "A dark imitation of the glyphs found at the walls of the Damascene branch of the house of Lethe. They hold a strange appeal.",
      "aspects": {
        "mariner.trapping": 1,
        "mariner.trapping.worth": 1,
        "mariner.trappings.edge": 1,
        "edge": 1,
        "mariner.trappingtypes.artifact": 1,
        "mariner.trappingtypes.readable": 1,
        "mariner.topic": 1
      }
    },
    {
      "id": "mariner.vaults.damascus.glyphs",
      "label": "Hyksian Glyphs",
      "description": "Even these mere shadows of a Hyksian ward carry with them a dangerous allure. I know not what they mean, but still I trace the lines with my fingers on moments lost in reveries.",
      "aspects": {
        "mariner.trapping": 1,
        "mariner.trapping.worth": 3,
        "mariner.trappings.winter": 2,
        "mariner.trappings.edge": 2,
        "mariner.trappings.grail": 1,
        "winter": 2,
        "edge": 2,
        "grail": 1,
        "mariner.trappingtypes.artifact": 1,
        "mariner.trappingtypes.readable": 1,
        "mariner.topic": 1
      }
    },
    {
      "id": "mariner.vaults.damascus.empty",
      "label": "<Empty>",
      "unique": true,
      "description": "<The room is cleared, and as so often in empty spaces that once bustled, the air is laced with a sense of awkwardnes, like a conversation interrupted.>",
      "aspects": {
        "op": 1,
        "mariner.local": 1,
        "mariner.vaults.help": 1
      }
    },
    {
      "id": "mariner.vaults.damascus.distraction",
      "label": "Distraction",
      "unique": true,
      "description": "<No Eyes on me, for a moment, I could take a clandestine action, if I act quickly.>",
      "aspects": {
        "op": 1,
        "mariner.local": 1,
        "mariner.vaults.help": 1
      }
    },
    {
      "id": "mariner.vaults.damascus.guidance",
      "label": "<Statues Guidance>",
      "unique": true,
      "description": "<Directions, hidden in plain sight. Some-one was very clever to hide a secret in such a central structure, or very arrogant.",
      "aspects": {
        "mariner.local": 1,
        "mariner.vaults.help": 1
      }
    },
    {
      "id": "mariner.vaults.damascus.curator",
      "label": "<Curator>",
      "lifetime": "180",
      "description": "<All experts love to hear themselves talk about their specialty. But all academics also see their own time as incomparably valuable, so their patience is limited.>",
      "xtriggers": {
        "mariner.flubbed": [
          {
            "morpheffect": "timespend",
            "level": 60000
          }
        ]
      },
      "aspects": {
        "mariner.local": 1,
        "mariner.vaults.help": 1
      }
    },
    {
      "id": "mariner.vaults.damascus.museum",
      "label": "Imperial Museum of the Near East",
      "description": "While the content is curated, the display feels more focussed on available space than history or context. The walls are mounted with trophies from times and places hunted throughout history. But in this chaos, stands the White Room. walls, ceiling and contents of the Damascene Branch of the House of Lethe  all reassembled in a feat of architectural taxidermy.",
      "aspects": {
        "mariner.local": 1,
        "mariner.aspects.vaults.damascus.layer.1": 1,
        "modded_explore_allowed": 1
      }
    },
    {
      "id": "mariner.vaults.damascus.walls",
      "icon": "tasks/mariner.tasks.shoreline.blue",
      "label": "The Dissected Walls",
      "description": "The walls of the Damascene branch have been dissected and then reassembled here, brick by brick, with commendable attention to detail, but perhaps not a lot of decorum. The greatest treasure of the house is displayed here, an original volume of a book  from the house of Lethe.",
      "aspects": {
        "mariner.vaults.task": 1,
        "mariner.local": 1,
        "mariner.aspects.vaults.damascus.layer.1": 1,
        "mariner.navigate_allowed": 1,
        "modded_explore_allowed": 1
      },
      "slots": [
        {
          "actionId": "mariner.navigate",
          "id": "mariner.navigate1",
          "label": "Help",
          "description": "Which implements are available for my approach.",
          "required": {
            "funds": 1,
            "mariner.crew": 1,
            "mariner.song": 1,
            "mariner.story": 1,
            "mariner.inspiration.melody": 1,
            "mariner.tune": 1,
            "mariner.lackheart": 1,
            "mariner.halfheart": 1,
            "mariner.vaults.help": 1
          },
          "forbidden": {
            "mariner.crew.traits.singleminded": 1,
            "mariner.crew.exhausted": 1,
            "mariner.tool.broken": 1,
            "mariner.story.exhausted": 1,
            "mariner.inspiration.melody.exhausted": 1,
            "mariner.lackheart.exhausted": 1,
            "mariner.halfheart.exhausted": 1
          }
        },
        {
          "actionId": "mariner.navigate",
          "id": "mariner.navigate2",
          "label": "Help",
          "description": "Which implements are available for my approach.",
          "required": {
            "funds": 1,
            "mariner.crew": 1,
            "mariner.song": 1,
            "mariner.story": 1,
            "mariner.inspiration.melody": 1,
            "mariner.tune": 1,
            "mariner.lackheart": 1,
            "mariner.halfheart": 1,
            "mariner.vaults.help": 1
          },
          "forbidden": {
            "mariner.crew.traits.singleminded": 1,
            "mariner.crew.exhausted": 1,
            "mariner.tool.broken": 1,
            "mariner.story.exhausted": 1,
            "mariner.inspiration.melody.exhausted": 1,
            "mariner.lackheart.exhausted": 1,
            "mariner.halfheart.exhausted": 1
          }
        },
        {
          "actionId": "mariner.navigate",
          "id": "mariner.navigate3",
          "label": "Help",
          "description": "Which implements are available for my approach.",
          "required": {
            "funds": 1,
            "mariner.crew": 1,
            "mariner.song": 1,
            "mariner.story": 1,
            "mariner.inspiration.melody": 1,
            "mariner.tune": 1,
            "mariner.lackheart": 1,
            "mariner.halfheart": 1,
            "mariner.vaults.help": 1
          },
          "forbidden": {
            "mariner.crew.traits.singleminded": 1,
            "mariner.crew.exhausted": 1,
            "mariner.tool.broken": 1,
            "mariner.story.exhausted": 1,
            "mariner.inspiration.melody.exhausted": 1,
            "mariner.lackheart.exhausted": 1,
            "mariner.halfheart.exhausted": 1
          }
        },
        {
          "actionId": "explore",
          "id": "explore1",
          "label": "Help",
          "description": "Which implements are available for my approach.",
          "required": {
            "funds": 1,
            "mariner.crew": 1,
            "tool": 1,
            "mariner.tune": 1,
            "mariner.inspiration.nature": 1,
            "mariner.lackheart": 1,
            "mariner.halfheart": 1,
            "mariner.vaults.help": 1
          },
          "forbidden": {
            "mariner.crew.traits.craven": 1,
            "mariner.crew.exhausted": 1,
            "mariner.tool.broken": 1,
            "mariner.lackheart.exhausted": 1,
            "mariner.halfheart.exhausted": 1
          }
        },
        {
          "actionId": "explore",
          "id": "explore2",
          "label": "Help",
          "description": "Which implements are available for my approach.",
          "required": {
            "funds": 1,
            "mariner.crew": 1,
            "tool": 1,
            "mariner.tune": 1,
            "mariner.inspiration.nature": 1,
            "mariner.lackheart": 1,
            "mariner.halfheart": 1,
            "mariner.vaults.help": 1
          },
          "forbidden": {
            "mariner.crew.traits.craven": 1,
            "mariner.crew.exhausted": 1,
            "mariner.tool.broken": 1,
            "mariner.lackheart.exhausted": 1,
            "mariner.halfheart.exhausted": 1
          }
        },
        {
          "actionId": "explore",
          "id": "explore3",
          "label": "Help",
          "description": "Which implements are available for my approach.",
          "required": {
            "funds": 1,
            "mariner.crew": 1,
            "tool": 1,
            "mariner.tune": 1,
            "mariner.inspiration.nature": 1,
            "mariner.lackheart": 1,
            "mariner.halfheart": 1,
            "mariner.vaults.help": 1
          },
          "forbidden": {
            "mariner.crew.traits.craven": 1,
            "mariner.crew.exhausted": 1,
            "mariner.tool.broken": 1,
            "mariner.lackheart.exhausted": 1,
            "mariner.halfheart.exhausted": 1
          }
        },
        {
          "actionId": "explore",
          "id": "explore4",
          "label": "Help",
          "description": "Which implements are available for my approach.",
          "required": {
            "funds": 1,
            "mariner.crew": 1,
            "tool": 1,
            "mariner.tune": 1,
            "mariner.inspiration.nature": 1,
            "mariner.lackheart": 1,
            "mariner.halfheart": 1,
            "mariner.vaults.help": 1
          },
          "forbidden": {
            "mariner.crew.traits.craven": 1,
            "mariner.crew.exhausted": 1,
            "mariner.tool.broken": 1,
            "mariner.lackheart.exhausted": 1,
            "mariner.halfheart.exhausted": 1
          }
        },
        {
          "actionId": "explore",
          "id": "explore5",
          "label": "Help",
          "description": "Which implements are available for my approach.",
          "required": {
            "funds": 1,
            "mariner.crew": 1,
            "tool": 1,
            "mariner.tune": 1,
            "mariner.inspiration.nature": 1,
            "mariner.lackheart": 1,
            "mariner.halfheart": 1,
            "mariner.vaults.help": 1
          },
          "forbidden": {
            "mariner.crew.traits.craven": 1,
            "mariner.crew.exhausted": 1,
            "mariner.tool.broken": 1,
            "mariner.lackheart.exhausted": 1,
            "mariner.halfheart.exhausted": 1
          }
        }
      ]
    },
    {
      "id": "mariner.vaults.damascus.pages1",
      "icon": "tasks/mariner.tasks.shoreline.blue",
      "label": "<First Spread of Matthias and the Imago: Loss>",
      "description": "<Priceless historical artifact, but without speaking the language, just irregular pattern on a diaphanous sheet.>",
      "aspects": {
        "mariner.vaults.task": 1,
        "mariner.local": 1,
        "mariner.aspects.vaults.damascus.layer.1": 1,
        "mariner.navigate_allowed": 1,
        "modded_explore_allowed": 1
      },
      "slots": [
        {
          "actionId": "mariner.navigate",
          "id": "mariner.navigate1",
          "label": "Help",
          "description": "Which implements are available for my approach.",
          "required": {
            "funds": 1,
            "mariner.crew": 1,
            "mariner.song": 1,
            "mariner.story": 1,
            "mariner.inspiration.melody": 1,
            "mariner.tune": 1,
            "mariner.lackheart": 1,
            "mariner.halfheart": 1,
            "mariner.vaults.help": 1
          },
          "forbidden": {
            "mariner.crew.traits.singleminded": 1,
            "mariner.crew.exhausted": 1,
            "mariner.tool.broken": 1,
            "mariner.story.exhausted": 1,
            "mariner.inspiration.melody.exhausted": 1,
            "mariner.lackheart.exhausted": 1,
            "mariner.halfheart.exhausted": 1
          }
        },
        {
          "actionId": "mariner.navigate",
          "id": "mariner.navigate2",
          "label": "Help",
          "description": "Which implements are available for my approach.",
          "required": {
            "funds": 1,
            "mariner.crew": 1,
            "mariner.song": 1,
            "mariner.story": 1,
            "mariner.inspiration.melody": 1,
            "mariner.tune": 1,
            "mariner.lackheart": 1,
            "mariner.halfheart": 1,
            "mariner.vaults.help": 1
          },
          "forbidden": {
            "mariner.crew.traits.singleminded": 1,
            "mariner.crew.exhausted": 1,
            "mariner.tool.broken": 1,
            "mariner.story.exhausted": 1,
            "mariner.inspiration.melody.exhausted": 1,
            "mariner.lackheart.exhausted": 1,
            "mariner.halfheart.exhausted": 1
          }
        },
        {
          "actionId": "mariner.navigate",
          "id": "mariner.navigate3",
          "label": "Help",
          "description": "Which implements are available for my approach.",
          "required": {
            "funds": 1,
            "mariner.crew": 1,
            "mariner.song": 1,
            "mariner.story": 1,
            "mariner.inspiration.melody": 1,
            "mariner.tune": 1,
            "mariner.lackheart": 1,
            "mariner.halfheart": 1,
            "mariner.vaults.help": 1
          },
          "forbidden": {
            "mariner.crew.traits.singleminded": 1,
            "mariner.crew.exhausted": 1,
            "mariner.tool.broken": 1,
            "mariner.story.exhausted": 1,
            "mariner.inspiration.melody.exhausted": 1,
            "mariner.lackheart.exhausted": 1,
            "mariner.halfheart.exhausted": 1
          }
        },
        {
          "actionId": "explore",
          "id": "explore1",
          "label": "Help",
          "description": "Which implements are available for my approach.",
          "required": {
            "funds": 1,
            "mariner.crew": 1,
            "tool": 1,
            "mariner.tune": 1,
            "mariner.inspiration.nature": 1,
            "mariner.lackheart": 1,
            "mariner.halfheart": 1,
            "mariner.vaults.help": 1
          },
          "forbidden": {
            "mariner.crew.traits.craven": 1,
            "mariner.crew.exhausted": 1,
            "mariner.tool.broken": 1,
            "mariner.lackheart.exhausted": 1,
            "mariner.halfheart.exhausted": 1
          }
        },
        {
          "actionId": "explore",
          "id": "explore2",
          "label": "Help",
          "description": "Which implements are available for my approach.",
          "required": {
            "funds": 1,
            "mariner.crew": 1,
            "tool": 1,
            "mariner.tune": 1,
            "mariner.inspiration.nature": 1,
            "mariner.lackheart": 1,
            "mariner.halfheart": 1,
            "mariner.vaults.help": 1
          },
          "forbidden": {
            "mariner.crew.traits.craven": 1,
            "mariner.crew.exhausted": 1,
            "mariner.tool.broken": 1,
            "mariner.lackheart.exhausted": 1,
            "mariner.halfheart.exhausted": 1
          }
        },
        {
          "actionId": "explore",
          "id": "explore3",
          "label": "Help",
          "description": "Which implements are available for my approach.",
          "required": {
            "funds": 1,
            "mariner.crew": 1,
            "tool": 1,
            "mariner.tune": 1,
            "mariner.inspiration.nature": 1,
            "mariner.lackheart": 1,
            "mariner.halfheart": 1,
            "mariner.vaults.help": 1
          },
          "forbidden": {
            "mariner.crew.traits.craven": 1,
            "mariner.crew.exhausted": 1,
            "mariner.tool.broken": 1,
            "mariner.lackheart.exhausted": 1,
            "mariner.halfheart.exhausted": 1
          }
        }
      ]
    },
    {
      "id": "mariner.vaults.damascus.pages2",
      "icon": "tasks/mariner.tasks.shoreline.blue",
      "label": "<Second Spread of Matthias and the Imago: Loss>",
      "description": "<Priceless historical artifact, but without speaking the language, just irregular pattern on a diaphanous sheet.>",
      "aspects": {
        "mariner.vaults.task": 1,
        "mariner.local": 1,
        "mariner.aspects.vaults.damascus.layer.1": 1,
        "mariner.navigate_allowed": 1,
        "modded_explore_allowed": 1
      },
      "slots": [
        {
          "actionId": "mariner.navigate",
          "id": "mariner.navigate1",
          "label": "Help",
          "description": "Which implements are available for my approach.",
          "required": {
            "funds": 1,
            "mariner.crew": 1,
            "mariner.song": 1,
            "mariner.story": 1,
            "mariner.inspiration.melody": 1,
            "mariner.tune": 1,
            "mariner.lackheart": 1,
            "mariner.halfheart": 1,
            "mariner.vaults.help": 1
          },
          "forbidden": {
            "mariner.crew.traits.singleminded": 1,
            "mariner.crew.exhausted": 1,
            "mariner.tool.broken": 1,
            "mariner.story.exhausted": 1,
            "mariner.inspiration.melody.exhausted": 1,
            "mariner.lackheart.exhausted": 1,
            "mariner.halfheart.exhausted": 1
          }
        },
        {
          "actionId": "mariner.navigate",
          "id": "mariner.navigate2",
          "label": "Help",
          "description": "Which implements are available for my approach.",
          "required": {
            "funds": 1,
            "mariner.crew": 1,
            "mariner.song": 1,
            "mariner.story": 1,
            "mariner.inspiration.melody": 1,
            "mariner.tune": 1,
            "mariner.lackheart": 1,
            "mariner.halfheart": 1,
            "mariner.vaults.help": 1
          },
          "forbidden": {
            "mariner.crew.traits.singleminded": 1,
            "mariner.crew.exhausted": 1,
            "mariner.tool.broken": 1,
            "mariner.story.exhausted": 1,
            "mariner.inspiration.melody.exhausted": 1,
            "mariner.lackheart.exhausted": 1,
            "mariner.halfheart.exhausted": 1
          }
        },
        {
          "actionId": "mariner.navigate",
          "id": "mariner.navigate3",
          "label": "Help",
          "description": "Which implements are available for my approach.",
          "required": {
            "funds": 1,
            "mariner.crew": 1,
            "mariner.song": 1,
            "mariner.story": 1,
            "mariner.inspiration.melody": 1,
            "mariner.tune": 1,
            "mariner.lackheart": 1,
            "mariner.halfheart": 1,
            "mariner.vaults.help": 1
          },
          "forbidden": {
            "mariner.crew.traits.singleminded": 1,
            "mariner.crew.exhausted": 1,
            "mariner.tool.broken": 1,
            "mariner.story.exhausted": 1,
            "mariner.inspiration.melody.exhausted": 1,
            "mariner.lackheart.exhausted": 1,
            "mariner.halfheart.exhausted": 1
          }
        },
        {
          "actionId": "explore",
          "id": "explore1",
          "label": "Help",
          "description": "Which implements are available for my approach.",
          "required": {
            "funds": 1,
            "mariner.crew": 1,
            "tool": 1,
            "mariner.tune": 1,
            "mariner.inspiration.nature": 1,
            "mariner.lackheart": 1,
            "mariner.halfheart": 1,
            "mariner.vaults.help": 1
          },
          "forbidden": {
            "mariner.crew.traits.craven": 1,
            "mariner.crew.exhausted": 1,
            "mariner.tool.broken": 1,
            "mariner.lackheart.exhausted": 1,
            "mariner.halfheart.exhausted": 1
          }
        },
        {
          "actionId": "explore",
          "id": "explore2",
          "label": "Help",
          "description": "Which implements are available for my approach.",
          "required": {
            "funds": 1,
            "mariner.crew": 1,
            "tool": 1,
            "mariner.tune": 1,
            "mariner.inspiration.nature": 1,
            "mariner.lackheart": 1,
            "mariner.halfheart": 1,
            "mariner.vaults.help": 1
          },
          "forbidden": {
            "mariner.crew.traits.craven": 1,
            "mariner.crew.exhausted": 1,
            "mariner.tool.broken": 1,
            "mariner.lackheart.exhausted": 1,
            "mariner.halfheart.exhausted": 1
          }
        },
        {
          "actionId": "explore",
          "id": "explore3",
          "label": "Help",
          "description": "Which implements are available for my approach.",
          "required": {
            "funds": 1,
            "mariner.crew": 1,
            "tool": 1,
            "mariner.tune": 1,
            "mariner.inspiration.nature": 1,
            "mariner.lackheart": 1,
            "mariner.halfheart": 1,
            "mariner.vaults.help": 1
          },
          "forbidden": {
            "mariner.crew.traits.craven": 1,
            "mariner.crew.exhausted": 1,
            "mariner.tool.broken": 1,
            "mariner.lackheart.exhausted": 1,
            "mariner.halfheart.exhausted": 1
          }
        }
      ]
    },
    {
      "id": "mariner.vaults.damascus.pages3",
      "icon": "tasks/mariner.tasks.shoreline.blue",
      "label": "<Third Spread of Matthias and the Imago: Loss>",
      "description": "<Priceless historical artifact, but without speaking the language, just irregular pattern on a diaphanous sheet.>",
      "aspects": {
        "mariner.vaults.task": 1,
        "mariner.local": 1,
        "mariner.aspects.vaults.damascus.layer.1": 1,
        "mariner.navigate_allowed": 1,
        "modded_explore_allowed": 1
      },
      "slots": [
        {
          "actionId": "mariner.navigate",
          "id": "mariner.navigate1",
          "label": "Help",
          "description": "Which implements are available for my approach.",
          "required": {
            "funds": 1,
            "mariner.crew": 1,
            "mariner.song": 1,
            "mariner.story": 1,
            "mariner.inspiration.melody": 1,
            "mariner.tune": 1,
            "mariner.lackheart": 1,
            "mariner.halfheart": 1,
            "mariner.vaults.help": 1
          },
          "forbidden": {
            "mariner.crew.traits.singleminded": 1,
            "mariner.crew.exhausted": 1,
            "mariner.tool.broken": 1,
            "mariner.story.exhausted": 1,
            "mariner.inspiration.melody.exhausted": 1,
            "mariner.lackheart.exhausted": 1,
            "mariner.halfheart.exhausted": 1
          }
        },
        {
          "actionId": "mariner.navigate",
          "id": "mariner.navigate2",
          "label": "Help",
          "description": "Which implements are available for my approach.",
          "required": {
            "funds": 1,
            "mariner.crew": 1,
            "mariner.song": 1,
            "mariner.story": 1,
            "mariner.inspiration.melody": 1,
            "mariner.tune": 1,
            "mariner.lackheart": 1,
            "mariner.halfheart": 1,
            "mariner.vaults.help": 1
          },
          "forbidden": {
            "mariner.crew.traits.singleminded": 1,
            "mariner.crew.exhausted": 1,
            "mariner.tool.broken": 1,
            "mariner.story.exhausted": 1,
            "mariner.inspiration.melody.exhausted": 1,
            "mariner.lackheart.exhausted": 1,
            "mariner.halfheart.exhausted": 1
          }
        },
        {
          "actionId": "mariner.navigate",
          "id": "mariner.navigate3",
          "label": "Help",
          "description": "Which implements are available for my approach.",
          "required": {
            "funds": 1,
            "mariner.crew": 1,
            "mariner.song": 1,
            "mariner.story": 1,
            "mariner.inspiration.melody": 1,
            "mariner.tune": 1,
            "mariner.lackheart": 1,
            "mariner.halfheart": 1,
            "mariner.vaults.help": 1
          },
          "forbidden": {
            "mariner.crew.traits.singleminded": 1,
            "mariner.crew.exhausted": 1,
            "mariner.tool.broken": 1,
            "mariner.story.exhausted": 1,
            "mariner.inspiration.melody.exhausted": 1,
            "mariner.lackheart.exhausted": 1,
            "mariner.halfheart.exhausted": 1
          }
        },
        {
          "actionId": "explore",
          "id": "explore1",
          "label": "Help",
          "description": "Which implements are available for my approach.",
          "required": {
            "funds": 1,
            "mariner.crew": 1,
            "tool": 1,
            "mariner.tune": 1,
            "mariner.inspiration.nature": 1,
            "mariner.lackheart": 1,
            "mariner.halfheart": 1,
            "mariner.vaults.help": 1
          },
          "forbidden": {
            "mariner.crew.traits.craven": 1,
            "mariner.crew.exhausted": 1,
            "mariner.tool.broken": 1,
            "mariner.lackheart.exhausted": 1,
            "mariner.halfheart.exhausted": 1
          }
        },
        {
          "actionId": "explore",
          "id": "explore2",
          "label": "Help",
          "description": "Which implements are available for my approach.",
          "required": {
            "funds": 1,
            "mariner.crew": 1,
            "tool": 1,
            "mariner.tune": 1,
            "mariner.inspiration.nature": 1,
            "mariner.lackheart": 1,
            "mariner.halfheart": 1,
            "mariner.vaults.help": 1
          },
          "forbidden": {
            "mariner.crew.traits.craven": 1,
            "mariner.crew.exhausted": 1,
            "mariner.tool.broken": 1,
            "mariner.lackheart.exhausted": 1,
            "mariner.halfheart.exhausted": 1
          }
        },
        {
          "actionId": "explore",
          "id": "explore3",
          "label": "Help",
          "description": "Which implements are available for my approach.",
          "required": {
            "funds": 1,
            "mariner.crew": 1,
            "tool": 1,
            "mariner.tune": 1,
            "mariner.inspiration.nature": 1,
            "mariner.lackheart": 1,
            "mariner.halfheart": 1,
            "mariner.vaults.help": 1
          },
          "forbidden": {
            "mariner.crew.traits.craven": 1,
            "mariner.crew.exhausted": 1,
            "mariner.tool.broken": 1,
            "mariner.lackheart.exhausted": 1,
            "mariner.halfheart.exhausted": 1
          }
        }
      ]
    },
    {
      "id": "mariner.vaults.damascus.pages4",
      "icon": "tasks/mariner.tasks.shoreline.blue",
      "label": "<The Final Spread of Matthias and the Imago: Loss>",
      "description": "<The Final Section of the book has been deemed too dangerous for public viewing, even when they are written in a language dead to the vulgar masses.>",
      "aspects": {
        "mariner.vaults.task": 1,
        "mariner.local": 1,
        "mariner.aspects.vaults.damascus.layer.1": 1,
        "mariner.navigate_allowed": 1,
        "modded_talk_allowed": 1,
        "modded_explore_allowed": 1
      },
      "slots": [
        {
          "actionId": "mariner.navigate",
          "id": "mariner.navigate1",
          "label": "Help",
          "description": "Which implements are available for my approach.",
          "required": {
            "funds": 1,
            "mariner.crew": 1,
            "mariner.song": 1,
            "mariner.story": 1,
            "mariner.inspiration.melody": 1,
            "mariner.tune": 1,
            "mariner.lackheart": 1,
            "mariner.halfheart": 1,
            "mariner.vaults.help": 1
          },
          "forbidden": {
            "mariner.crew.traits.singleminded": 1,
            "mariner.crew.exhausted": 1,
            "mariner.tool.broken": 1,
            "mariner.story.exhausted": 1,
            "mariner.inspiration.melody.exhausted": 1,
            "mariner.lackheart.exhausted": 1,
            "mariner.halfheart.exhausted": 1
          }
        },
        {
          "actionId": "mariner.navigate",
          "id": "mariner.navigate2",
          "label": "Help",
          "description": "Which implements are available for my approach.",
          "required": {
            "funds": 1,
            "mariner.crew": 1,
            "mariner.song": 1,
            "mariner.story": 1,
            "mariner.inspiration.melody": 1,
            "mariner.tune": 1,
            "mariner.lackheart": 1,
            "mariner.halfheart": 1,
            "mariner.vaults.help": 1
          },
          "forbidden": {
            "mariner.crew.traits.singleminded": 1,
            "mariner.crew.exhausted": 1,
            "mariner.tool.broken": 1,
            "mariner.story.exhausted": 1,
            "mariner.inspiration.melody.exhausted": 1,
            "mariner.lackheart.exhausted": 1,
            "mariner.halfheart.exhausted": 1
          }
        },
        {
          "actionId": "mariner.navigate",
          "id": "mariner.navigate3",
          "label": "Help",
          "description": "Which implements are available for my approach.",
          "required": {
            "funds": 1,
            "mariner.crew": 1,
            "mariner.song": 1,
            "mariner.story": 1,
            "mariner.inspiration.melody": 1,
            "mariner.tune": 1,
            "mariner.lackheart": 1,
            "mariner.halfheart": 1,
            "mariner.vaults.help": 1
          },
          "forbidden": {
            "mariner.crew.traits.singleminded": 1,
            "mariner.crew.exhausted": 1,
            "mariner.tool.broken": 1,
            "mariner.story.exhausted": 1,
            "mariner.inspiration.melody.exhausted": 1,
            "mariner.lackheart.exhausted": 1,
            "mariner.halfheart.exhausted": 1
          }
        },
        {
          "actionId": "talk",
          "id": "talk1",
          "label": "Help",
          "description": "Which implements are available for my approach.",
          "required": {
            "funds": 1,
            "mariner.crew": 1,
            "mariner.song": 1,
            "mariner.tune": 1,
            "mariner.story": 1,
            "mariner.lackheart": 1,
            "mariner.halfheart": 1,
            "mariner.inspiration.melody": 1,
            "mariner.vaults.help": 1
          },
          "forbidden": {
            "mariner.crew.traits.mute": 1,
            "mariner.crew.exhausted": 1,
            "mariner.inspiration.melody.exhausted": 1,
            "mariner.story.exhausted": 1,
            "mariner.lackheart.exhausted": 1,
            "mariner.halfheart.exhausted": 1
          }
        },
        {
          "actionId": "talk",
          "id": "talk2",
          "label": "Help",
          "description": "Which implements are available for my approach.",
          "required": {
            "funds": 1,
            "mariner.crew": 1,
            "mariner.song": 1,
            "mariner.tune": 1,
            "mariner.story": 1,
            "mariner.lackheart": 1,
            "mariner.halfheart": 1,
            "mariner.inspiration.melody": 1,
            "mariner.vaults.help": 1
          },
          "forbidden": {
            "mariner.crew.traits.mute": 1,
            "mariner.crew.exhausted": 1,
            "mariner.inspiration.melody.exhausted": 1,
            "mariner.story.exhausted": 1,
            "mariner.lackheart.exhausted": 1,
            "mariner.halfheart.exhausted": 1
          }
        },
        {
          "actionId": "talk",
          "id": "talk3",
          "label": "Help",
          "description": "Which implements are available for my approach.",
          "required": {
            "funds": 1,
            "mariner.crew": 1,
            "mariner.song": 1,
            "mariner.tune": 1,
            "mariner.story": 1,
            "mariner.lackheart": 1,
            "mariner.halfheart": 1,
            "mariner.inspiration.melody": 1,
            "mariner.vaults.help": 1
          },
          "forbidden": {
            "mariner.crew.traits.mute": 1,
            "mariner.crew.exhausted": 1,
            "mariner.inspiration.melody.exhausted": 1,
            "mariner.story.exhausted": 1,
            "mariner.lackheart.exhausted": 1,
            "mariner.halfheart.exhausted": 1
          }
        },
        {
          "actionId": "explore",
          "id": "explore1",
          "label": "Help",
          "description": "Which implements are available for my approach.",
          "required": {
            "funds": 1,
            "mariner.crew": 1,
            "tool": 1,
            "mariner.tune": 1,
            "mariner.inspiration.nature": 1,
            "mariner.lackheart": 1,
            "mariner.halfheart": 1,
            "mariner.vaults.help": 1
          },
          "forbidden": {
            "mariner.crew.traits.craven": 1,
            "mariner.crew.exhausted": 1,
            "mariner.tool.broken": 1,
            "mariner.lackheart.exhausted": 1,
            "mariner.halfheart.exhausted": 1
          }
        },
        {
          "actionId": "explore",
          "id": "explore2",
          "label": "Help",
          "description": "Which implements are available for my approach.",
          "required": {
            "funds": 1,
            "mariner.crew": 1,
            "tool": 1,
            "mariner.tune": 1,
            "mariner.inspiration.nature": 1,
            "mariner.lackheart": 1,
            "mariner.halfheart": 1,
            "mariner.vaults.help": 1
          },
          "forbidden": {
            "mariner.crew.traits.craven": 1,
            "mariner.crew.exhausted": 1,
            "mariner.tool.broken": 1,
            "mariner.lackheart.exhausted": 1,
            "mariner.halfheart.exhausted": 1
          }
        },
        {
          "actionId": "explore",
          "id": "explore3",
          "label": "Help",
          "description": "Which implements are available for my approach.",
          "required": {
            "funds": 1,
            "mariner.crew": 1,
            "tool": 1,
            "mariner.tune": 1,
            "mariner.inspiration.nature": 1,
            "mariner.lackheart": 1,
            "mariner.halfheart": 1,
            "mariner.vaults.help": 1
          },
          "forbidden": {
            "mariner.crew.traits.craven": 1,
            "mariner.crew.exhausted": 1,
            "mariner.tool.broken": 1,
            "mariner.lackheart.exhausted": 1,
            "mariner.halfheart.exhausted": 1
          }
        }
      ]
    },
    {
      "id": "mariner.vaults.damascus.statue",
      "icon": "tasks/mariner.tasks.shoreline.blue",
      "label": "The Avian Statue",
      "description": "Ivory inlay over coarse sandstone, this statue is winged and beaked, yet still appears more man than bird. The House of Lethe was not known as an religious organization in Damascus., and the plague mentions the statue was commissioned by a member called Matthias.",
      "aspects": {
        "mariner.vaults.task": 1,
        "mariner.local": 1,
        "mariner.aspects.vaults.damascus.layer.1": 1,
        "mariner.navigate_allowed": 1,
        "modded_explore_allowed": 1
      },
      "slots": [
        {
          "actionId": "mariner.navigate",
          "id": "mariner.navigate1",
          "label": "Help",
          "description": "Which implements are available for my approach.",
          "required": {
            "funds": 1,
            "mariner.crew": 1,
            "mariner.song": 1,
            "mariner.story": 1,
            "mariner.inspiration.melody": 1,
            "mariner.tune": 1,
            "mariner.lackheart": 1,
            "mariner.halfheart": 1,
            "mariner.vaults.help": 1
          },
          "forbidden": {
            "mariner.crew.traits.singleminded": 1,
            "mariner.crew.exhausted": 1,
            "mariner.tool.broken": 1,
            "mariner.story.exhausted": 1,
            "mariner.inspiration.melody.exhausted": 1,
            "mariner.lackheart.exhausted": 1,
            "mariner.halfheart.exhausted": 1
          }
        },
        {
          "actionId": "mariner.navigate",
          "id": "mariner.navigate2",
          "label": "Help",
          "description": "Which implements are available for my approach.",
          "required": {
            "funds": 1,
            "mariner.crew": 1,
            "mariner.song": 1,
            "mariner.story": 1,
            "mariner.inspiration.melody": 1,
            "mariner.tune": 1,
            "mariner.lackheart": 1,
            "mariner.halfheart": 1,
            "mariner.vaults.help": 1
          },
          "forbidden": {
            "mariner.crew.traits.singleminded": 1,
            "mariner.crew.exhausted": 1,
            "mariner.tool.broken": 1,
            "mariner.story.exhausted": 1,
            "mariner.inspiration.melody.exhausted": 1,
            "mariner.lackheart.exhausted": 1,
            "mariner.halfheart.exhausted": 1
          }
        },
        {
          "actionId": "mariner.navigate",
          "id": "mariner.navigate3",
          "label": "Help",
          "description": "Which implements are available for my approach.",
          "required": {
            "funds": 1,
            "mariner.crew": 1,
            "mariner.song": 1,
            "mariner.story": 1,
            "mariner.inspiration.melody": 1,
            "mariner.tune": 1,
            "mariner.lackheart": 1,
            "mariner.halfheart": 1,
            "mariner.vaults.help": 1
          },
          "forbidden": {
            "mariner.crew.traits.singleminded": 1,
            "mariner.crew.exhausted": 1,
            "mariner.tool.broken": 1,
            "mariner.story.exhausted": 1,
            "mariner.inspiration.melody.exhausted": 1,
            "mariner.lackheart.exhausted": 1,
            "mariner.halfheart.exhausted": 1
          }
        },
        {
          "actionId": "explore",
          "id": "explore1",
          "label": "Help",
          "description": "Which implements are available for my approach.",
          "required": {
            "funds": 1,
            "mariner.crew": 1,
            "tool": 1,
            "mariner.tune": 1,
            "mariner.inspiration.nature": 1,
            "mariner.lackheart": 1,
            "mariner.halfheart": 1,
            "mariner.vaults.help": 1
          },
          "forbidden": {
            "mariner.crew.traits.craven": 1,
            "mariner.crew.exhausted": 1,
            "mariner.tool.broken": 1,
            "mariner.lackheart.exhausted": 1,
            "mariner.halfheart.exhausted": 1
          }
        },
        {
          "actionId": "explore",
          "id": "explore2",
          "label": "Help",
          "description": "Which implements are available for my approach.",
          "required": {
            "funds": 1,
            "mariner.crew": 1,
            "tool": 1,
            "mariner.tune": 1,
            "mariner.inspiration.nature": 1,
            "mariner.lackheart": 1,
            "mariner.halfheart": 1,
            "mariner.vaults.help": 1
          },
          "forbidden": {
            "mariner.crew.traits.craven": 1,
            "mariner.crew.exhausted": 1,
            "mariner.tool.broken": 1,
            "mariner.lackheart.exhausted": 1,
            "mariner.halfheart.exhausted": 1
          }
        },
        {
          "actionId": "explore",
          "id": "explore3",
          "label": "Help",
          "description": "Which implements are available for my approach.",
          "required": {
            "funds": 1,
            "mariner.crew": 1,
            "tool": 1,
            "mariner.tune": 1,
            "mariner.inspiration.nature": 1,
            "mariner.lackheart": 1,
            "mariner.halfheart": 1,
            "mariner.vaults.help": 1
          },
          "forbidden": {
            "mariner.crew.traits.craven": 1,
            "mariner.crew.exhausted": 1,
            "mariner.tool.broken": 1,
            "mariner.lackheart.exhausted": 1,
            "mariner.halfheart.exhausted": 1
          }
        }
      ]
    },
    {
      "id": "mariner.vaults.damascus.crowds",
      "icon": "tasks/mariner.tasks.shoreline.blue",
      "label": "The Many-faced Crowd",
      "description": "The curators, the security guards, the teeming public. Each carries its own opportunities but each also has its attention on the art, or anything untowards that might happen.",
      "aspects": {
        "mariner.vaults.task": 1,
        "mariner.local": 1,
        "mariner.aspects.vaults.damascus.layer.1": 1,
        "modded_talk_allowed": 1,
        "modded_explore_allowed": 1,
        "mariner.sing_allowed": 1
      },
      "slots": [
        {
          "actionId": "talk",
          "id": "talk1",
          "label": "Help",
          "description": "Which implements are available for my approach.",
          "required": {
            "funds": 1,
            "mariner.crew": 1,
            "mariner.song": 1,
            "mariner.tune": 1,
            "mariner.story": 1,
            "mariner.lackheart": 1,
            "mariner.halfheart": 1,
            "mariner.inspiration.melody": 1,
            "mariner.vaults.help": 1
          },
          "forbidden": {
            "mariner.crew.traits.mute": 1,
            "mariner.crew.exhausted": 1,
            "mariner.inspiration.melody.exhausted": 1,
            "mariner.story.exhausted": 1,
            "mariner.lackheart.exhausted": 1,
            "mariner.halfheart.exhausted": 1
          }
        },
        {
          "actionId": "talk",
          "id": "talk2",
          "label": "Help",
          "description": "Which implements are available for my approach.",
          "required": {
            "funds": 1,
            "mariner.crew": 1,
            "mariner.song": 1,
            "mariner.tune": 1,
            "mariner.story": 1,
            "mariner.lackheart": 1,
            "mariner.halfheart": 1,
            "mariner.inspiration.melody": 1,
            "mariner.vaults.help": 1
          },
          "forbidden": {
            "mariner.crew.traits.mute": 1,
            "mariner.crew.exhausted": 1,
            "mariner.inspiration.melody.exhausted": 1,
            "mariner.story.exhausted": 1,
            "mariner.lackheart.exhausted": 1,
            "mariner.halfheart.exhausted": 1
          }
        },
        {
          "actionId": "talk",
          "id": "talk3",
          "label": "Help",
          "description": "Which implements are available for my approach.",
          "required": {
            "funds": 1,
            "mariner.crew": 1,
            "mariner.song": 1,
            "mariner.tune": 1,
            "mariner.story": 1,
            "mariner.lackheart": 1,
            "mariner.halfheart": 1,
            "mariner.inspiration.melody": 1,
            "mariner.vaults.help": 1
          },
          "forbidden": {
            "mariner.crew.traits.mute": 1,
            "mariner.crew.exhausted": 1,
            "mariner.inspiration.melody.exhausted": 1,
            "mariner.story.exhausted": 1,
            "mariner.lackheart.exhausted": 1,
            "mariner.halfheart.exhausted": 1
          }
        },
        {
          "id": "influence",
          "actionid": "talk",
          "label": "Additional Charms",
          "description": "I could attract a curator just like I attract any bright member of my crew.",
          "required": {
            "mariner.influence": 1
          }
        },
        {
          "actionId": "explore",
          "id": "explore1",
          "label": "Help",
          "description": "Which implements are available for my approach.",
          "required": {
            "funds": 1,
            "mariner.crew": 1,
            "tool": 1,
            "mariner.tune": 1,
            "mariner.inspiration.nature": 1,
            "mariner.lackheart": 1,
            "mariner.halfheart": 1,
            "mariner.vaults.help": 1
          },
          "forbidden": {
            "mariner.crew.traits.craven": 1,
            "mariner.crew.exhausted": 1,
            "mariner.tool.broken": 1,
            "mariner.lackheart.exhausted": 1,
            "mariner.halfheart.exhausted": 1
          }
        },
        {
          "actionId": "explore",
          "id": "explore2",
          "label": "Help",
          "description": "Which implements are available for my approach.",
          "required": {
            "funds": 1,
            "mariner.crew": 1,
            "tool": 1,
            "mariner.tune": 1,
            "mariner.inspiration.nature": 1,
            "mariner.lackheart": 1,
            "mariner.halfheart": 1,
            "mariner.vaults.help": 1
          },
          "forbidden": {
            "mariner.crew.traits.craven": 1,
            "mariner.crew.exhausted": 1,
            "mariner.tool.broken": 1,
            "mariner.lackheart.exhausted": 1,
            "mariner.halfheart.exhausted": 1
          }
        },
        {
          "actionId": "explore",
          "id": "explore3",
          "label": "Help",
          "description": "Which implements are available for my approach.",
          "required": {
            "funds": 1,
            "mariner.crew": 1,
            "tool": 1,
            "mariner.tune": 1,
            "mariner.inspiration.nature": 1,
            "mariner.lackheart": 1,
            "mariner.halfheart": 1,
            "mariner.vaults.help": 1
          },
          "forbidden": {
            "mariner.crew.traits.craven": 1,
            "mariner.crew.exhausted": 1,
            "mariner.tool.broken": 1,
            "mariner.lackheart.exhausted": 1,
            "mariner.halfheart.exhausted": 1
          }
        },
        {
          "actionId": "mariner.sing",
          "id": "mariner.sing1",
          "label": "Help",
          "description": "Which implements are available for my approach.",
          "required": {
            "funds": 1,
            "mariner.crew": 1,
            "mariner.song": 1,
            "mariner.instrument": 1,
            "mariner.inspiration.melody": 1,
            "mariner.tune": 1,
            "mariner.story": 1,
            "mariner.lackheart": 1,
            "mariner.halfheart": 1,
            "mariner.vaults.help": 1
          },
          "forbidden": {
            "mariner.crew.traits.rhythmless": 1,
            "mariner.crew.exhausted": 1,
            "mariner.inspiration.melody.exhausted": 1,
            "mariner.story.exhausted": 1,
            "mariner.lackheart.exhausted": 1,
            "mariner.halfheart.exhausted": 1
          }
        },
        {
          "actionId": "mariner.sing",
          "id": "mariner.sing2",
          "label": "Help",
          "description": "Which implements are available for my approach.",
          "required": {
            "funds": 1,
            "mariner.crew": 1,
            "mariner.song": 1,
            "mariner.instrument": 1,
            "mariner.inspiration.melody": 1,
            "mariner.tune": 1,
            "mariner.story": 1,
            "mariner.lackheart": 1,
            "mariner.halfheart": 1,
            "mariner.vaults.help": 1
          },
          "forbidden": {
            "mariner.crew.traits.rhythmless": 1,
            "mariner.crew.exhausted": 1,
            "mariner.inspiration.melody.exhausted": 1,
            "mariner.story.exhausted": 1,
            "mariner.lackheart.exhausted": 1,
            "mariner.halfheart.exhausted": 1
          }
        },
        {
          "actionId": "mariner.sing",
          "id": "mariner.sing3",
          "label": "Help",
          "description": "Which implements are available for my approach.",
          "required": {
            "funds": 1,
            "mariner.crew": 1,
            "mariner.song": 1,
            "mariner.instrument": 1,
            "mariner.inspiration.melody": 1,
            "mariner.tune": 1,
            "mariner.story": 1,
            "mariner.lackheart": 1,
            "mariner.halfheart": 1,
            "mariner.vaults.help": 1
          },
          "forbidden": {
            "mariner.crew.traits.rhythmless": 1,
            "mariner.crew.exhausted": 1,
            "mariner.inspiration.melody.exhausted": 1,
            "mariner.story.exhausted": 1,
            "mariner.lackheart.exhausted": 1,
            "mariner.halfheart.exhausted": 1
          }
        }
      ]
    },
    {
      "id": "mariner.vaults.damascus.removed_basic",
      "icon": "generic_p",
      "label": "Removed Crewmember",
      "description": "They will wait for me outside, but their role in this caper is over.",
      "aspects": {
        "mariner.vaults.damascus.removed": 1,
        "mariner.local": 1
      },
      "xtriggers": {
        "mariner.vaults.damascus.freecrewmember": "mariner.crew.basic"
      }
    },
    {
      "id": "mariner.vaults.damascus.removed.canoneer",
      "icon": "generic_p",
      "label": "removed Crewmember",
      "description": "Someone spotted us. This one wasn't as lucky as the others.",
      "aspects": {
        "mariner.vaults.damascus.removed": 1,
        "mariner.local": 1
      },
      "xtriggers": {
        "mariner.vaults.damascus.freecrewmember": "mariner.crew.specialist.canoneer"
      }
    },
    {
      "id": "mariner.vaults.damascus.removed.privateer",
      "icon": "generic_p",
      "label": "removed Crewmember",
      "description": "Someone spotted us. This one wasn't as lucky as the others.",
      "aspects": {
        "mariner.vaults.damascus.removed": 1,
        "mariner.local": 1
      },
      "xtriggers": {
        "mariner.vaults.damascus.freecrewmember": "mariner.crew.specialist.privateer"
      }
    },
    {
      "id": "mariner.vaults.damascus.removed.carpenter",
      "icon": "generic_p",
      "label": "removed Crewmember",
      "description": "Someone spotted us. This one wasn't as lucky as the others.",
      "aspects": {
        "mariner.vaults.damascus.removed": 1,
        "mariner.local": 1
      },
      "xtriggers": {
        "mariner.vaults.damascus.freecrewmember": "mariner.crew.specialist.carpenter"
      }
    },
    {
      "id": "mariner.vaults.damascus.removed.cook",
      "icon": "generic_p",
      "label": "removed Crewmember",
      "description": "Someone spotted us. This one wasn't as lucky as the others.",
      "aspects": {
        "mariner.vaults.damascus.removed": 1,
        "mariner.local": 1
      },
      "xtriggers": {
        "mariner.vaults.damascus.freecrewmember": "mariner.crew.specialist.cook"
      }
    },
    {
      "id": "mariner.vaults.damascus.removed.mate",
      "icon": "generic_p",
      "label": "removed Crewmember",
      "description": "Someone spotted us. This one wasn't as lucky as the others.",
      "aspects": {
        "mariner.vaults.damascus.removed": 1,
        "mariner.local": 1
      },
      "xtriggers": {
        "mariner.vaults.damascus.freecrewmember": "mariner.crew.specialist.mate"
      }
    },
    {
      "id": "mariner.vaults.damascus.removed.quartermaster",
      "icon": "generic_p",
      "label": "removed Crewmember",
      "description": "Someone spotted us. This one wasn't as lucky as the others.",
      "aspects": {
        "mariner.vaults.damascus.removed": 1,
        "mariner.local": 1
      },
      "xtriggers": {
        "mariner.vaults.damascus.freecrewmember": "mariner.crew.specialist.quartermaster"
      }
    },
    {
      "id": "mariner.vaults.damascus.removed.diver",
      "icon": "generic_p",
      "label": "removed Crewmember",
      "description": "Someone spotted us. This one wasn't as lucky as the others.",
      "aspects": {
        "mariner.vaults.damascus.removed": 1,
        "mariner.local": 1
      },
      "xtriggers": {
        "mariner.vaults.damascus.freecrewmember": "mariner.crew.specialist.diver"
      }
    },
    {
      "id": "mariner.vaults.damascus.removed.navigator",
      "icon": "generic_p",
      "label": "removed Crewmember",
      "description": "Someone spotted us. This one wasn't as lucky as the others.",
      "aspects": {
        "mariner.vaults.damascus.removed": 1,
        "mariner.local": 1
      },
      "xtriggers": {
        "mariner.vaults.damascus.freecrewmember": "mariner.crew.specialist.navigator"
      }
    },
    {
      "id": "mariner.vaults.damascus.removed.officer",
      "icon": "generic_p",
      "label": "removed Crewmember",
      "description": "Someone spotted us. This one wasn't as lucky as the others.",
      "aspects": {
        "mariner.vaults.damascus.removed": 1,
        "mariner.local": 1
      },
      "xtriggers": {
        "mariner.vaults.damascus.freecrewmember": "mariner.crew.specialist.officer"
      }
    },
    {
      "id": "mariner.vaults.damascus.removed.conman",
      "icon": "generic_p",
      "label": "removed Crewmember",
      "description": "Someone spotted us. This one wasn't as lucky as the others.",
      "aspects": {
        "mariner.vaults.damascus.removed": 1,
        "mariner.local": 1
      },
      "xtriggers": {
        "mariner.vaults.damascus.freecrewmember": "mariner.crew.specialist.conman"
      }
    },
    {
      "id": "mariner.vaults.damascus.removed.fool",
      "icon": "generic_p",
      "label": "removed Crewmember",
      "description": "Someone spotted us. This one wasn't as lucky as the others.",
      "aspects": {
        "mariner.vaults.damascus.removed": 1,
        "mariner.local": 1
      },
      "xtriggers": {
        "mariner.vaults.damascus.freecrewmember": "mariner.crew.specialist.fool"
      }
    },
    {
      "id": "mariner.vaults.damascus.removed.merchant",
      "icon": "generic_p",
      "label": "removed Crewmember",
      "description": "Someone spotted us. This one wasn't as lucky as the others.",
      "aspects": {
        "mariner.vaults.damascus.removed": 1,
        "mariner.local": 1
      },
      "xtriggers": {
        "mariner.vaults.damascus.freecrewmember": "mariner.crew.specialist.merchant"
      }
    },
    {
      "id": "mariner.vaults.damascus.removed.ship's surgeon",
      "icon": "generic_p",
      "label": "removed Crewmember",
      "description": "Someone spotted us. This one wasn't as lucky as the others.",
      "aspects": {
        "mariner.vaults.damascus.removed": 1,
        "mariner.local": 1
      },
      "xtriggers": {
        "mariner.vaults.damascus.freecrewmember": "mariner.crew.specialist.ship's surgeon"
      }
    },
    {
      "id": "mariner.tools.shears",
      "label": "Alakapurine Shears, Pre-Used",
      "description": "<Used to shed what is no longer of use.>",
      "aspects": {
        "mariner.trapping": 1,
        "mariner.trapping.worth": 5,
        "mariner.trappings.moth": 4,
        "moth": 4,
        "mariner.trappingtypes.natural": 1
      }
    },
    {
      "id": "mariner.trappings.implements",
      "label": "<Implements of Mattias>",
      "description": "<More reviled then the arts of ending are the arts of agony. these tools are proud as wolf fangs>",
      "aspects": {
        "mariner.trapping": 1,
        "mariner.trapping.worth": 5,
        "mariner.trappings.edge": 3,
        "mariner.trappings.winter": 3,
        "edge": 3,
        "winter": 3,
        "mariner.trappingtypes.crafts": 1,
        "mariner.trappingtypes.artifact": 1
      }
    },
    {
      "id": "mariner.diaphenous.sheets",
      "label": "Diaphenous Sheet",
      "description": "<nearly all of the scales have flakes off,, and what is left a delicate sheet, sheer as a whisper, real as remorse>",
      "aspects": {
        "mariner.trapping": 1,
        "mariner.trapping.worth": 5,
        "mariner.trappings.moth": 3,
        "mariner.trappings.winter": 2,
        "moth": 3,
        "winter": 2,
        "mariner.trappingtypes.natural": 1
      }
    },
    {
      "id": "mariner.vaults.damascus.diaphanous.sheets",
      "label": "<Diaphenous SheetsS>",
      "description": "<Gossamer membrame, on which light breaks in a fractal of colours, but which it self breaks if it is disturbed my more then a sigh.>",
      "aspects": {
        "mariner.trapping": 1,
        "mariner.trapping.worth": 5,
        "mariner.trappings.moth": 3,
        "mariner.trappings.knock": 2,
        "moth": 3,
        "knock": 2,
        "mariner.trappingtypes.natural": 1
      }
    },
    {
      "id": "mariner.vaults.damascus.echoes",
      "icon": "mariner.vaults.rescuemission.distance",
      "label": "<Echoes>",
      "description": "<Though much abides, much remains>",
      "aspects": {
        "moth": 2,
        "winter": 2,
        "mariner.local": 1,
        "mariner.vaults.help": 1
      }
    },
    {
      "id": "mariner.vaults.damascus.collection",
      "label": "<Pinned Collection>",
      "description": "In a hidden place, carved between the gaps if the bricks, Matthias has carved himself a space to keep his trophies and his tools. With neither doors nor windows, it is dark as a tomb, but unseen, papery things rustle at our movements.",
      "aspects": {
        "mariner.local": 1,
        "mariner.aspects.vaults.damascus.layer.2": 1,
        "modded_explore_allowed": 1
      }
    },
    {
      "id": "mariner.vaults.damascus.desk",
      "icon": "tasks/mariner.tasks.shoreline.blue",
      "label": "Still Desk",
      "description": "Mattias, while a hunter, killer and scoundrel, was still a Letheian, who take their scholarly pursuits serious by nature. Here Matthias must have read, paced, sketched, risen in elation, collapsed in despair.",
      "aspects": {
        "mariner.vaults.task": 1,
        "mariner.local": 1,
        "mariner.aspects.vaults.damascus.layer.2": 1,
        "mariner.navigate_allowed": 1,
        "modded_explore_allowed": 1
      },
      "slots": [
        {
          "actionId": "mariner.navigate",
          "id": "mariner.navigate1",
          "label": "Help",
          "description": "Which implements are available for my approach.",
          "required": {
            "funds": 1,
            "mariner.crew": 1,
            "mariner.song": 1,
            "mariner.story": 1,
            "mariner.inspiration.melody": 1,
            "mariner.tune": 1,
            "mariner.lackheart": 1,
            "mariner.halfheart": 1,
            "mariner.vaults.help": 1
          },
          "forbidden": {
            "mariner.crew.traits.singleminded": 1,
            "mariner.crew.exhausted": 1,
            "mariner.tool.broken": 1,
            "mariner.story.exhausted": 1,
            "mariner.inspiration.melody.exhausted": 1,
            "mariner.lackheart.exhausted": 1,
            "mariner.halfheart.exhausted": 1
          }
        },
        {
          "actionId": "mariner.navigate",
          "id": "mariner.navigate2",
          "label": "Help",
          "description": "Which implements are available for my approach.",
          "required": {
            "funds": 1,
            "mariner.crew": 1,
            "mariner.song": 1,
            "mariner.story": 1,
            "mariner.inspiration.melody": 1,
            "mariner.tune": 1,
            "mariner.lackheart": 1,
            "mariner.halfheart": 1,
            "mariner.vaults.help": 1
          },
          "forbidden": {
            "mariner.crew.traits.singleminded": 1,
            "mariner.crew.exhausted": 1,
            "mariner.tool.broken": 1,
            "mariner.story.exhausted": 1,
            "mariner.inspiration.melody.exhausted": 1,
            "mariner.lackheart.exhausted": 1,
            "mariner.halfheart.exhausted": 1
          }
        },
        {
          "actionId": "mariner.navigate",
          "id": "mariner.navigate3",
          "label": "Help",
          "description": "Which implements are available for my approach.",
          "required": {
            "funds": 1,
            "mariner.crew": 1,
            "mariner.song": 1,
            "mariner.story": 1,
            "mariner.inspiration.melody": 1,
            "mariner.tune": 1,
            "mariner.lackheart": 1,
            "mariner.halfheart": 1,
            "mariner.vaults.help": 1
          },
          "forbidden": {
            "mariner.crew.traits.singleminded": 1,
            "mariner.crew.exhausted": 1,
            "mariner.tool.broken": 1,
            "mariner.story.exhausted": 1,
            "mariner.inspiration.melody.exhausted": 1,
            "mariner.lackheart.exhausted": 1,
            "mariner.halfheart.exhausted": 1
          }
        },
        {
          "actionId": "explore",
          "id": "explore1",
          "label": "Help",
          "description": "Which implements are available for my approach.",
          "required": {
            "funds": 1,
            "mariner.crew": 1,
            "tool": 1,
            "mariner.tune": 1,
            "mariner.inspiration.nature": 1,
            "mariner.lackheart": 1,
            "mariner.halfheart": 1,
            "mariner.vaults.help": 1
          },
          "forbidden": {
            "mariner.crew.traits.craven": 1,
            "mariner.crew.exhausted": 1,
            "mariner.tool.broken": 1,
            "mariner.lackheart.exhausted": 1,
            "mariner.halfheart.exhausted": 1
          }
        },
        {
          "actionId": "explore",
          "id": "explore2",
          "label": "Help",
          "description": "Which implements are available for my approach.",
          "required": {
            "funds": 1,
            "mariner.crew": 1,
            "tool": 1,
            "mariner.tune": 1,
            "mariner.inspiration.nature": 1,
            "mariner.lackheart": 1,
            "mariner.halfheart": 1,
            "mariner.vaults.help": 1
          },
          "forbidden": {
            "mariner.crew.traits.craven": 1,
            "mariner.crew.exhausted": 1,
            "mariner.tool.broken": 1,
            "mariner.lackheart.exhausted": 1,
            "mariner.halfheart.exhausted": 1
          }
        },
        {
          "actionId": "explore",
          "id": "explore3",
          "label": "Help",
          "description": "Which implements are available for my approach.",
          "required": {
            "funds": 1,
            "mariner.crew": 1,
            "tool": 1,
            "mariner.tune": 1,
            "mariner.inspiration.nature": 1,
            "mariner.lackheart": 1,
            "mariner.halfheart": 1,
            "mariner.vaults.help": 1
          },
          "forbidden": {
            "mariner.crew.traits.craven": 1,
            "mariner.crew.exhausted": 1,
            "mariner.tool.broken": 1,
            "mariner.lackheart.exhausted": 1,
            "mariner.halfheart.exhausted": 1
          }
        }
      ]
    },
    {
      "id": "mariner.vaults.damascus.lastbed",
      "icon": "tasks/mariner.tasks.shoreline.blue",
      "label": "The Last Bed",
      "description": "When their involvement had gotten Mattias excommunicated from the House of Lethe, and got the Imago banished from the Woods, both collected what they needed before their final Voyage. Perhaps this is where Matthias spend his final moments in the Flesh.",
      "aspects": {
        "mariner.vaults.task": 1,
        "mariner.local": 1,
        "mariner.aspects.vaults.damascus.layer.2": 1,
        "mariner.sing_allowed": 1,
        "modded_explore_allowed": 1
      },
      "slots": [
        {
          "actionId": "mariner.sing",
          "id": "mariner.sing1",
          "label": "Help",
          "description": "Which implements are available for my approach.",
          "required": {
            "funds": 1,
            "mariner.crew": 1,
            "mariner.song": 1,
            "mariner.instrument": 1,
            "mariner.inspiration.melody": 1,
            "mariner.tune": 1,
            "mariner.story": 1,
            "mariner.lackheart": 1,
            "mariner.halfheart": 1,
            "mariner.vaults.help": 1
          },
          "forbidden": {
            "mariner.crew.traits.rhythmless": 1,
            "mariner.crew.exhausted": 1,
            "mariner.inspiration.melody.exhausted": 1,
            "mariner.story.exhausted": 1,
            "mariner.lackheart.exhausted": 1,
            "mariner.halfheart.exhausted": 1
          }
        },
        {
          "actionId": "mariner.sing",
          "id": "mariner.sing2",
          "label": "Help",
          "description": "Which implements are available for my approach.",
          "required": {
            "funds": 1,
            "mariner.crew": 1,
            "mariner.song": 1,
            "mariner.instrument": 1,
            "mariner.inspiration.melody": 1,
            "mariner.tune": 1,
            "mariner.story": 1,
            "mariner.lackheart": 1,
            "mariner.halfheart": 1,
            "mariner.vaults.help": 1
          },
          "forbidden": {
            "mariner.crew.traits.rhythmless": 1,
            "mariner.crew.exhausted": 1,
            "mariner.inspiration.melody.exhausted": 1,
            "mariner.story.exhausted": 1,
            "mariner.lackheart.exhausted": 1,
            "mariner.halfheart.exhausted": 1
          }
        },
        {
          "actionId": "mariner.sing",
          "id": "mariner.sing3",
          "label": "Help",
          "description": "Which implements are available for my approach.",
          "required": {
            "funds": 1,
            "mariner.crew": 1,
            "mariner.song": 1,
            "mariner.instrument": 1,
            "mariner.inspiration.melody": 1,
            "mariner.tune": 1,
            "mariner.story": 1,
            "mariner.lackheart": 1,
            "mariner.halfheart": 1,
            "mariner.vaults.help": 1
          },
          "forbidden": {
            "mariner.crew.traits.rhythmless": 1,
            "mariner.crew.exhausted": 1,
            "mariner.inspiration.melody.exhausted": 1,
            "mariner.story.exhausted": 1,
            "mariner.lackheart.exhausted": 1,
            "mariner.halfheart.exhausted": 1
          }
        },
        {
          "actionId": "explore",
          "id": "explore1",
          "label": "Help",
          "description": "Which implements are available for my approach.",
          "required": {
            "funds": 1,
            "mariner.crew": 1,
            "tool": 1,
            "mariner.tune": 1,
            "mariner.inspiration.nature": 1,
            "mariner.lackheart": 1,
            "mariner.halfheart": 1,
            "mariner.vaults.help": 1
          },
          "forbidden": {
            "mariner.crew.traits.craven": 1,
            "mariner.crew.exhausted": 1,
            "mariner.tool.broken": 1,
            "mariner.lackheart.exhausted": 1,
            "mariner.halfheart.exhausted": 1
          }
        },
        {
          "actionId": "explore",
          "id": "explore2",
          "label": "Help",
          "description": "Which implements are available for my approach.",
          "required": {
            "funds": 1,
            "mariner.crew": 1,
            "tool": 1,
            "mariner.tune": 1,
            "mariner.inspiration.nature": 1,
            "mariner.lackheart": 1,
            "mariner.halfheart": 1,
            "mariner.vaults.help": 1
          },
          "forbidden": {
            "mariner.crew.traits.craven": 1,
            "mariner.crew.exhausted": 1,
            "mariner.tool.broken": 1,
            "mariner.lackheart.exhausted": 1,
            "mariner.halfheart.exhausted": 1
          }
        },
        {
          "actionId": "explore",
          "id": "explore3",
          "label": "Help",
          "description": "Which implements are available for my approach.",
          "required": {
            "funds": 1,
            "mariner.crew": 1,
            "tool": 1,
            "mariner.tune": 1,
            "mariner.inspiration.nature": 1,
            "mariner.lackheart": 1,
            "mariner.halfheart": 1,
            "mariner.vaults.help": 1
          },
          "forbidden": {
            "mariner.crew.traits.craven": 1,
            "mariner.crew.exhausted": 1,
            "mariner.tool.broken": 1,
            "mariner.lackheart.exhausted": 1,
            "mariner.halfheart.exhausted": 1
          }
        }
      ]
    },
    {
      "id": "mariner.vaults.damascus.pinned",
      "icon": "tasks/mariner.tasks.shoreline.blue",
      "label": "The Pinned Collection",
      "description": "Along the walls, gossamer wings hang, impaled by eroded copper nails.A few are still pulled taught, but most hang like shredded rags. When we move they catch air currents in desperate dances, as if still attempting to tear free.",
      "aspects": {
        "mariner.vaults.task": 1,
        "mariner.local": 1,
        "mariner.aspects.vaults.damascus.layer.2": 1,
        "modded_explore_allowed": 1
      },
      "slots": [
        {
          "actionId": "explore",
          "id": "explore1",
          "label": "Help",
          "description": "Which implements are available for my approach.",
          "required": {
            "funds": 1,
            "mariner.crew": 1,
            "tool": 1,
            "mariner.tune": 1,
            "mariner.inspiration.nature": 1,
            "mariner.lackheart": 1,
            "mariner.halfheart": 1,
            "mariner.vaults.help": 1
          },
          "forbidden": {
            "mariner.crew.traits.craven": 1,
            "mariner.crew.exhausted": 1,
            "mariner.tool.broken": 1,
            "mariner.lackheart.exhausted": 1,
            "mariner.halfheart.exhausted": 1
          }
        },
        {
          "actionId": "explore",
          "id": "explore2",
          "label": "Help",
          "description": "Which implements are available for my approach.",
          "required": {
            "funds": 1,
            "mariner.crew": 1,
            "tool": 1,
            "mariner.tune": 1,
            "mariner.inspiration.nature": 1,
            "mariner.lackheart": 1,
            "mariner.halfheart": 1,
            "mariner.vaults.help": 1
          },
          "forbidden": {
            "mariner.crew.traits.craven": 1,
            "mariner.crew.exhausted": 1,
            "mariner.tool.broken": 1,
            "mariner.lackheart.exhausted": 1,
            "mariner.halfheart.exhausted": 1
          }
        },
        {
          "actionId": "explore",
          "id": "explore3",
          "label": "Help",
          "description": "Which implements are available for my approach.",
          "required": {
            "funds": 1,
            "mariner.crew": 1,
            "tool": 1,
            "mariner.tune": 1,
            "mariner.inspiration.nature": 1,
            "mariner.lackheart": 1,
            "mariner.halfheart": 1,
            "mariner.vaults.help": 1
          },
          "forbidden": {
            "mariner.crew.traits.craven": 1,
            "mariner.crew.exhausted": 1,
            "mariner.tool.broken": 1,
            "mariner.lackheart.exhausted": 1,
            "mariner.halfheart.exhausted": 1
          }
        }
      ]
    },
    {
      "id": "mariner.vaults.damascus.weaponrack",
      "icon": "tasks/mariner.tasks.shoreline.blue",
      "label": "Mattias' Implements",
      "description": "The sharps and the straps, traps and binds. Implements to pry and poke and sever and disect. There were the tools of the trade of Matthias the Hunter.",
      "aspects": {
        "mariner.vaults.task": 1,
        "mariner.local": 1,
        "mariner.aspects.vaults.damascus.layer.2": 1,
        "modded_explore_allowed": 1
      },
      "slots": [
        {
          "actionId": "explore",
          "id": "explore1",
          "label": "Help",
          "description": "Which implements are available for my approach.",
          "required": {
            "funds": 1,
            "mariner.crew": 1,
            "tool": 1,
            "mariner.tune": 1,
            "mariner.inspiration.nature": 1,
            "mariner.lackheart": 1,
            "mariner.halfheart": 1,
            "mariner.vaults.help": 1
          },
          "forbidden": {
            "mariner.crew.traits.craven": 1,
            "mariner.crew.exhausted": 1,
            "mariner.tool.broken": 1,
            "mariner.lackheart.exhausted": 1,
            "mariner.halfheart.exhausted": 1
          }
        },
        {
          "actionId": "explore",
          "id": "explore2",
          "label": "Help",
          "description": "Which implements are available for my approach.",
          "required": {
            "funds": 1,
            "mariner.crew": 1,
            "tool": 1,
            "mariner.tune": 1,
            "mariner.inspiration.nature": 1,
            "mariner.lackheart": 1,
            "mariner.halfheart": 1,
            "mariner.vaults.help": 1
          },
          "forbidden": {
            "mariner.crew.traits.craven": 1,
            "mariner.crew.exhausted": 1,
            "mariner.tool.broken": 1,
            "mariner.lackheart.exhausted": 1,
            "mariner.halfheart.exhausted": 1
          }
        },
        {
          "actionId": "explore",
          "id": "explore3",
          "label": "Help",
          "description": "Which implements are available for my approach.",
          "required": {
            "funds": 1,
            "mariner.crew": 1,
            "tool": 1,
            "mariner.tune": 1,
            "mariner.inspiration.nature": 1,
            "mariner.lackheart": 1,
            "mariner.halfheart": 1,
            "mariner.vaults.help": 1
          },
          "forbidden": {
            "mariner.crew.traits.craven": 1,
            "mariner.crew.exhausted": 1,
            "mariner.tool.broken": 1,
            "mariner.lackheart.exhausted": 1,
            "mariner.halfheart.exhausted": 1
          }
        }
      ]
    }
  ]
}