{
  "recipes": [
    {
      "id": "mariner.wanderingevents.start.allseas.randomevent.sanguinepositive",
      "label": "The Right Words at the Right Time",
      "grandReqs": {
        "[~/exterior:mariner.crew.traits.arrogant] || [~/exterior:mariner.crew.traits.bold]|| [~/exterior:mariner.crew.traits.brave]|| [~/exterior:mariner.crew.traits.brazen]|| [~/exterior:mariner.crew.traits.persistent]|| [~/exterior:mariner.crew.traits.candid]|| [~/exterior:mariner.crew.traits.commanding]|| [~/exterior:mariner.crew.traits.eager]|| [~/exterior:mariner.crew.traits.easygoing]||  [~/exterior:mariner.crew.traits.jolly]||  [~/exterior:mariner.crew.traits.overeager]|| [~/exterior:mariner.crew.traits.loquatious]|| [~/exterior:mariner.crew.traits.proud]|| [~/exterior:mariner.crew.traits.talkative]|| [~/exterior:mariner.crew.traits.energetic]|| [~/exterior:mariner.crew.traits.exuberant] ||[~/exterior:mariner.crew.trait.soutgoing] ||[~/exterior:mariner.crew.traits.passionate]&&  [~/exterior:mariner.weathermeta.sunny]": 1,
        "root/mariner.cycle": "Abs([root/mariner.globaltimers.allseas.randomevent.sanguinepositive]) + 25"
      },
      "rootAdd": {
        "mariner.globaltimers.allseas.randomevent.sanguinepositive": "[root/mariner.cycle] - [root/mariner.globaltimers.allseas.randomevent.sanguinepositive]"
      },
      "startdescription": "When someone knows just what to say, tensions can clear up quicker then the morning vapors of a field.",
      "furthermore": [
        {
          "target": "~/exterior",
          "mutations": [
            {
              "[mariner.port] && [mariner.reputation.heat]>1": {
                "mutate": "mariner.reputation.heat",
                "level": -5,
                "additative": true
              }
            }
          ]
        },
        {
          "target": "~/exterior",
          "mutations": [
            {
              "filter": "[mariner.crew.traits.arrogant] || [mariner.crew.traits.bold]|| [mariner.crew.traits.brave]|| [mariner.crew.traits.brazen]|| [mariner.crew.traits.persistent]|| [mariner.crew.traits.candid]|| [mariner.crew.traits.commanding]|| [mariner.crew.traits.eager]|| [mariner.crew.traits.easygoing]|| [mariner.crew.traits.jolly]|| [mariner.crew.traits.overeager]|| [mariner.crew.traits.loquatious]|| [mariner.crew.traits.proud]|| [mariner.crew.traits.talkative]|| [mariner.crew.traits.energetic]|| [mariner.crew.traits.exuberant] ||[mariner.crew.trait.soutgoing] ||[mariner.crew.traits.passionate] && [mariner.crew.exhausted] < 1",
              "mutate": "mariner.crew.exhausted",
              "level": 1,
              "limit": 1
            }
          ]
        }
      ]
    }
  ]
}