{
  "recipes": [
    {
      "id": "mariner.wanderingevents.start.allseas.randomevent.rivalleaving",
      "label": "Leaving",
      "grandReqs": {
        "root/mariner.cycle": "Abs([root/mariner.globaltimers.allseas.randomevent.rivalleaving]) + 25",
        "[~/exterior : mariner.crew.traits.rival] ==1": 1
      },
      "rootAdd": {
        "mariner.globaltimers.allseas.randomevent.rivalleaving": "[root/mariner.cycle] - [root/mariner.globaltimers.allseas.randomevent.rivalleaving]"
      },
      "startdescription": "\"This ship isn't big enough for the two of us. I am leaving.\"",
      "furthermore": [
        {
          "target": "~/exterior",
          "mutations": [
            {
              "filter": "mariner.crew.traits.rival",
              "mutate": "mariner.crew.wantstoleave",
              "limit": 1,
              "level": 1,
              "additive": false
            }
          ]
        }
      ]
    }
  ]
}