{
  "recipes": [
    {
      "id": "mariner.wanderingevents.start.allsea.randomevent.paperwork",
      "label": "<A Wall of Paper>",
      "grandReqs": {
        "[~/exterior : {[mariner.docked]} : mariner.reputation] >= 2": 1
      },
      "rootAdd": {
        "mariner.globaltimers.allsea.randomevent.paperwork": "[root/mariner.cycle] - [root/mariner.globaltimers.allsea.randomevent.paperwork]"
      },
      "startdescription": "<In polite societes bureaucracy is the way to get rid of those one does not approve off. in the civilised manner of making their industry, dealings and life impopssible, This port has set up an impenetrable amount of paperwork for me, and they hope to bore me back out onto the sea.>",
      "effects": {
        "mariner.wanderlust": 2
      }
    }
  ]
}