{
  "recipes": [
    {
      "id": "mariner.wanderingevents.start.allseas.randomevent.fight",
      "label": "Fisticuffs on the Docks",
      "grandReqs": {
        "([~/exterior:mariner.crew.traits.choleric] || [~/exterior:mariner.crew.traits.crass] || [~/exterior:mariner.crew.traits.cruel] || [~/exterior:mariner.crew.traits.careless]||[~/exterior:mariner.crew.traits.vengefull] ||[~/exterior:mariner.crew.traits.vile] ||[~/exterior:mariner.crew.traits.boisterous] ||[~/exterior:mariner.crew.traits.callous]|| [~/exterior:mariner.crew.traits.flighty] || [~/exterior:mariner.crew.traits.hotheaded] || [~/exterior:mariner.crew.traits.nervous])": 1,
        "root/mariner.cycle": "Abs([root/mariner.globaltimers.allseas.randomevent.fight]) + 25"
      },
      "rootAdd": {
        "mariner.globaltimers.allseas.randomevent.fight": "[root/mariner.cycle] - [root/mariner.globaltimers.allseas.randomevent.fight]"
      },
      "startdescription": "One of my crew has a high-strung temperament, and recently it has snapped. Blows where traded, and this has not come to the good of my good name, or the health of the crew.",
      "furthermore": [
        {
          "effects": {
            "mariner.notoriety": 1
          }
        },
        {
          "target": "~/exterior",
          "mutations": [
            {
              "filter": "([mariner.crew.traits.choleric] || [mariner.crew.traits.crass] || [mariner.crew.traits.cruel] || [mariner.crew.traits.careless]||[mariner.crew.traits.vengefull] ||[mariner.crew.traits.vile] ||[mariner.crew.traits.boisterous] ||[mariner.crew.traits.callous]|| [mariner.crew.traits.flighty] || [mariner.crew.traits.hotheaded] || [mariner.crew.traits.nervous])  && [mariner.crew.exhausted] < 1",
              "mutate": "mariner.crew.exhausted",
              "level": 5,
              "limit": 1
            }
          ]
        }
      ]
    }
  ]
}