{
  "recipes": [
    {
      "id": "mariner.wanderingevents.start.allseas.randomevent.pleasant",
      "label": "The World Brimming",
      "grandReqs": {
        "root/mariner.cycle": "Abs([root/mariner.globaltimers.allseas.randomevent.pleasant]) + 10"
      },
      "rootAdd": {
        "mariner.globaltimers.allseas.randomevent.pleasant": "[root/mariner.cycle] - [root/mariner.globaltimers.allseas.randomevent.pleasant]"
      },
      "startdescription": "These days are marked with all the pleasant trimmings of life, and the nights are long and engaging. Life is present in the streets for a while, and my Lack-Heart stays sated.",
      "effects": {
        "mariner.influences.heart": 2
      },
      "tablereqs": {
        "mariner.weathermeta.sunny": 1
      }
    }
  ]
}