{
  "elements": [
    {
      "isAspect": true,
      "id": "mariner.globalflags.quest.galantha.abzu",
      "noArtNeeded": true,
      "isHidden": true
    },
    {
      "isAspect": true,
      "id": "mariner.globalflags.quest.frenchheartcult.startedviatheprofessor",
      "noArtNeeded": true,
      "isHidden": true
    },
    {
      "isAspect": true,
      "id": "mariner.globalflags.quest.medseacults.started",
      "noArtNeeded": false,
      "isHidden": false,
      "label": "[HIDDEN] mariner.globalflags.quest.medseacults.started"
    },
    {
      "isAspect": true,
      "id": "mariner.globalflags.quest.luxor.cleared",
      "noArtNeeded": false,
      "isHidden": false,
      "label": "[HIDDEN] mariner.globalflags.quest.luxor.cleared"
    },
    {
      "isAspect": true,
      "id": "mariner.globalflags.luxor.stone.draw",
      "noArtNeeded": false,
      "isHidden": false,
      "label": "[HIDDEN] mariner.globalflags.luxor.stone.draw"
    },
    {
      "isAspect": true,
      "id": "mariner.globalflags.luxor.wood.draw",
      "noArtNeeded": false,
      "isHidden": false,
      "label": "[HIDDEN] mariner.globalflags.luxor.wood.draw"
    },
    {
      "isAspect": true,
      "id": "mariner.globalflags.luxor.thread.draw",
      "noArtNeeded": false,
      "isHidden": false,
      "label": "[HIDDEN] mariner.globalflags.luxor.thread.draw"
    },
    {
      "isAspect": true,
      "id": "mariner.globalflags.luxor.city.draw",
      "noArtNeeded": false,
      "isHidden": false,
      "label": "[HIDDEN] mariner.globalflags.luxor.city.draw"
    },
    {
      "isAspect": true,
      "id": "mariner.globalflags.luxor.branch.draw",
      "noArtNeeded": false,
      "isHidden": false,
      "label": "[HIDDEN] mariner.globalflags.luxor.branch.draw"
    },
    {
      "isAspect": true,
      "id": "mariner.globalflags.luxor.story.draw",
      "noArtNeeded": false,
      "isHidden": false,
      "label": "[HIDDEN] mariner.globalflags.luxor.story.draw"
    },
    {
      "isAspect": true,
      "id": "mariner.globalflags.luxor.serapeum.draw",
      "noArtNeeded": false,
      "isHidden": false,
      "label": "[HIDDEN] mariner.globalflags.luxor.serapeum.draw"
    },
    {
      "isAspect": true,
      "id": "mariner.globalflags.quest.galantha.roaming",
      "noArtNeeded": false,
      "isHidden": false,
      "label": "[HIDDEN] mariner.globalflags.quest.galantha.roaming"
    },
    {
      "isAspect": true,
      "id": "mariner.globalflags.quest.marinettedoll.completed",
      "noArtNeeded": false,
      "isHidden": false,
      "label": "[HIDDEN] mariner.globalflags.quest.marinettedoll.completed"
    },
    {
      "isAspect": true,
      "id": "mariner.globalflags.quest.amsterdamsewers.completed",
      "noArtNeeded": false,
      "isHidden": false,
      "label": "[HIDDEN] mariner.globalflags.quest.amsterdamsewers.completed"
    },
    {
      "isAspect": true,
      "id": "mariner.globalflags.quest.unmarkedgrave.completed",
      "noArtNeeded": false,
      "isHidden": false,
      "label": "[HIDDEN] mariner.globalflags.quest.unmarkedgrave.completed"
    },
    {
      "isAspect": true,
      "id": "mariner.globalflags.quest.bewitch.ozone",
      "noArtNeeded": false,
      "isHidden": false,
      "label": "[HIDDEN] mariner.globalflags.quest.bewitch.ozone"
    },
    {
      "isAspect": true,
      "id": "mariner.globalflags.quest.bewitch.stormbreaks",
      "noArtNeeded": false,
      "isHidden": false,
      "label": "[HIDDEN] mariner.globalflags.quest.bewitch.stormbreaks"
    },
    {
      "isAspect": true,
      "id": "mariner.globalflags.quest.bewitch.proposition",
      "noArtNeeded": false,
      "isHidden": false,
      "label": "[HIDDEN] mariner.globalflags.quest.bewitch.proposition"
    },
    {
      "isAspect": true,
      "id": "mariner.globalflags.quest.bewitch.satisfaction",
      "noArtNeeded": false,
      "isHidden": false,
      "label": "[HIDDEN] mariner.globalflags.quest.bewitch.satisfaction"
    },
    {
      "isAspect": true,
      "id": "mariner.globalflags.quest.bewitch.favor",
      "noArtNeeded": false,
      "isHidden": false,
      "label": "[HIDDEN] mariner.globalflags.quest.bewitch.favor"
    },
    {
      "isAspect": true,
      "id": "mariner.globalflags.quest.noonwater.desired",
      "noArtNeeded": false,
      "isHidden": false,
      "label": "[HIDDEN] mariner.globalflags.quest.noonwater.desired"
    },
    {
      "isAspect": true,
      "id": "mariner.globalflags.quest.bewitch.completed",
      "noArtNeeded": false,
      "isHidden": false,
      "label": "[HIDDEN] mariner.globalflags.quest.bewitch.completed"
    },
    {
      "isAspect": true,
      "id": "mariner.globalflags.quest.noonwater.pilfered",
      "noArtNeeded": false,
      "isHidden": false,
      "label": "[HIDDEN] mariner.globalflags.quest.noonwater.pilfered"
    },
    {
      "isAspect": true,
      "id": "mariner.globalflags.quest.noonwater.indignation",
      "noArtNeeded": false,
      "isHidden": false,
      "label": "[HIDDEN] mariner.globalflags.quest.noonwater.indignation"
    },
    {
      "isAspect": true,
      "id": "mariner.globalflags.quest.noonwater.apology",
      "noArtNeeded": false,
      "isHidden": false,
      "label": "[HIDDEN] mariner.globalflags.quest.noonwater.apology"
    },
    {
      "isAspect": true,
      "id": "mariner.globalflags.quest.noonwater.fled",
      "noArtNeeded": false,
      "isHidden": false,
      "label": "[HIDDEN] mariner.globalflags.quest.noonwater.fled"
    },
    {
      "isAspect": true,
      "id": "mariner.globalflags.quest.tinyheist.salutations",
      "noArtNeeded": false,
      "isHidden": false,
      "label": "[HIDDEN] mariner.globalflags.quest.tinyheist.salutations"
    },
    {
      "isAspect": true,
      "id": "mariner.globalflags.quest.tinyheist.preparations",
      "noArtNeeded": false,
      "isHidden": false,
      "label": "[HIDDEN] mariner.globalflags.quest.tinyheist.preparations"
    },
    {
      "isAspect": true,
      "id": "mariner.globalflags.quest.tinyheist.invitations",
      "noArtNeeded": false,
      "isHidden": false,
      "label": "[HIDDEN] mariner.globalflags.quest.tinyheist.invitations"
    },
    {
      "isAspect": true,
      "id": "mariner.globalflags.quest.tinyheist.delivered",
      "noArtNeeded": false,
      "isHidden": false,
      "label": "[HIDDEN] mariner.globalflags.quest.tinyheist.delivered"
    },
    {
      "isAspect": true,
      "id": "mariner.globalflags.quest.tinyheist.caperedout",
      "noArtNeeded": false,
      "isHidden": false,
      "label": "[HIDDEN] mariner.globalflags.quest.tinyheist.caperedout"
    },
    {
      "isAspect": true,
      "id": "mariner.globalflags.quest.buriedsecrets.secret",
      "noArtNeeded": false,
      "isHidden": false,
      "label": "[HIDDEN] mariner.globalflags.quest.buriedsecrets.secret"
    },
    {
      "isAspect": true,
      "id": "mariner.globalflags.quest.noonwater.stolen",
      "noArtNeeded": false,
      "isHidden": false,
      "label": "[HIDDEN] mariner.globalflags.quest.noonwater.stolen"
    },
    {
      "isAspect": true,
      "id": "mariner.globalflags.quest.noonwater.complete",
      "noArtNeeded": false,
      "isHidden": false,
      "label": "[HIDDEN] mariner.globalflags.quest.noonwater.complete"
    },
    {
      "isAspect": true,
      "id": "mariner.globalflags.quest.galantha.sunk",
      "noArtNeeded": false,
      "isHidden": false,
      "label": "[HIDDEN] mariner.globalflags.quest.galantha.sunk"
    }
  ]
}