{
  "recipes": [
    {
      "id": "mariner.tradestory.amsterdam.veiledlady",
      "craftable": true,
      "actionId": "mariner.navigate",
      "requirements": {
        "mariner.recipient.northsea.amsterdam.veiledlady": 1,
        "mariner.story": 1
      },
      "label": "Trade Stories with The Veiled Lady",
      "startdescription": "\"Trade stories? Always. It is the best way to travel without leaving any comfort behind.\"",
      "warmup": 20,
      "description": "She walks over to a shrine, and lights an insence stick amids cuttings of jasmine, lilies and lotusses. \" I will tell you a story I learned in my second home. Maybe the secret contained within it will help you as much as it did me.\"",
      "furthermore": [
        {
          "aspects": {
            "mariner.signal.exhauststory": 1
          }
        },
        {
          "effects": {
            "mariner.stories.amsterdam.veiledlady": 1
          }
        }
      ]
    }
  ]
}