{
  "elements": [
    {
      "isAspect": true,
      "id": "codex.hours.ringyew.1"
    },
    {
      "isAspect": true,
      "id": "codex.ascensions.constellate.character.solvedhowto"
    },
    {
      "isAspect": true,
      "id": "codex.ascensions.constellate.character.mended"
    },
    {
      "isAspect": true,
      "id": "codex.ascensions.constellate.wist.solvedmystery"
    },
    {
      "isAspect": true,
      "id": "codex.ascensions.constellate.wist.solvedvault"
    },
    {
      "isAspect": true,
      "id": "codex.ascensions.exemplum.hiraezh.solvedmystery"
    },
    {
      "isAspect": true,
      "id": "codex.ascensions.exemplum.hiraezh.solvedvault"
    },
    {
      "isAspect": true,
      "id": "codex.ascensions.exemplum.struggimento.solvedmystery"
    },
    {
      "isAspect": true,
      "id": "codex.ascensions.exemplum.struggimento.solvedvault"
    },
    {
      "isAspect": true,
      "id": "codex.auntieekster.founddesire.lantern"
    },
    {
      "isAspect": true,
      "id": "codex.auntieekster.founddesire.forge"
    },
    {
      "isAspect": true,
      "id": "codex.auntieekster.founddesire.edge"
    },
    {
      "isAspect": true,
      "id": "codex.auntieekster.founddesire.winter"
    },
    {
      "isAspect": true,
      "id": "codex.auntieekster.founddesire.heart"
    },
    {
      "isAspect": true,
      "id": "codex.auntieekster.founddesire.grail"
    },
    {
      "isAspect": true,
      "id": "codex.auntieekster.founddesire.moth"
    },
    {
      "isAspect": true,
      "id": "codex.auntieekster.founddesire.knock"
    },
    {
      "isAspect": true,
      "id": "codex.auntieekster.stolering"
    },
    {
      "isAspect": true,
      "id": "codex.auntieekster.negotiatedring"
    },
    {
      "isAspect": true,
      "id": "codex.agdistis.unlockedecdysis"
    },
    {
      "isAspect": true,
      "id": "codex.agdistis.throwndoll"
    },
    {
      "isAspect": true,
      "id": "codex.agdistis.givendoll"
    },
    {
      "isAspect": true,
      "id": "codex.veiledlady.2"
    },
    {
      "isAspect": true,
      "id": "codex.veiledlady.1"
    },
    {
      "isAspect": true,
      "id": "codex.harald.voicelessdevotion"
    },
    {
      "isAspect": true,
      "id": "codex.harald.solvedmystery"
    },
    {
      "isAspect": true,
      "id": "codex.miriam.questgiven"
    },
    {
      "isAspect": true,
      "id": "codex.miriam.mattiaswitness"
    },
    {
      "isAspect": true,
      "id": "codex.miriam.pursuitlosstransformation"
    }
  ]
}