{
  "elements": [
    {
      "isAspect": true,
      "id": "mariner.displaylocalbar.medsea.marseille",
      "noArtNeeded": false,
      "isHidden": false,
      "label": "[HIDDEN] mariner.displaylocalbar.medsea.marseille"
    },
    {
      "isAspect": true,
      "id": "mariner.displaylocalbar.medsea.bizerta",
      "noArtNeeded": false,
      "isHidden": false,
      "label": "[HIDDEN] mariner.displaylocalbar.medsea.bizerta"
    },
    {
      "isAspect": true,
      "id": "mariner.displaylocalbar.medsea.constantinople",
      "noArtNeeded": false,
      "isHidden": false,
      "label": "[HIDDEN] mariner.displaylocalbar.medsea.constantinople"
    },
    {
      "isAspect": true,
      "id": "mariner.displaylocalbar.medsea.haifa",
      "noArtNeeded": false,
      "isHidden": false,
      "label": "[HIDDEN] mariner.displaylocalbar.medsea.haifa"
    }
  ]
}