{
  "elements": [
    {
      "id": "mariner.locations.medsea.constantinople.nun",
      "$derives": [
        "mariner.composables.recipientnpc",
        "mariner.composables.canbecomehostile"
      ],
      "xexts": {
        "$background": "locations/medsea/constantinople/nun",
        "$frame": "locations/medsea/constantinople/constantinople_frame"
      },
      "label": "<Mother Euphresme>",
      "description": "<An Orthodox cloistered nun who cannot be considered to be very cloistered or orthodox in her views.>",
      "decayTo": "mariner.locations.medsea.constantinople.nun.away",
      "aspects": {
        "mariner.recipient.medsea.constantinople.nun": 1
      },
      "xtriggers": {
        "mariner.location.makehostile": "mariner.locations.medsea.constantinople.nun.hostile"
      }
    },
    {
      "id": "mariner.locations.medsea.constantinople.nun.away",
      "overlays": [
        {
          "image": "locations/medsea/constantinople/nun",
          "grayscale": true,
          "color": "#000000"
        },
        "locations/medsea/constantinople/constantinople_frame"
      ],
      "label": "<Mother Euphresme> [away]",
      "description": "<An Orthodox cloistered nun who cannot be considered to be very cloistered or orthodox in her views.>",
      "decayTo": "mariner.locations.medsea.constantinople.nun",
      "aspects": {
        "mariner.locations.medsea.constantinople.destination": 1
      }
    },
    {
      "id": "mariner.locations.medsea.constantinople.nun.hostile",
      "$derives": [
        "mariner.composables.recipientnpc",
        "mariner.composables.npc.hostile"
      ],
      "xexts": {
        "$background": "locations/medsea/constantinople/nun",
        "$frame": "locations/medsea/constantinople/constantinople_frame"
      },
      "label": "<Mother Euphresme> [hard to meet]",
      "description": "<An Orthodox cloistered nun who cannot be considered to be very cloistered or orthodox in her views.>",
      "icon": "mariner.locations.medsea.constantinople.nun",
      "decayTo": "mariner.locations.medsea.constantinople.nun.away",
      "xtriggers": {
        "mariner.location.makenothostile": "mariner.locations.medsea.constantinople.nun"
      }
    },
    {
      "id": "mariner.locations.medsea.constantinople.tourist",
      "$derives": [
        "mariner.composables.recipientnpc",
        "mariner.composables.canbecomehostile"
      ],
      "xexts": {
        "$background": "locations/medsea/constantinople/tourist",
        "$frame": "locations/medsea/constantinople/constantinople_frame"
      },
      "overlays": [
        {
          "image": "locations/medsea/constantinople/tourist"
        },
        {
          "image": "locations/medsea/constantinople/tourist_judgesuit",
          "expression": "([mariner.touristcostumeid] = 5) or ([mariner.touristcostumeid] = 6) or ([mariner.touristcostumeid] = 7) or ([mariner.touristcostumeid] = 8) or ([mariner.touristcostumeid] = 9)"
        },
        {
          "image": "locations/medsea/constantinople/tourist_suit",
          "expression": "([mariner.touristcostumeid] = 0) or ([mariner.touristcostumeid] = 1) or ([mariner.touristcostumeid] = 2) or ([mariner.touristcostumeid] = 3)"
        },
        {
          "image": "locations/medsea/constantinople/tourist_dress",
          "expression": "([mariner.touristcostumeid] = 4)"
        },
        {
          "image": "locations/medsea/constantinople/tourist_militarysuit",
          "expression": "([mariner.touristcostumeid] = 10) or ([mariner.touristcostumeid] = 11)"
        },
        {
          "image": "locations/medsea/constantinople/tourist_judgewig",
          "expression": "([mariner.touristcostumeid] = 8) or ([mariner.touristcostumeid] = 9)"
        },
        {
          "image": "locations/medsea/constantinople/tourist_shorthair",
          "expression": "([mariner.touristcostumeid] = 0)"
        },
        {
          "image": "locations/medsea/constantinople/tourist_longhair",
          "expression": "([mariner.touristcostumeid] = 4) or ([mariner.touristcostumeid] = 5)"
        },
        {
          "image": "locations/medsea/constantinople/tourist_fez",
          "expression": "([mariner.touristcostumeid] = 2) or ([mariner.touristcostumeid] = 3)"
        },
        {
          "image": "locations/medsea/constantinople/tourist_habit",
          "expression": "([mariner.touristcostumeid] = 6) or ([mariner.touristcostumeid] = 7)"
        },
        {
          "image": "locations/medsea/constantinople/tourist_militaryhat",
          "expression": "([mariner.touristcostumeid] = 10) or ([mariner.touristcostumeid] = 11)"
        },
        {
          "image": "locations/medsea/constantinople/tourist_scarredeye",
          "expression": "([mariner.touristcostumeid] = 10) or ([mariner.touristcostumeid] = 11)"
        },
        {
          "image": "locations/medsea/constantinople/tourist_moustache",
          "expression": "([mariner.touristcostumeid] = 0) or ([mariner.touristcostumeid] = 3) or ([mariner.touristcostumeid] = 7) or ([mariner.touristcostumeid] = 8) or ([mariner.touristcostumeid] = 9) or ([mariner.touristcostumeid] = 10)"
        },
        {
          "image": "locations/medsea/constantinople/tourist_beard",
          "expression": "([mariner.touristcostumeid] = 1) or ([mariner.touristcostumeid] = 2) or ([mariner.touristcostumeid] = 7) or ([mariner.touristcostumeid] = 11)"
        },
        {
          "image": "locations/medsea/constantinople/tourist_monocle",
          "expression": "([mariner.touristcostumeid] = 9)"
        },
        {
          "image": "locations/medsea/constantinople/tourist_glasses",
          "expression": "([mariner.touristcostumeid] = 2) or ([mariner.touristcostumeid] = 11)"
        },
        "locations/medsea/constantinople/constantinople_frame"
      ],
      "label": "Count Florentin Hunyadi",
      "description": "The last scion of an old house, who has left the management of his holdings to others as he spends his middle age in an eternal vacation.",
      "decayTo": "mariner.locations.medsea.constantinople.tourist.away",
      "aspects": {
        "mariner.recipient.medsea.constantinople.tourist": 1,
        "mariner.touristcostumemanager": 1
      },
      "xtriggers": {
        "mariner.location.makehostile": "mariner.locations.medsea.constantinople.tourist.hostile"
      }
    },
    {
      "id": "mariner.locations.medsea.constantinople.tourist.away",
      "overlays": [
        {
          "image": "locations/medsea/constantinople/tourist",
          "grayscale": true,
          "color": "#000000"
        },
        {
          "image": "locations/medsea/constantinople/tourist_judgesuit",
          "expression": "([mariner.touristcostumeid] = 5) or ([mariner.touristcostumeid] = 6) or ([mariner.touristcostumeid] = 7) or ([mariner.touristcostumeid] = 8) or ([mariner.touristcostumeid] = 9)",
          "grayscale": true,
          "color": "#000000"
        },
        {
          "image": "locations/medsea/constantinople/tourist_suit",
          "expression": "([mariner.touristcostumeid] = 0) or ([mariner.touristcostumeid] = 1) or ([mariner.touristcostumeid] = 2) or ([mariner.touristcostumeid] = 3)",
          "grayscale": true,
          "color": "#000000"
        },
        {
          "image": "locations/medsea/constantinople/tourist_dress",
          "expression": "([mariner.touristcostumeid] = 4)",
          "grayscale": true,
          "color": "#000000"
        },
        {
          "image": "locations/medsea/constantinople/tourist_militarysuit",
          "expression": "([mariner.touristcostumeid] = 10) or ([mariner.touristcostumeid] = 11)",
          "grayscale": true,
          "color": "#000000"
        },
        {
          "image": "locations/medsea/constantinople/tourist_judgewig",
          "expression": "([mariner.touristcostumeid] = 8) or ([mariner.touristcostumeid] = 9)",
          "grayscale": true,
          "color": "#000000"
        },
        {
          "image": "locations/medsea/constantinople/tourist_shorthair",
          "expression": "([mariner.touristcostumeid] = 0)",
          "grayscale": true,
          "color": "#000000"
        },
        {
          "image": "locations/medsea/constantinople/tourist_longhair",
          "expression": "([mariner.touristcostumeid] = 4) or ([mariner.touristcostumeid] = 5)",
          "grayscale": true,
          "color": "#000000"
        },
        {
          "image": "locations/medsea/constantinople/tourist_fez",
          "expression": "([mariner.touristcostumeid] = 2) or ([mariner.touristcostumeid] = 3)",
          "grayscale": true,
          "color": "#000000"
        },
        {
          "image": "locations/medsea/constantinople/tourist_habit",
          "expression": "([mariner.touristcostumeid] = 6) or ([mariner.touristcostumeid] = 7)",
          "grayscale": true,
          "color": "#000000"
        },
        {
          "image": "locations/medsea/constantinople/tourist_militaryhat",
          "expression": "([mariner.touristcostumeid] = 10) or ([mariner.touristcostumeid] = 11)",
          "grayscale": true,
          "color": "#000000"
        },
        {
          "image": "locations/medsea/constantinople/tourist_scarredeye",
          "expression": "([mariner.touristcostumeid] = 10) or ([mariner.touristcostumeid] = 11)",
          "grayscale": true,
          "color": "#000000"
        },
        {
          "image": "locations/medsea/constantinople/tourist_moustache",
          "expression": "([mariner.touristcostumeid] = 0) or ([mariner.touristcostumeid] = 3) or ([mariner.touristcostumeid] = 7) or ([mariner.touristcostumeid] = 8) or ([mariner.touristcostumeid] = 9) or ([mariner.touristcostumeid] = 10)",
          "grayscale": true,
          "color": "#000000"
        },
        {
          "image": "locations/medsea/constantinople/tourist_beard",
          "expression": "([mariner.touristcostumeid] = 1) or ([mariner.touristcostumeid] = 2) or ([mariner.touristcostumeid] = 7) or ([mariner.touristcostumeid] = 11)",
          "grayscale": true,
          "color": "#000000"
        },
        {
          "image": "locations/medsea/constantinople/tourist_monocle",
          "expression": "([mariner.touristcostumeid] = 9)",
          "grayscale": true,
          "color": "#000000"
        },
        {
          "image": "locations/medsea/constantinople/tourist_glasses",
          "expression": "([mariner.touristcostumeid] = 2) or ([mariner.touristcostumeid] = 11)",
          "grayscale": true,
          "color": "#000000"
        },
        "locations/medsea/constantinople/constantinople_frame"
      ],
      "label": "Count Florentin Hunyadi [away]",
      "description": "The last scion of an old house, who has left the management of his holdings to others as he spends his middle age in an eternal vacation.",
      "decayTo": "mariner.locations.medsea.constantinople.tourist",
      "aspects": {
        "mariner.locations.medsea.constantinople.destination": 1,
        "mariner.touristcostumemanager": 1
      }
    },
    {
      "id": "mariner.locations.medsea.constantinople.tourist.hostile",
      "$derives": [
        "mariner.composables.recipientnpc",
        "mariner.composables.npc.hostile"
      ],
      "xexts": {
        "$background": "locations/medsea/constantinople/tourist",
        "$frame": "locations/medsea/constantinople/constantinople_frame"
      },
      "overlays": [
        {
          "image": "locations/medsea/constantinople/tourist"
        },
        {
          "image": "locations/medsea/constantinople/tourist_judgesuit",
          "expression": "([mariner.touristcostumeid] = 5) or ([mariner.touristcostumeid] = 6) or ([mariner.touristcostumeid] = 7) or ([mariner.touristcostumeid] = 8) or ([mariner.touristcostumeid] = 9)"
        },
        {
          "image": "locations/medsea/constantinople/tourist_suit",
          "expression": "([mariner.touristcostumeid] = 0) or ([mariner.touristcostumeid] = 1) or ([mariner.touristcostumeid] = 2) or ([mariner.touristcostumeid] = 3)"
        },
        {
          "image": "locations/medsea/constantinople/tourist_dress",
          "expression": "([mariner.touristcostumeid] = 4)"
        },
        {
          "image": "locations/medsea/constantinople/tourist_militarysuit",
          "expression": "([mariner.touristcostumeid] = 10) or ([mariner.touristcostumeid] = 11)"
        },
        {
          "image": "locations/medsea/constantinople/tourist_judgewig",
          "expression": "([mariner.touristcostumeid] = 8) or ([mariner.touristcostumeid] = 9)"
        },
        {
          "image": "locations/medsea/constantinople/tourist_shorthair",
          "expression": "([mariner.touristcostumeid] = 0)"
        },
        {
          "image": "locations/medsea/constantinople/tourist_longhair",
          "expression": "([mariner.touristcostumeid] = 4) or ([mariner.touristcostumeid] = 5)"
        },
        {
          "image": "locations/medsea/constantinople/tourist_fez",
          "expression": "([mariner.touristcostumeid] = 2) or ([mariner.touristcostumeid] = 3)"
        },
        {
          "image": "locations/medsea/constantinople/tourist_habit",
          "expression": "([mariner.touristcostumeid] = 6) or ([mariner.touristcostumeid] = 7)"
        },
        {
          "image": "locations/medsea/constantinople/tourist_militaryhat",
          "expression": "([mariner.touristcostumeid] = 10) or ([mariner.touristcostumeid] = 11)"
        },
        {
          "image": "locations/medsea/constantinople/tourist_scarredeye",
          "expression": "([mariner.touristcostumeid] = 10) or ([mariner.touristcostumeid] = 11)"
        },
        {
          "image": "locations/medsea/constantinople/tourist_moustache",
          "expression": "([mariner.touristcostumeid] = 0) or ([mariner.touristcostumeid] = 3) or ([mariner.touristcostumeid] = 7) or ([mariner.touristcostumeid] = 8) or ([mariner.touristcostumeid] = 9) or ([mariner.touristcostumeid] = 10)"
        },
        {
          "image": "locations/medsea/constantinople/tourist_beard",
          "expression": "([mariner.touristcostumeid] = 1) or ([mariner.touristcostumeid] = 2) or ([mariner.touristcostumeid] = 7) or ([mariner.touristcostumeid] = 11)"
        },
        {
          "image": "locations/medsea/constantinople/tourist_monocle",
          "expression": "([mariner.touristcostumeid] = 9)"
        },
        {
          "image": "locations/medsea/constantinople/tourist_glasses",
          "expression": "([mariner.touristcostumeid] = 2) or ([mariner.touristcostumeid] = 11)"
        },
        "locations/medsea/constantinople/constantinople_frame"
      ],
      "label": "Count Florentin Hunyadi [hard to meet]",
      "description": "The last scion of an old house, who has left the management of his holdings to others as he spends his middle age in an eternal vacation.",
      "icon": "mariner.locations.medsea.constantinople.tourist",
      "decayTo": "mariner.locations.medsea.constantinople.tourist.away",
      "aspects": {
        "mariner.touristcostumemanager": 1
      },
      "xtriggers": {
        "mariner.location.makenothostile": "mariner.locations.medsea.constantinople.tourist"
      }
    },
    {
      "id": "mariner.locations.medsea.constantinople.galantha",
      "$derives": [
        "mariner.composables.npc",
        "mariner.composables.canbecomehostile"
      ],
      "xexts": {
        "$background": "locations/medsea/constantinople/galantha",
        "$frame": "locations/medsea/constantinople/constantinople_frame"
      },
      "label": "The Galantha, Roaming",
      "description": "A tourist out of time, a conqueress surveying her lands, a wolf-amongst-sheep",
      "decayTo": "mariner.locations.medsea.constantinople.galantha.away",
      "aspects": {},
      "xtriggers": {
        "mariner.location.makehostile": "mariner.locations.medsea.constantinople.galantha.hostile"
      }
    },
    {
      "id": "mariner.locations.medsea.constantinople.galantha.away",
      "overlays": [
        {
          "image": "locations/medsea/constantinople/galantha",
          "grayscale": true,
          "color": "#000000"
        },
        "locations/medsea/constantinople/constantinople_frame"
      ],
      "label": "The Galantha, Roaming [away]",
      "description": "A tourist out of time, a conqueress surveying her lands, a wolf-amongst-sheep",
      "decayTo": "mariner.locations.medsea.constantinople.galantha",
      "aspects": {
        "mariner.locations.medsea.constantinople.destination": 1
      }
    },
    {
      "id": "mariner.locations.medsea.constantinople.galantha.hostile",
      "$derives": [
        "mariner.composables.npc",
        "mariner.composables.npc.hostile"
      ],
      "xexts": {
        "$background": "locations/medsea/constantinople/galantha",
        "$frame": "locations/medsea/constantinople/constantinople_frame"
      },
      "label": "The Galantha, Roaming [hard to meet]",
      "description": "A tourist out of time, a conqueress surveying her lands, a wolf-amongst-sheep",
      "icon": "mariner.locations.medsea.constantinople.galantha",
      "decayTo": "mariner.locations.medsea.constantinople.galantha.away",
      "xtriggers": {
        "mariner.location.makenothostile": "mariner.locations.medsea.constantinople.galantha"
      }
    },
    {
      "id": "mariner.locations.medsea.constantinople.constantinopletheater",
      "overlays": [
        "locations/medsea/constantinople/constantinopletheater",
        "locations/medsea/constantinople/constantinople_frame"
      ],
      "label": "Café Nocturne",
      "description": "Not many theaters from the time of the Ottoman Empire still remain now that the Republic has founded. But Cafe Nocturne has remained in its nook in Beyoglu. On the right nights, they still dig out the works penned in Armanian, Italian or even more occluded tongues.",
      "decayTo": "mariner.locations.medsea.constantinople.constantinopletheater.away",
      "aspects": {
        "mariner.local": 1,
        "mariner.location.nothostile": 1,
        "mariner.theater": 1,
        "mariner.sing_allowed": 1,
        "mariner.location": 1
      },
      "unique": true,
      "slots": [
        {
          "id": "verbSong",
          "actionId": "mariner.sing",
          "label": "Song",
          "description": "I should begin my performance, by declaring my intentions, my method, my staging.",
          "required": {
            "mariner.song": 1
          }
        },
        {
          "id": "story",
          "label": "Story to trade",
          "description": "The story I'm willing to share in order to get them to share theirs.",
          "actionId": "mariner.navigate",
          "required": {
            "mariner.story": 1
          }
        },
        {
          "id": "aspect1",
          "actionId": "mariner.sing",
          "label": "Trapping",
          "required": {
            "mariner.trapping": 1
          }
        }
      ],
      "xtriggers": {
        "mariner.location.makehostile": "mariner.locations.medsea.constantinople.constantinopletheater.hostile"
      }
    },
    {
      "id": "mariner.locations.medsea.constantinople.constantinopletheater.away",
      "overlays": [
        {
          "image": "locations/medsea/constantinople/constantinopletheater",
          "grayscale": true,
          "color": "#000000"
        },
        "locations/medsea/constantinople/constantinople_frame"
      ],
      "label": "Café Nocturne [away]",
      "description": "Not many theaters from the time of the Ottoman Empire still remain now that the Republic has founded. But Cafe Nocturne has remained in its nook in Beyoglu. On the right nights, they still dig out the works penned in Armanian, Italian or even more occluded tongues.",
      "decayTo": "mariner.locations.medsea.constantinople.constantinopletheater",
      "aspects": {
        "mariner.locations.medsea.constantinople.destination": 1,
        "mariner.location": 1
      },
      "unique": true
    },
    {
      "id": "mariner.locations.medsea.constantinople.constantinopletheater.hostile",
      "overlays": [
        "locations/medsea/constantinople/constantinopletheater",
        "locations/medsea/constantinople/constantinople_frame"
      ],
      "label": "Café Nocturne [hostile]",
      "description": "Not many theaters from the time of the Ottoman Empire still remain now that the Republic has founded. But Cafe Nocturne has remained in its nook in Beyoglu. On the right nights, they still dig out the works penned in Armanian, Italian or even more occluded tongues.",
      "decayTo": "mariner.locations.medsea.constantinople.constantinopletheater.away",
      "aspects": {
        "modded_explore_allowed": 1,
        "mariner.local": 1,
        "mariner.location.hostile": 1,
        "mariner.location": 1,
        "mariner.theater": 1,
        "mariner.sing_allowed": 1
      },
      "unique": true,
      "slots": [
        {
          "actionId": "explore",
          "id": "explore1",
          "label": "Help",
          "description": "Which implements are available for my approach.",
          "required": {
            "mariner.crew": 1,
            "tool": 1,
            "mariner.tune": 1,
            "mariner.inspiration.nature": 1,
            "mariner.lackheart": 1,
            "mariner.halfheart": 1
          },
          "forbidden": {
            "mariner.crew.traits.craven": 1,
            "mariner.crew.exhausted": 1,
            "mariner.tool.broken": 1,
            "mariner.lackheart.exhausted": 1,
            "mariner.halfheart.exhausted": 1,
            "mariner.vaults.help": 1,
            "mariner.crew.traits.unsociable": 1
          }
        },
        {
          "actionId": "explore",
          "id": "explore2",
          "label": "Help",
          "description": "Which implements are available for my approach.",
          "required": {
            "mariner.crew": 1,
            "tool": 1,
            "mariner.tune": 1,
            "mariner.inspiration.nature": 1,
            "mariner.lackheart": 1,
            "mariner.halfheart": 1
          },
          "forbidden": {
            "mariner.crew.traits.craven": 1,
            "mariner.crew.exhausted": 1,
            "mariner.tool.broken": 1,
            "mariner.lackheart.exhausted": 1,
            "mariner.halfheart.exhausted": 1,
            "mariner.vaults.help": 1,
            "mariner.crew.traits.unsociable": 1
          }
        },
        {
          "actionId": "explore",
          "id": "explore3",
          "label": "Help",
          "description": "Which implements are available for my approach.",
          "required": {
            "mariner.crew": 1,
            "tool": 1,
            "mariner.tune": 1,
            "mariner.inspiration.nature": 1,
            "mariner.lackheart": 1,
            "mariner.halfheart": 1
          },
          "forbidden": {
            "mariner.crew.traits.craven": 1,
            "mariner.crew.exhausted": 1,
            "mariner.tool.broken": 1,
            "mariner.lackheart.exhausted": 1,
            "mariner.halfheart.exhausted": 1,
            "mariner.vaults.help": 1,
            "mariner.crew.traits.unsociable": 1
          }
        }
      ],
      "xtriggers": {
        "mariner.location.makenothostile": "mariner.locations.medsea.constantinople.constantinopletheater"
      }
    },
    {
      "id": "mariner.locations.medsea.constantinople.bar",
      "$derives": [
        "mariner.composables.bar",
        "mariner.composables.canbecomehostile"
      ],
      "label": "Çapa",
      "description": "Different town, same crowd. Different language, same stories.",
      "icon": "locations/bars/mariner.locations.medsea.bar",
      "xtriggers": {
        "mariner.location.makehostile": "mariner.locations.medsea.constantinople.bar.hostile",
        "mariner.signal.discoverlocalelement": {
          "morpheffect": "link",
          "id": "mariner.discoverbar.medsea.constantinople"
        }
      }
    },
    {
      "id": "mariner.locations.medsea.constantinople.bar.hostile",
      "$derives": [
        "mariner.composables.bar.base",
        "mariner.composables.hostile"
      ],
      "label": "Çapa [hostile]",
      "description": "Different town, same crowd. Different language, same stories.",
      "icon": "locations/bars/mariner.locations.medsea.bar",
      "xtriggers": {
        "mariner.location.makenothostile": "mariner.locations.medsea.constantinople.bar"
      },
      "slots": [
        {
          "actionId": "talk",
          "id": "talk1",
          "label": "Help",
          "description": "Which implements are available for my approach.",
          "required": {
            "mariner.crew": 1,
            "mariner.song": 1,
            "mariner.tune": 1,
            "mariner.story": 1,
            "mariner.lackheart": 1,
            "mariner.halfheart": 1,
            "mariner.inspiration.melody": 1
          },
          "forbidden": {
            "mariner.crew.traits.mute": 1,
            "mariner.crew.exhausted": 1,
            "mariner.inspiration.melody.exhausted": 1,
            "mariner.story.exhausted": 1,
            "mariner.lackheart.exhausted": 1,
            "mariner.halfheart.exhausted": 1,
            "mariner.vaults.help": 1,
            "mariner.crew.traits.unsociable": 1
          }
        },
        {
          "actionId": "talk",
          "id": "talk2",
          "label": "Help",
          "description": "Which implements are available for my approach.",
          "required": {
            "mariner.crew": 1,
            "mariner.song": 1,
            "mariner.tune": 1,
            "mariner.story": 1,
            "mariner.lackheart": 1,
            "mariner.halfheart": 1,
            "mariner.inspiration.melody": 1
          },
          "forbidden": {
            "mariner.crew.traits.mute": 1,
            "mariner.crew.exhausted": 1,
            "mariner.inspiration.melody.exhausted": 1,
            "mariner.story.exhausted": 1,
            "mariner.lackheart.exhausted": 1,
            "mariner.halfheart.exhausted": 1,
            "mariner.vaults.help": 1,
            "mariner.crew.traits.unsociable": 1
          }
        },
        {
          "actionId": "talk",
          "id": "talk3",
          "label": "Help",
          "description": "Which implements are available for my approach.",
          "required": {
            "mariner.crew": 1,
            "mariner.song": 1,
            "mariner.tune": 1,
            "mariner.story": 1,
            "mariner.lackheart": 1,
            "mariner.halfheart": 1,
            "mariner.inspiration.melody": 1
          },
          "forbidden": {
            "mariner.crew.traits.mute": 1,
            "mariner.crew.exhausted": 1,
            "mariner.inspiration.melody.exhausted": 1,
            "mariner.story.exhausted": 1,
            "mariner.lackheart.exhausted": 1,
            "mariner.halfheart.exhausted": 1,
            "mariner.vaults.help": 1,
            "mariner.crew.traits.unsociable": 1
          }
        }
      ]
    },
    {
      "id": "mariner.locations.medsea.constantinople.wharf",
      "$derives": [
        "mariner.composables.wharf.available",
        "mariner.composables.canbecomehostile"
      ],
      "icon": "locations/wharves/mariner.locations.medsea.wharf",
      "aspects": {
        "modded_talk_allowed": 1,
        "mariner.location.nothostile": 1
      },
      "xtriggers": {
        "mariner.location.makehostile": "mariner.locations.medsea.constantinople.wharf.hostile",
        "mariner.signal.discoverlocalelement": {
          "morpheffect": "link",
          "id": "mariner.discoverwharf.medsea.constantinople"
        }
      }
    },
    {
      "id": "mariner.locations.medsea.constantinople.wharf.hostile",
      "$derives": [
        "mariner.composables.wharf",
        "mariner.composables.hostile"
      ],
      "icon": "locations/wharves/mariner.locations.medsea.wharf",
      "aspects": {},
      "xtriggers": {
        "mariner.location.makenothostile": "mariner.locations.medsea.constantinople.wharf"
      },
      "label": "Wharf [hostile]"
    }
  ]
}