{
  "recipes": [
    {
      "id": "mariner.conversations.nothingtosayabout.location",
      "$priority": -1,
      "hintOnly": true,
      "actionId": "talk",
      "requirements": {
        "mariner.npc": 1,
        "mariner.location": 1
      },
      "label": "Nothing To Say About This",
      "startdescription": "This one doesn't seem to have anything to say about that."
    },
    {
      "id": "mariner.conversations.nothingtosayabout.song",
      "$priority": -1,
      "hintOnly": true,
      "actionId": "talk",
      "requirements": {
        "mariner.npc": 1,
        "mariner.song": 1
      },
      "label": "Nothing To Say About This",
      "startdescription": "This one doesn't seem to have anything to say about that."
    },
    {
      "id": "mariner.conversations.nothingtosayabout.topic",
      "$priority": -1,
      "hintOnly": true,
      "actionId": "talk",
      "requirements": {
        "mariner.npc": 1,
        "mariner.topic": 1
      },
      "label": "Nothing To Say About This",
      "startdescription": "This one doesn't seem to have anything to say about that."
    },
    {
      "id": "mariner.conversations.nothingtosayabout.story",
      "$priority": -1,
      "hintOnly": true,
      "actionId": "talk",
      "requirements": {
        "mariner.npc": 1,
        "mariner.story": 1
      },
      "label": "Nothing To Say About This",
      "startdescription": "This one doesn't seem to have anything to say about that."
    },
    {
      "id": "mariner.conversations.nothingtosayabout.story.source",
      "$priority": -1,
      "hintOnly": true,
      "actionId": "talk",
      "requirements": {
        "mariner.npc": 1,
        "mariner.story.source": 1
      },
      "label": "Nothing To Say About This",
      "startdescription": "This one doesn't seem to have anything to say about that."
    },
    {
      "id": "mariner.conversations.nothingtosayabout.mystery",
      "$priority": -1,
      "hintOnly": true,
      "actionId": "talk",
      "requirements": {
        "mariner.npc": 1,
        "mariner.mystery": 1
      },
      "label": "Nothing To Say About This",
      "startdescription": "This one doesn't seem to have anything to say about that."
    },
    {
      "id": "mariner.conversations.nothingtosayabout.desire",
      "$priority": -1,
      "hintOnly": true,
      "actionId": "talk",
      "requirements": {
        "mariner.npc": 1,
        "desire": 1
      },
      "label": "Nothing To Say About This",
      "startdescription": "This one doesn't seem to have anything to say about that."
    }
  ]
}