{
  "elements": [
    {
      "isAspect": true,
      "id": "mariner.cosmeticreputation.garden.1",
      "label": "Guests in the Corridors",
      "description": "<size=120%><color=#201d59>Reputation Level 1</color></size>\n\n<we are foreign entities within the system of the hospital, but so far, we have not been rejected.>"
    },
    {
      "isAspect": true,
      "id": "mariner.cosmeticreputation.garden.2",
      "label": "<Concerned Staff>",
      "description": "<size=120%><color=#201d59>Reputation Level 2</color></size>\n\n<like sparking electricy, concerned reports are making their way across the hospital. soon it will reach the central hub, and a response may come.s>"
    },
    {
      "isAspect": true,
      "id": "mariner.cosmeticreputation.garden.3",
      "label": "<Orderlies Patroling>",
      "description": "<size=120%><color=#201d59>Reputation Level 3</color></size>\n\n<Armed with steeled grins and soothing voices, the white-garbed orderlies flow through the artories of the hospital, trying to flush us out.>"
    },
    {
      "isAspect": true,
      "id": "mariner.cosmeticreputation.garden.4",
      "label": "<The Heart Knows>",
      "description": "<size=120%><color=#201d59>Reputation Level 4</color></size>\n\n<Somewhere deep inside the hospital, something knows we are here.>"
    }
  ]
}