{
  "recipes": [
    {
      "id": "jumpstart.mariner.sailing.grammarievents.level1.start.scholar_moon",
      "actionId": "jumpstart.mariner.sailing.grammarievents.level1.start.scholar_moon",
      "effects": {
        "mariner.influences.lantern": 10
      },
      "linked": [
        {
          "id": "mariner.sailing.grammarievents.level1.start.scholar_moon"
        }
      ]
    },
    {
      "id": "mariner.sailing.grammarievents.level1.start.scholar_moon",
      "warmup": 20,
      "grandReqs": {
        "[~/exterior : mariner.moon.basic.6]": 1
      },
      "label": "<Scholar's Moon Rising>",
      "startdescription": "There is a anticipation in the waning moon, a dimming of ligh, so slow one might hardly notice it. But as beings cursed with glories gifts, we know. This night I will engage in a staring contest with the long slow blink of the moon. Then when morning bleaches the moon's shadows, in a dialogue with the rushing waves I will write down a secret story... if I have the Lantern to guide my pen.",
      "linked": [
        {
          "id": "mariner.sailing.grammarievents.level1.scholar_moon.outcome.success",
          "chance": "([lantern]/10)*100"
        },
        {
          "id": "mariner.sailing.grammarievents.level1.scholar_moon.outcome.failure"
        }
      ],
      "slots": [
        {
          "actionId": "mariner.sail",
          "id": "mariner.sail1",
          "label": "Help",
          "description": "Which implements are available for my approach.",
          "required": {
            "funds": 1,
            "mariner.crew": 1,
            "mariner.tune": 1,
            "tool": 1,
            "mariner.inspiration.nature": 1,
            "mariner.lackheart": 1,
            "mariner.halfheart": 1
          },
          "forbidden": {
            "mariner.crew.traits.landlubber": 1,
            "mariner.crew.exhausted": 1,
            "mariner.tool.broken": 1,
            "mariner.lackheart.exhausted": 1,
            "mariner.halfheart.exhausted": 1,
            "mariner.vaults.help": 1
          }
        },
        {
          "actionId": "mariner.sail",
          "id": "mariner.sail2",
          "label": "Help",
          "description": "Which implements are available for my approach.",
          "required": {
            "funds": 1,
            "mariner.crew": 1,
            "mariner.tune": 1,
            "tool": 1,
            "mariner.inspiration.nature": 1,
            "mariner.lackheart": 1,
            "mariner.halfheart": 1
          },
          "forbidden": {
            "mariner.crew.traits.landlubber": 1,
            "mariner.crew.exhausted": 1,
            "mariner.tool.broken": 1,
            "mariner.lackheart.exhausted": 1,
            "mariner.halfheart.exhausted": 1,
            "mariner.vaults.help": 1
          }
        },
        {
          "actionId": "mariner.sail",
          "id": "mariner.sail3",
          "label": "Help",
          "description": "Which implements are available for my approach.",
          "required": {
            "funds": 1,
            "mariner.crew": 1,
            "mariner.tune": 1,
            "tool": 1,
            "mariner.inspiration.nature": 1,
            "mariner.lackheart": 1,
            "mariner.halfheart": 1
          },
          "forbidden": {
            "mariner.crew.traits.landlubber": 1,
            "mariner.crew.exhausted": 1,
            "mariner.tool.broken": 1,
            "mariner.lackheart.exhausted": 1,
            "mariner.halfheart.exhausted": 1,
            "mariner.vaults.help": 1
          }
        }
      ]
    },
    {
      "id": "mariner.sailing.grammarievents.level1.scholar_moon.outcome.success",
      "warmup": 20,
      "label": "<Candles Grace>",
      "startdescription": "<Before the fading light is fully gone, I have penned down my tale>",
      "linked": [
        {
          "id": "mariner.sailing.postevent"
        }
      ]
    },
    {
      "id": "mariner.sailing.grammarievents.level1.scholar_moon.outcome.failure",
      "warmup": 20,
      "label": "Dim",
      "startdescription": "<I am insufficiently immulinated, what usually brings me inspiration, now wanes alongside the moon in morning>",
      "linked": [
        {
          "id": "mariner.sailing.postevent"
        }
      ]
    }
  ]
}