{
  "recipes": [
    {
      "id": "mariner.tradestory.haifa.haifatheater",
      "craftable": true,
      "actionId": "mariner.navigate",
      "requirements": {
        "mariner.locations.medsea.haifa.haifatheater": 1,
        "mariner.story": 1
      },
      "label": "<>",
      "startdescription": "<>",
      "warmup": 20,
      "description": "<>",
      "furthermore": [
        {
          "aspects": {
            "mariner.signal.exhauststory": 1
          }
        },
        {
          "effects": {
            "mariner.stories.haifa.haifatheater": 1
          }
        }
      ]
    }
  ]
}