{
  "recipes": [
    {
      "id": "mariner.tradestory.haifa.ancientmarket",
      "craftable": true,
      "actionId": "mariner.navigate",
      "requirements": {
        "mariner.locations.medsea.haifa.ancientmarket": 1,
        "mariner.story": 1
      },
      "label": "<Gathering Stories at the Dock>",
      "startdescription": "<>",
      "warmup": 20,
      "description": "<Stories of great bounties spread like wildfire, but stories of great misfortune spread like an ashcloud, descending in unexpected places. Among the smugglers, dynamite archeologists and hawkers, ghost stories are shared of the teams in Eqypts and that have followed that team home from their ancient deserts. thankfully the Egyptian curses are worse then the Asyrian ones, eh> but still, perhaps you would like o ward of the evil eye, just to be sure.>",
      "furthermore": [
        {
          "aspects": {
            "mariner.signal.exhauststory": 1
          }
        },
        {
          "effects": {
            "mariner.stories.haifa.ancientmarket": 1
          }
        }
      ]
    }
  ]
}