{
  "elements": [
    {
      "isAspect": true,
      "isHidden": true,
      "id": "mariner.displaynobar"
    },
    {
      "id": "mariner.nobarhere",
      "icon": "locations/bars/mariner.nobarhere",
      "label": "No Bar Discovered Here",
      "description": "I have not found a Bar in this city yet. But I know that any port worth their salt must have one. [I can find a Bar by exploring with my Half-Heart]",
      "aspects": {
        "mariner.local": 1
      },
      "decayTo": "mariner.nobaratsea"
    },
    {
      "id": "mariner.nobaratsea",
      "icon": "locations/bars/mariner.nobarhere",
      "label": "At sea",
      "description": "There is no Bar available to me here.",
      "xtriggers": {
        "mariner.displaynobar": "mariner.nobarhere",
        "mariner.displaylocalbar.northsea.london": "mariner.locations.northsea.london.bar",
        "mariner.displaylocalbar.northsea.amsterdam": "mariner.locations.northsea.amsterdam.bar",
        "mariner.displaylocalbar.northsea.copenhagen": "mariner.locations.northsea.copenhagen.bar",
        "mariner.displaylocalbar.medsea.marseille": "mariner.locations.medsea.marseille.bar",
        "mariner.displaylocalbar.medsea.bizerta": "mariner.locations.medsea.bizerta.bar",
        "mariner.displaylocalbar.medsea.constantinople": "mariner.locations.medsea.constantinople.bar",
        "mariner.displaylocalbar.medsea.haifa": "mariner.locations.medsea.haifa.bar"
      }
    }
  ]
}