{
  "elements": [
    {
      "id": "mariner.mysteries.hospital",
      "overlays": ["locations/medsea/hospital", "mystery_overlay"],
      "label": "Mystery of the Saint Recipe Hospital",
      "description": "Alexia has detected a pattern that she determined as worrisome, thought why is not instantly appearant. Ever since the roiling fevers of the flue a decade past, to few people have been dying in the Saint Recipe hospital.",
      "aspects": {
        "mariner.mystery": 1
      },
      "slots": [
        {
          "id": "missing.or",
          "label": "Missing Insight",
          "description": "This mystery requires evidene gathered in the Hospital.",
          "required": {
            "mariner.vaults.help": 1
          }
        },
        {
          "id": "Missing.",
          "label": "Missing Insight",
          "description": "This mystery requires evidene gathered in the Hospital.",
          "required": {
            "mariner.vaults.help": 1
          }
        },
        {
          "id": "Missing.paperwork",
          "label": "Missing Insight",
          "description": "This mystery requires evidene gathered in the Hospital.",
          "required": {
            "mariner.vaults.help": 1
          }
        }
      ]
    }
  ]
}
