{
  "recipes": [
    {
      "id": "mariner.heartache.checkinfluence",
      "linked": [
        {
          "chance": "([~/exterior : mariner.mooninfluence.heart] * 10) + ([~/exterior:mariner.crew.traits.entertaining] * 5) - ([~/exterior:mariner.crew.traits.rambunctious] * 5) + ([~/exterior:mariner.influences.heart] * 10)",
          "id": "mariner.heartache.influenced"
        },
        {
          "id": "mariner.tide.heartache"
        }
      ]
    },
    {
      "id": "mariner.heartache.influenced",
      "label": "The Pulse of the City",
      "description": "These days the town shows itself to me at its finest. I find myself enthronged by engaging locals. I am shown the hidden gems of the town, invited to be among the most dazzling society, first to see astounding experiences. My days are so full I don't feel my Half-Heart's ache, hardly feel that pull from beyond the sea.",
      "purge": {
        "mariner.influences.heart": 2
      }
    }
  ]
}