{
  "recipes": [
    {
      "id": "mariner.wanderingevents.start.northsea.randomevent.unnerving",
      "label": "An Unnerving Performance at the Ecdysis",
      "grandReqs": {
        "root/mariner.cycle": "Abs([root/mariner.globaltimers.unnerving]) + 25"
      },
      "rootAdd": {
        "mariner.globaltimers.unnerving": "[root/mariner.cycle] - [root/mariner.globaltimers.unnerving]"
      },
      "startdescription": "The Dance tonight is some special occasion, it seems. Agdistis does not have time to greet me today, and I watch even the unblinking owner of the club talk to the performers. The dance is serpentine, and the garments fall like the shedding of skin.",
      "effects": {
        "mariner.experiences.unsettling": 1
      },
      "tablereqs": {
        "mariner.locations.northsea.london.ecdysisclub": 1
      }
    }
  ]
}