{
  "recipes": [
    {
      "id": "mariner.wanderingevents.start.northsea.randomevent.etherial",
      "label": "An Ephemeral Performance at the Ecdysis Club",
      "startdescription": "Tonight I visited the Club again. They dimmed all the lights, and in the crimson gloom the dancers swayed slowly in tattered rags. With each turn, moths would release from the folds of their clothing, shining brightly in the gloom.",
      "grandReqs": {
        "root/mariner.cycle": "Abs([root/mariner.globaltimers.northsea.randomevent.etherial]) + 25"
      },
      "rootAdd": {
        "mariner.globaltimers.northsea.randomevent.etherial": "[root/mariner.cycle] - [root/mariner.globaltimers.northsea.randomevent.etherial]"
      },
      "effects": {
        "mariner.influences.moth": 2,
        "mariner.influences.lantern": 2
      },
      "tablereqs": {
        "mariner.locations.northsea.london.ecdysisclub": 1
      }
    }
  ]
}