{
    "recipes": [
        {
            "id": "mariner.reputation.destroyreputation",
            "grandReqs": {
                "[~/source : mariner.reputation] or [~/source : mariner.reputation.heat]": 1
            },
            "furthermore": [
                {
                    "target": "~/source",
                    "mutations": [
                        {
                            "filter": "mariner.reputation",
                            "mutate": "mariner.reputation.heat",
                            "level": 0,
                            "additive": false
                        },
                        {
                            "filter": "mariner.reputation",
                            "mutate": "mariner.reputation",
                            "level": 0,
                            "additive": false
                        }
                    ]
                },
                {
                    "target": "~/source",
                    "aspects": {
                        "mariner.signal.updatedisplayedreputation": 1
                    }
                }
            ]
        }
    ]
}