{
  "recipes": [
    {
      "id": "mariner.suspicion.grabnotoriety",
      "label": "Collecting Information",
      "actionId": "mariner.haltable.suspicion",
      "startdescription": "News of my exploits is reaching the wrong people...",
      "warmup": 20,
      "linked": [
        {
          "id": "mariner.suspicion.wantedmanrecognized",
          "chance": 50
        },
        {
          "id": "mariner.suspicion.activatesuspicion"
        },
        {
          "id": "mariner.suspicion.increaselocalreputation"
        }
      ],
      "slots": [
        {
          "id": "notoriety",
          "label": "Notoriety",
          "required": {
            "mariner.notoriety": 1
          },
          "greedy": true
        }
      ]
    },
    {
      "id": "mariner.suspicion.wantedmanrecognized",
      "extantreqs": {
        "mariner.notoriety": -1,
        "mariner.crew.traits.wanted": 1,
        "mariner.invault": -1
      },
      "effects": {
        "mariner.notoriety": 1
      },
      "label": "Crew Recognised",
      "description": "Someone has recognised one my crewmembers..."
    },
    {
      "id": "mariner.suspicion.activatesuspicion",
      "grandReqs": {
        "[~/extant : {[mariner.reputation] && [mariner.docked]} : mariner.port ]": 1,
        "mariner.notoriety": -1,
        "mariner.invault": -1
      },
      "label": "Activating suspicion in absence of notoriety...",
      "warmup": 10,
      "linked": [
        {
          "id": "mariner.suspicion.makehostile.check"
        }
      ]
    },
    {
      "id": "mariner.suspicion.increaselocalreputation",
      "grandReqs": {
        "mariner.notoriety": 1,
        "[~/extant : {[mariner.docked] && [mariner.reputation] < 4} : mariner.port]": 1
      },
      "furthermore": [
        {
          "effects": {
            "mariner.notoriety": -1
          }
        },
        {
          "target": "~/extant",
          "mutations": [
            {
              "filter": "mariner.docked",
              "mutate": "mariner.reputation.heat",
              "level": 0,
              "additive": false
            },
            {
              "filter": "mariner.docked",
              "mutate": "mariner.reputation",
              "level": 1,
              "additive": true
            }
          ]
        },
        {
          "target": "~/extant",
          "aspects": {
            "mariner.signal.updatedisplayedreputation": 1
          }
        },
        {
          "target": "~/extant",
          "aspects": {
            "mariner.signal.generatereputationheat": 1
          }
        }
      ],
      "linked": [
        {
          "id": "mariner.suspicion.makehostile.check"
        }
      ]
    },
    {
      "id": "mariner.suspicion.makehostile.check",
      "linked": [
        {
          "id": "mariner.suspicion.makehostile.highchance",
          "chance": 100
        },
        {
          "id": "mariner.suspicion.makehostile.medchance",
          "chance": 60
        },
        {
          "id": "mariner.suspicion.makehostile.lowchance",
          "chance": 30
        }
      ]
    }
  ]
}