{
  "recipes": [
    {
      "id": "mariner.tradestory.copenhagen.newscandinavian",
      "craftable": true,
      "actionId": "mariner.navigate",
      "requirements": {
        "mariner.locations.northsea.copenhagen.newscandinavian": 1,
        "mariner.story": 1
      },
      "label": "An Evening at the New Scandinavian",
      "startdescription": "I could catch a show at the New Scandinavian. Few runs are staged for long, so every show is a surprise, and every show is a challenge.",
      "warmup": 20,
      "description": "A cacophony, a revelation? These performances are never straightforward, and even more rarely clear what they are alluding too.",
      "furthermore": [
        {
          "aspects": {
            "mariner.signal.exhauststory": 1
          }
        },
        {
          "effects": {
            "mariner.stories.copenhagen.newscandinavian": 1
          }
        }
      ]
    }
  ]
}