{
  "recipes": [
    {
      "id": "mariner.tradestory.generic.bar",
      "craftable": true,
      "actionId": "mariner.navigate",
      "requirements": {
        "mariner.bar": 1,
        "mariner.story": 1
      },
      "label": "Trade My Story With Others in Bar",
      "startdescription": "In many bars one can find many different stories, but there is one you can always find. This one is spoken not in words, but in postures, and stances and glances.",
      "warmup": 20,
      "description": "I watch a dialogue in body language, a story older than spoken language. Over the night, I watch the blooming of a firefly relationship, I watch it rise, shine, and blink out in the night.",
      "furthermore": [
        {
          "aspects": {
            "mariner.signal.exhauststory": 1
          }
        },
        {
          "effects": {
            "mariner.stories.generic.bar": 1
          }
        }
      ]
    }
  ]
}