{
    "elements": [
        {
            "id": "mariner.cargoprecursor",
            "isAspect": true
        },
        {
            "id": "mariner.cargo.canbeupgraded",
            "isAspect": true
        },
        {
            "id": "mariner.cargo",
            "isAspect": true,
            "label": "<Cargo>",
            "description": "\"It's not the empty space that's useful, it's whatever of worth we can stow in there.\" - One-Eyed Steve"
        }
    ]
}