{
  "decks": [
    {
      "id": "mariner.decks.cargo",
      "spec": [
        "mariner.cargo.for.northsea.local",
        "mariner.cargo.for.northsea.close",
        "mariner.cargo.for.northsea.distant",
        "mariner.cargo.for.medsea.local",
        "mariner.cargo.for.medsea.close",
        "mariner.cargo.for.medsea.distant"
      ],
      "shuffleAfterDraw": true
    }
  ]
}