{
  "recipes": [
    {
      "id": "mariner.upgradecargo.checkinfluence",
      "linked": [
        {
          "id": "mariner.upgradecargo.trigger",
          "chance": "([~/exterior : mariner.mooninfluence.moth] * 10) + ([~/exterior : mariner.influences.moth] * 10) + ([~/exterior:mariner.crew.traits.shifty] * 5) - ([~/exterior:mariner.crew.traits.crude] * 5)"
        },
        {
          "useCallback": "mariner.upgradecargo.checkinfluence.done"
        }
      ]
    },
    {
      "id": "mariner.upgradecargo.trigger",
      "requirements": {
        "mariner.cargo.canbeupgraded": 1
      },
      "warmup": 20,
      "label": "<Upgraded cargo>",
      "startdescription": "<>",
      "purge": {
        "mariner.influences.moth": 2
      },
      "aspects": {
        "mariner.signal.upgradecargo": 1
      },
      "linked": [
        {
          "useCallback": "mariner.upgradecargo.checkinfluence.done"
        }
      ]
    },
    {
      "id": "mariner.upgradecargo.checkinfluence.done",
      "decays": [
        "mariner.cargoprecursor"
      ],
      "linked": [
        {
          "useCallback": "RETURN_FROM_UPDATE_CARGO"
        }
      ]
    }
  ]
}