{
  "recipes": [
    {
      "id": "mariner.sailing.mate",
      "label": "<Employ a Crewman for Speed>",
      "startdescription": "<A good mate runs a tight ship. A mate exerting themselves can make a ship fly across the water.>",
      "requirements": {
        "mariner.crew.specialist.mate": 1
      },
      "furthermore": [
        {
          "effects": {
            "mariner.speedbonus.card": 2
          }
        },
        {
          "mutations": {
            "mariner.crew": {
              "mutate": "mariner.crew.exhausted",
              "level": 1
            }
          }
        },
        {
          "movements": {
            "~/tabletop": [
              "mariner.crew"
            ]
          }
        },
        {
          "target": "~/extant",
          "aspects": {
            "mariner.signal.computeshipstats": 1
          }
        }
      ],
      "linked": [
        {
          "id": "mariner.sailing.checkforevent.influenced",
          "chance": "([~/exterior : mariner.mooninfluence.winter] * 10) + ([~/exterior : mariner.influences.winter] * 10) + ([~/exterior:mariner.crew.traits.goodfortuned] * 5) - ([~/exterior:mariner.crew.traits.unlucky] * 5)"
        },
        {
          "id": "mariner.sailing.pickevent",
          "chance": 70
        },
        {
          "id": "mariner.sailing.noevent"
        }
      ]
    }
  ]
}