{
  "recipes": [
    {
      "id": "mariner.sailing.repairatsea",
      "label": "<Attempt to Repair At Sea>",
      "startdescription": "<Attempting : forge amount>",
      "requirements": {
        "mariner.ship.damage": 1,
        "mariner.repairkit": 1
      },
      "linked": [
        {
          "id": "mariner.sailing.repairatsea.attempt"
        }
      ]
    },
    {
      "id": "mariner.sailing.repairatsea.attempt",
      "warmup": 30,
      "slots": [
        {
          "id": "help1",
          "label": "Help",
          "description": "Which implements are available to help attempting to repair the ship.",
          "required": {
            "mariner.crew": 1,
            "tool": 1
          },
          "forbidden": {
            "mariner.crew.exhausted": 1
          }
        },
        {
          "id": "help2",
          "label": "Help",
          "description": "Which implements are available to help attempting to repair the ship.",
          "required": {
            "mariner.crew": 1,
            "tool": 1
          },
          "forbidden": {
            "mariner.crew.exhausted": 1
          }
        },
        {
          "id": "help3",
          "label": "Help",
          "description": "Which implements are available to help attempting to repair the ship.",
          "required": {
            "mariner.crew": 1,
            "tool": 1
          },
          "forbidden": {
            "mariner.crew.exhausted": 1
          }
        }
      ],
      "effects": {
        "mariner.repairkit": -1
      },
      "mutations": {
        "mariner.crew": {
          "mutate": "mariner.crew.exhausted",
          "level": 1
        }
      },
      "linked": [
        {
          "id": "mariner.sailing.repairatsea.success",
          "chance": "80 - (20 * [mariner.ship.patched]) + (5 * [forge])"
        },
        {
          "id": "mariner.sailing.repairatsea.failure"
        }
      ]
    },
    {
      "id": "mariner.sailing.repairatsea.success",
      "label": "<Attempt to Repair At Sea: Success>",
      "startdescription": "<Success>",
      "mutations": [
        {
          "filter": "mariner.ship",
          "mutate": "mariner.ship.damage",
          "level": -1,
          "additive": true
        },
        {
          "filter": "mariner.ship",
          "mutate": "mariner.ship.patched",
          "level": 1,
          "additive": true
        }
      ],
      "linked": [
        {
          "id": "mariner.sailing.checkforevent.influenced",
          "chance": "([~/exterior : mariner.mooninfluence.winter] * 10) + ([~/exterior : mariner.influences.winter] * 10) + ([~/exterior:mariner.crew.traits.goodfortuned] * 5) - ([~/exterior:mariner.crew.traits.unlucky] * 5)"
        },
        {
          "id": "mariner.sailing.pickevent",
          "chance": 70
        },
        {
          "id": "mariner.sailing.noevent"
        }
      ]
    },
    {
      "id": "mariner.sailing.repairatsea.failure",
      "label": "<Attempt to Repair At Sea: Failure>",
      "startdescription": "<Failure>",
      "linked": [
        {
          "id": "mariner.sailing.checkforevent.influenced",
          "chance": "([~/exterior : mariner.mooninfluence.winter] * 10) + ([~/exterior : mariner.influences.winter] * 10) + ([~/exterior:mariner.crew.traits.goodfortuned] * 5) - ([~/exterior:mariner.crew.traits.unlucky] * 5)"
        },
        {
          "id": "mariner.sailing.pickevent",
          "chance": 70
        },
        {
          "id": "mariner.sailing.noevent"
        }
      ]
    }
  ]
}