{
  "decks": [
    {
      "id": "mariner.decks.vaults.garden.explore.hospital.tasks",
      "label": "Potential Possibilities",
      "description": "Places, things and people to be explored or exploited.",
      "spec": [
        "mariner.vaults.garden.closet",
        "mariner.vaults.garden.operatingroom",
        "mariner.vaults.garden.lockers",
        "mariner.vaults.garden.patientward",
        "mariner.vaults.garden.janitorcloset"
      ],
      "resetOnExhaustion": true,
      "defaultcard": "mariner.emptydeck"
    }
  ]
}