{
  "recipes": [
    {
      "id": "mariner.challenge.strategize",
      "warmup": 15,
      "label": "Plan The Slaying Of A Beast",
      "startdescription": "Something unnatural opposes us, half within this world, half without. Pedestrian means of murder may not be enough. I could employ the knowledge of Lantern of the armaments of Edge.",
      "description": "Something unnatural opposes us, half within this world, half without. Pedestrian means of murder may not be enough. I could employ the knowledge of Lantern of the armaments of Edge.",
      "alt": [
        {
          "id": "mariner.challenge.strategize.lantern.high"
        },
        {
          "id": "mariner.challenge.strategize.edge.high"
        },
        {
          "id": "mariner.challenge.strategize.lantern.med"
        },
        {
          "id": "mariner.challenge.strategize.edge.med"
        },
        {
          "id": "mariner.challenge.strategize.lantern.low"
        },
        {
          "id": "mariner.challenge.strategize.edge.low"
        }
      ],
      "linked": [
        {
          "useCallback": "FAIL_CHALLENGE"
        }
      ],
      "slots": [
        {
          "actionId": "explore",
          "id": "explore1",
          "label": "Help",
          "description": "Which implements are available for my approach.",
          "required": {
            "funds": 1,
            "mariner.crew": 1,
            "tool": 1,
            "mariner.tune": 1,
            "mariner.inspiration.nature": 1,
            "mariner.lackheart": 1,
            "mariner.halfheart": 1,
            "mariner.vaults.help": 1
          },
          "forbidden": {
            "mariner.crew.traits.craven": 1,
            "mariner.crew.exhausted": 1,
            "mariner.tool.broken": 1,
            "mariner.lackheart.exhausted": 1,
            "mariner.halfheart.exhausted": 1
          }
        },
        {
          "actionId": "talk",
          "id": "talk1",
          "label": "Help",
          "description": "Which implements are available for my approach.",
          "required": {
            "funds": 1,
            "mariner.crew": 1,
            "mariner.song": 1,
            "mariner.tune": 1,
            "mariner.story": 1,
            "mariner.lackheart": 1,
            "mariner.halfheart": 1,
            "mariner.inspiration.melody": 1,
            "mariner.vaults.help": 1
          },
          "forbidden": {
            "mariner.crew.traits.mute": 1,
            "mariner.crew.exhausted": 1,
            "mariner.inspiration.melody.exhausted": 1,
            "mariner.story.exhausted": 1,
            "mariner.lackheart.exhausted": 1,
            "mariner.halfheart.exhausted": 1
          }
        },
        {
          "actionId": "mariner.navigate",
          "id": "mariner.navigate1",
          "label": "Help",
          "description": "Which implements are available for my approach.",
          "required": {
            "funds": 1,
            "mariner.crew": 1,
            "mariner.song": 1,
            "mariner.story": 1,
            "mariner.inspiration.melody": 1,
            "mariner.tune": 1,
            "mariner.lackheart": 1,
            "mariner.halfheart": 1,
            "mariner.vaults.help": 1
          },
          "forbidden": {
            "mariner.crew.traits.singleminded": 1,
            "mariner.crew.exhausted": 1,
            "mariner.tool.broken": 1,
            "mariner.story.exhausted": 1,
            "mariner.inspiration.melody.exhausted": 1,
            "mariner.lackheart.exhausted": 1,
            "mariner.halfheart.exhausted": 1
          }
        },
        {
          "actionId": "mariner.sail",
          "id": "mariner.sail1",
          "label": "Help",
          "description": "Which implements are available for my approach.",
          "required": {
            "funds": 1,
            "mariner.crew": 1,
            "mariner.tune": 1,
            "tool": 1,
            "mariner.inspiration.nature": 1,
            "mariner.lackheart": 1,
            "mariner.halfheart": 1,
            "mariner.vaults.help": 1
          },
          "forbidden": {
            "mariner.crew.traits.landlubber": 1,
            "mariner.crew.exhausted": 1,
            "mariner.tool.broken": 1,
            "mariner.lackheart.exhausted": 1,
            "mariner.halfheart.exhausted": 1
          }
        },
        {
          "actionId": "mariner.sing",
          "id": "mariner.sing1",
          "label": "Help",
          "description": "Which implements are available for my approach.",
          "required": {
            "funds": 1,
            "mariner.crew": 1,
            "mariner.song": 1,
            "mariner.instrument": 1,
            "mariner.inspiration.melody": 1,
            "mariner.tune": 1,
            "mariner.story": 1,
            "mariner.lackheart": 1,
            "mariner.halfheart": 1,
            "mariner.vaults.help": 1
          },
          "forbidden": {
            "mariner.crew.traits.rhythmless": 1,
            "mariner.crew.exhausted": 1,
            "mariner.inspiration.melody.exhausted": 1,
            "mariner.story.exhausted": 1,
            "mariner.lackheart.exhausted": 1,
            "mariner.halfheart.exhausted": 1
          }
        }
      ]
    },
    {
      "id": "mariner.challenge.strategize.lantern.high",
      "label": "Eldritch Tactics",
      "startdescription": "The laws of the House of Sun still apply to this entity. I know their ways and I know their bounds. We will almost certainly succeed.",
      "requirements": {
        "lantern": 10
      },
      "linked": [
        {
          "chance": 90,
          "useCallback": "SUCCEED_CHALLENGE"
        },
        {
          "useCallback": "FAIL_CHALLENGE"
        }
      ]
    },
    {
      "id": "mariner.challenge.strategize.lantern.med",
      "label": "Arcane Tactics",
      "startdescription": "Themes in folktales reveal underlying truths. I am illuminated by knowledge and armed with daimonography. We will likely succeed.",
      "requirements": {
        "lantern": 5
      },
      "linked": [
        {
          "chance": 70,
          "useCallback": "SUCCEED_CHALLENGE"
        },
        {
          "useCallback": "FAIL_CHALLENGE"
        }
      ]
    },
    {
      "id": "mariner.challenge.strategize.lantern.low",
      "label": "Unlikely Tactics",
      "startdescription": "Old stories and forgotten myths. Snippets hint at practices and tools that are of use here. We may yet succeed.",
      "requirements": {
        "lantern": 2
      },
      "linked": [
        {
          "chance": 30,
          "useCallback": "SUCCEED_CHALLENGE"
        },
        {
          "useCallback": "FAIL_CHALLENGE"
        }
      ]
    },
    {
      "id": "mariner.challenge.strategize.edge.high",
      "label": "The Sacred Tools",
      "startdescription": "My dagger could be rusted, my axe could be flint, in my hand they are the teeth of wolf and they unmake, they unmake, they unmake. We will almost certainly succeed.",
      "requirements": {
        "edge": 10
      },
      "linked": [
        {
          "chance": 90,
          "useCallback": "SUCCEED_CHALLENGE"
        },
        {
          "useCallback": "FAIL_CHALLENGE"
        }
      ]
    },
    {
      "id": "mariner.challenge.strategize.edge.med",
      "label": "The Perfected Tools",
      "startdescription": "The operations of murder reveal the many practices that prepare our many tools for our many jobs. We will likely succeed.",
      "requirements": {
        "edge": 5
      },
      "linked": [
        {
          "chance": 70,
          "useCallback": "SUCCEED_CHALLENGE"
        },
        {
          "useCallback": "FAIL_CHALLENGE"
        }
      ]
    },
    {
      "id": "mariner.challenge.strategize.edge.low",
      "label": "The Right Tools",
      "startdescription": "When a normal blade won't do, I carry sterling silver of blackened oak. We may yet succeed.",
      "requirements": {
        "edge": 2
      },
      "linked": [
        {
          "chance": 30,
          "useCallback": "SUCCEED_CHALLENGE"
        },
        {
          "useCallback": "FAIL_CHALLENGE"
        }
      ]
    }
  ]
}