{
  "recipes": [
    {
      "id": "mariner.challenge.break_in",
      "warmup": 15,
      "label": "Pass a Barrier",
      "startdescription": "There is a barrier that opposes us. We can overcome it with the force of Forge or guile of Knock.",
      "description": "There is a barrier that opposes us. We can overcome it with the force of Forge or guile of Knock.",
      "alt": [
        {
          "id": "mariner.challenge.break_in.forge.high"
        },
        {
          "id": "mariner.challenge.break_in.knock.high"
        },
        {
          "id": "mariner.challenge.break_in.forge.med"
        },
        {
          "id": "mariner.challenge.break_in.knock.med"
        },
        {
          "id": "mariner.challenge.break_in.forge.low"
        },
        {
          "id": "mariner.challenge.break_in.knock.low"
        }
      ],
      "linked": [
        {
          "useCallback": "FAIL_CHALLENGE"
        }
      ],
      "slots": [
        {
          "actionId": "explore",
          "id": "explore1",
          "label": "Help",
          "description": "Which implements are available for my approach.",
          "required": {
            "funds": 1,
            "mariner.crew": 1,
            "tool": 1,
            "mariner.tune": 1,
            "mariner.inspiration.nature": 1,
            "mariner.lackheart": 1,
            "mariner.halfheart": 1,
            "mariner.vaults.help": 1
          },
          "forbidden": {
            "mariner.crew.traits.craven": 1,
            "mariner.crew.exhausted": 1,
            "mariner.tool.broken": 1,
            "mariner.lackheart.exhausted": 1,
            "mariner.halfheart.exhausted": 1
          }
        },
        {
          "actionId": "talk",
          "id": "talk1",
          "label": "Help",
          "description": "Which implements are available for my approach.",
          "required": {
            "funds": 1,
            "mariner.crew": 1,
            "mariner.song": 1,
            "mariner.tune": 1,
            "mariner.story": 1,
            "mariner.lackheart": 1,
            "mariner.halfheart": 1,
            "mariner.inspiration.melody": 1,
            "mariner.vaults.help": 1
          },
          "forbidden": {
            "mariner.crew.traits.mute": 1,
            "mariner.crew.exhausted": 1,
            "mariner.inspiration.melody.exhausted": 1,
            "mariner.story.exhausted": 1,
            "mariner.lackheart.exhausted": 1,
            "mariner.halfheart.exhausted": 1
          }
        },
        {
          "actionId": "mariner.navigate",
          "id": "mariner.navigate1",
          "label": "Help",
          "description": "Which implements are available for my approach.",
          "required": {
            "funds": 1,
            "mariner.crew": 1,
            "mariner.song": 1,
            "mariner.story": 1,
            "mariner.inspiration.melody": 1,
            "mariner.tune": 1,
            "mariner.lackheart": 1,
            "mariner.halfheart": 1,
            "mariner.vaults.help": 1
          },
          "forbidden": {
            "mariner.crew.traits.singleminded": 1,
            "mariner.crew.exhausted": 1,
            "mariner.tool.broken": 1,
            "mariner.story.exhausted": 1,
            "mariner.inspiration.melody.exhausted": 1,
            "mariner.lackheart.exhausted": 1,
            "mariner.halfheart.exhausted": 1
          }
        },
        {
          "actionId": "mariner.sail",
          "id": "mariner.sail1",
          "label": "Help",
          "description": "Which implements are available for my approach.",
          "required": {
            "funds": 1,
            "mariner.crew": 1,
            "mariner.tune": 1,
            "tool": 1,
            "mariner.inspiration.nature": 1,
            "mariner.lackheart": 1,
            "mariner.halfheart": 1,
            "mariner.vaults.help": 1
          },
          "forbidden": {
            "mariner.crew.traits.landlubber": 1,
            "mariner.crew.exhausted": 1,
            "mariner.tool.broken": 1,
            "mariner.lackheart.exhausted": 1,
            "mariner.halfheart.exhausted": 1
          }
        },
        {
          "actionId": "mariner.sing",
          "id": "mariner.sing1",
          "label": "Help",
          "description": "Which implements are available for my approach.",
          "required": {
            "funds": 1,
            "mariner.crew": 1,
            "mariner.song": 1,
            "mariner.instrument": 1,
            "mariner.inspiration.melody": 1,
            "mariner.tune": 1,
            "mariner.story": 1,
            "mariner.lackheart": 1,
            "mariner.halfheart": 1,
            "mariner.vaults.help": 1
          },
          "forbidden": {
            "mariner.crew.traits.rhythmless": 1,
            "mariner.crew.exhausted": 1,
            "mariner.inspiration.melody.exhausted": 1,
            "mariner.story.exhausted": 1,
            "mariner.lackheart.exhausted": 1,
            "mariner.halfheart.exhausted": 1
          }
        }
      ]
    },
    {
      "id": "mariner.challenge.break_in.forge.high",
      "label": "Fire and Acid",
      "startdescription": "Mix the reagents into a glorious mixture and apply it certain fingers. We will almost certainly succeed.",
      "requirements": {
        "forge": 10
      },
      "linked": [
        {
          "chance": 90,
          "useCallback": "SUCCEED_CHALLENGE"
        },
        {
          "useCallback": "FAIL_CHALLENGE"
        }
      ]
    },
    {
      "id": "mariner.challenge.break_in.forge.med",
      "label": "Nitrate and Chloride",
      "startdescription": "Mix the reagents into a volatile mixture and apply it with anticipating fingers. We will likely succeed.",
      "requirements": {
        "forge": 5
      },
      "linked": [
        {
          "chance": 70,
          "useCallback": "SUCCEED_CHALLENGE"
        },
        {
          "useCallback": "FAIL_CHALLENGE"
        }
      ]
    },
    {
      "id": "mariner.challenge.break_in.forge.low",
      "label": "Sulphur and Salt",
      "startdescription": "Mix the reagents into an unstable mixture and apply it with trembling fingers. We may yet succeed.",
      "requirements": {
        "forge": 2
      },
      "linked": [
        {
          "chance": 30,
          "useCallback": "SUCCEED_CHALLENGE"
        },
        {
          "useCallback": "FAIL_CHALLENGE"
        }
      ]
    },
    {
      "id": "mariner.challenge.break_in.knock.high",
      "label": "Through the Cracks",
      "startdescription": "Like princes, we will demand passage through locks and barriers. We will almost certainly succeed.",
      "requirements": {
        "knock": 10
      },
      "linked": [
        {
          "chance": 90,
          "useCallback": "SUCCEED_CHALLENGE"
        },
        {
          "useCallback": "FAIL_CHALLENGE"
        }
      ]
    },
    {
      "id": "mariner.challenge.break_in.knock.med",
      "label": "Through the Keyhole",
      "startdescription": "Like snakes, we will find paths through locks and barriers. We will likely succeed.",
      "requirements": {
        "knock": 5
      },
      "linked": [
        {
          "chance": 70,
          "useCallback": "SUCCEED_CHALLENGE"
        },
        {
          "useCallback": "FAIL_CHALLENGE"
        }
      ]
    },
    {
      "id": "mariner.challenge.break_in.knock.low",
      "label": "Through the Treshhold",
      "startdescription": "Like thieves, we will coax movement through locks and barriers. We may yet succeed.",
      "requirements": {
        "knock": 2
      },
      "linked": [
        {
          "chance": 30,
          "useCallback": "SUCCEED_CHALLENGE"
        },
        {
          "useCallback": "FAIL_CHALLENGE"
        }
      ]
    }
  ]
}