{
  "recipes": [
    {
      "id": "mariner.challenge.operate",
      "warmup": 15,
      "label": "Perform an Operation",
      "startdescription": "Be it delicate machinery, intricate lock or the fineries of flesh and sinew, this is a task that requires Precision of Knock or the Ingenuity of Forge.",
      "description": "Be it delicate machinery, intricate lock or the fineries of flesh and sinew, this is a task that requires Precision of Knock or the Ingenuity of Forge.",
      "alt": [
        {
          "id": "mariner.challenge.operate.forge.high"
        },
        {
          "id": "mariner.challenge.operate.knock.high"
        },
        {
          "id": "mariner.challenge.operate.forge.med"
        },
        {
          "id": "mariner.challenge.operate.knock.med"
        },
        {
          "id": "mariner.challenge.operate.forge.low"
        },
        {
          "id": "mariner.challenge.operate.knock.low"
        }
      ],
      "linked": [
        {
          "useCallback": "FAIL_CHALLENGE"
        }
      ],
      "slots": [
        {
          "actionId": "explore",
          "id": "explore1",
          "label": "Help",
          "description": "Which implements are available for my approach.",
          "required": {
            "funds": 1,
            "mariner.crew": 1,
            "tool": 1,
            "mariner.tune": 1,
            "mariner.inspiration.nature": 1,
            "mariner.lackheart": 1,
            "mariner.halfheart": 1,
            "mariner.vaults.help": 1
          },
          "forbidden": {
            "mariner.crew.traits.craven": 1,
            "mariner.crew.exhausted": 1,
            "mariner.tool.broken": 1,
            "mariner.lackheart.exhausted": 1,
            "mariner.halfheart.exhausted": 1
          }
        },
        {
          "actionId": "talk",
          "id": "talk1",
          "label": "Help",
          "description": "Which implements are available for my approach.",
          "required": {
            "funds": 1,
            "mariner.crew": 1,
            "mariner.song": 1,
            "mariner.tune": 1,
            "mariner.story": 1,
            "mariner.lackheart": 1,
            "mariner.halfheart": 1,
            "mariner.inspiration.melody": 1,
            "mariner.vaults.help": 1
          },
          "forbidden": {
            "mariner.crew.traits.mute": 1,
            "mariner.crew.exhausted": 1,
            "mariner.inspiration.melody.exhausted": 1,
            "mariner.story.exhausted": 1,
            "mariner.lackheart.exhausted": 1,
            "mariner.halfheart.exhausted": 1
          }
        },
        {
          "actionId": "mariner.navigate",
          "id": "mariner.navigate1",
          "label": "Help",
          "description": "Which implements are available for my approach.",
          "required": {
            "funds": 1,
            "mariner.crew": 1,
            "mariner.song": 1,
            "mariner.story": 1,
            "mariner.inspiration.melody": 1,
            "mariner.tune": 1,
            "mariner.lackheart": 1,
            "mariner.halfheart": 1,
            "mariner.vaults.help": 1
          },
          "forbidden": {
            "mariner.crew.traits.singleminded": 1,
            "mariner.crew.exhausted": 1,
            "mariner.tool.broken": 1,
            "mariner.story.exhausted": 1,
            "mariner.inspiration.melody.exhausted": 1,
            "mariner.lackheart.exhausted": 1,
            "mariner.halfheart.exhausted": 1
          }
        },
        {
          "actionId": "mariner.sail",
          "id": "mariner.sail1",
          "label": "Help",
          "description": "Which implements are available for my approach.",
          "required": {
            "funds": 1,
            "mariner.crew": 1,
            "mariner.tune": 1,
            "tool": 1,
            "mariner.inspiration.nature": 1,
            "mariner.lackheart": 1,
            "mariner.halfheart": 1,
            "mariner.vaults.help": 1
          },
          "forbidden": {
            "mariner.crew.traits.landlubber": 1,
            "mariner.crew.exhausted": 1,
            "mariner.tool.broken": 1,
            "mariner.lackheart.exhausted": 1,
            "mariner.halfheart.exhausted": 1
          }
        },
        {
          "actionId": "mariner.sing",
          "id": "mariner.sing1",
          "label": "Help",
          "description": "Which implements are available for my approach.",
          "required": {
            "funds": 1,
            "mariner.crew": 1,
            "mariner.song": 1,
            "mariner.instrument": 1,
            "mariner.inspiration.melody": 1,
            "mariner.tune": 1,
            "mariner.story": 1,
            "mariner.lackheart": 1,
            "mariner.halfheart": 1,
            "mariner.vaults.help": 1
          },
          "forbidden": {
            "mariner.crew.traits.rhythmless": 1,
            "mariner.crew.exhausted": 1,
            "mariner.inspiration.melody.exhausted": 1,
            "mariner.story.exhausted": 1,
            "mariner.lackheart.exhausted": 1,
            "mariner.halfheart.exhausted": 1
          }
        }
      ]
    },
    {
      "id": "mariner.challenge.operate.forge.high",
      "label": "Gifted Fingers",
      "startdescription": "For a true artisan, the hands are all the tools you need. I will adjust reality to my precise designs. We will almost certainly succeed.",
      "requirements": {
        "forge": 10
      },
      "linked": [
        {
          "chance": 90,
          "useCallback": "SUCCEED_CHALLENGE"
        },
        {
          "useCallback": "FAIL_CHALLENGE"
        }
      ]
    },
    {
      "id": "mariner.challenge.operate.forge.med",
      "label": "Apt Fingers",
      "startdescription": "For a skilled craftsman, the tools are an extension of the self. I wield them with the certiainty of a knight their sword and armor. We will likely succeed.",
      "requirements": {
        "forge": 5
      },
      "linked": [
        {
          "chance": 70,
          "useCallback": "SUCCEED_CHALLENGE"
        },
        {
          "useCallback": "FAIL_CHALLENGE"
        }
      ]
    },
    {
      "id": "mariner.challenge.operate.forge.low",
      "label": "Clever Fingers",
      "startdescription": "For an applied entusiast, the imagination offers endless approaches. With luck, their skills may be up to task as well.  We may yet succeed.",
      "requirements": {
        "forge": 2
      },
      "linked": [
        {
          "chance": 30,
          "useCallback": "SUCCEED_CHALLENGE"
        },
        {
          "useCallback": "FAIL_CHALLENGE"
        }
      ]
    },
    {
      "id": "mariner.challenge.operate.knock.high",
      "label": "Instinct and Clarity",
      "startdescription": "The world operates by higher laws, that can be adjusted with a deft hand and heirophants' compassion. We will almost certainly succeed.",
      "requirements": {
        "knock": 10
      },
      "linked": [
        {
          "chance": 90,
          "useCallback": "SUCCEED_CHALLENGE"
        },
        {
          "useCallback": "FAIL_CHALLENGE"
        }
      ]
    },
    {
      "id": "mariner.challenge.operate.knock.med",
      "label": "Intuition and Precision",
      "startdescription": "The world operates by a clockwrights' logic, that can be callibrated with a steady hand and a surgeons' nerves. The world operates by a We will likely succeed.",
      "requirements": {
        "knock": 5
      },
      "linked": [
        {
          "chance": 70,
          "useCallback": "SUCCEED_CHALLENGE"
        },
        {
          "useCallback": "FAIL_CHALLENGE"
        }
      ]
    },
    {
      "id": "mariner.challenge.operate.knock.low",
      "label": "Insight and Care",
      "startdescription": "The world operates by reliable systems, that can be modified by calm hand and a burglers' demeanor.  We may yet succeed.",
      "requirements": {
        "knock": 2
      },
      "linked": [
        {
          "chance": 30,
          "useCallback": "SUCCEED_CHALLENGE"
        },
        {
          "useCallback": "FAIL_CHALLENGE"
        }
      ]
    }
  ]
}