{
  "recipes": [
    {
      "id": "mariner.challenge.endure",
      "warmup": 15,
      "label": "Withstand a Challenge",
      "startdescription": "This challenge is going to take its toll. A lesser person may fall, but I have withstood worse. I could approach this with the vim of Heart or the seniority of Edge.",
      "description": "This challenge is going to take its toll. A lesser person may fall, but I have withstood worse. I could approach this with the vim of Heart or the seniority of Edge.",
      "alt": [
        {
          "id": "mariner.challenge.endure.edge.high"
        },
        {
          "id": "mariner.challenge.endure.heart.high"
        },
        {
          "id": "mariner.challenge.endure.edge.med"
        },
        {
          "id": "mariner.challenge.endure.heart.med"
        },
        {
          "id": "mariner.challenge.endure.edge.low"
        },
        {
          "id": "mariner.challenge.endure.heart.low"
        }
      ],
      "linked": [
        {
          "useCallback": "FAIL_CHALLENGE"
        }
      ],
      "slots": [
        {
          "actionId": "explore",
          "id": "explore1",
          "label": "Help",
          "description": "Which implements are available for my approach.",
          "required": {
            "funds": 1,
            "mariner.crew": 1,
            "tool": 1,
            "mariner.tune": 1,
            "mariner.inspiration.nature": 1,
            "mariner.lackheart": 1,
            "mariner.halfheart": 1,
            "mariner.vaults.help": 1
          },
          "forbidden": {
            "mariner.crew.traits.craven": 1,
            "mariner.crew.exhausted": 1,
            "mariner.tool.broken": 1,
            "mariner.lackheart.exhausted": 1,
            "mariner.halfheart.exhausted": 1
          }
        },
        {
          "actionId": "talk",
          "id": "talk1",
          "label": "Help",
          "description": "Which implements are available for my approach.",
          "required": {
            "funds": 1,
            "mariner.crew": 1,
            "mariner.song": 1,
            "mariner.tune": 1,
            "mariner.story": 1,
            "mariner.lackheart": 1,
            "mariner.halfheart": 1,
            "mariner.inspiration.melody": 1,
            "mariner.vaults.help": 1
          },
          "forbidden": {
            "mariner.crew.traits.mute": 1,
            "mariner.crew.exhausted": 1,
            "mariner.inspiration.melody.exhausted": 1,
            "mariner.story.exhausted": 1,
            "mariner.lackheart.exhausted": 1,
            "mariner.halfheart.exhausted": 1
          }
        },
        {
          "actionId": "mariner.navigate",
          "id": "mariner.navigate1",
          "label": "Help",
          "description": "Which implements are available for my approach.",
          "required": {
            "funds": 1,
            "mariner.crew": 1,
            "mariner.song": 1,
            "mariner.story": 1,
            "mariner.inspiration.melody": 1,
            "mariner.tune": 1,
            "mariner.lackheart": 1,
            "mariner.halfheart": 1,
            "mariner.vaults.help": 1
          },
          "forbidden": {
            "mariner.crew.traits.singleminded": 1,
            "mariner.crew.exhausted": 1,
            "mariner.tool.broken": 1,
            "mariner.story.exhausted": 1,
            "mariner.inspiration.melody.exhausted": 1,
            "mariner.lackheart.exhausted": 1,
            "mariner.halfheart.exhausted": 1
          }
        },
        {
          "actionId": "mariner.sail",
          "id": "mariner.sail1",
          "label": "Help",
          "description": "Which implements are available for my approach.",
          "required": {
            "funds": 1,
            "mariner.crew": 1,
            "mariner.tune": 1,
            "tool": 1,
            "mariner.inspiration.nature": 1,
            "mariner.lackheart": 1,
            "mariner.halfheart": 1,
            "mariner.vaults.help": 1
          },
          "forbidden": {
            "mariner.crew.traits.landlubber": 1,
            "mariner.crew.exhausted": 1,
            "mariner.tool.broken": 1,
            "mariner.lackheart.exhausted": 1,
            "mariner.halfheart.exhausted": 1
          }
        },
        {
          "actionId": "mariner.sing",
          "id": "mariner.sing1",
          "label": "Help",
          "description": "Which implements are available for my approach.",
          "required": {
            "funds": 1,
            "mariner.crew": 1,
            "mariner.song": 1,
            "mariner.instrument": 1,
            "mariner.inspiration.melody": 1,
            "mariner.tune": 1,
            "mariner.story": 1,
            "mariner.lackheart": 1,
            "mariner.halfheart": 1,
            "mariner.vaults.help": 1
          },
          "forbidden": {
            "mariner.crew.traits.rhythmless": 1,
            "mariner.crew.exhausted": 1,
            "mariner.inspiration.melody.exhausted": 1,
            "mariner.story.exhausted": 1,
            "mariner.lackheart.exhausted": 1,
            "mariner.halfheart.exhausted": 1
          }
        }
      ]
    },
    {
      "id": "mariner.challenge.endure.edge.high",
      "label": "Indomitable scars",
      "startdescription": "I have conquered worse before. The Colonel's lessons are carved upon my skin. We will almost certainly succeed.",
      "requirements": {
        "edge": 10
      },
      "linked": [
        {
          "chance": 90,
          "useCallback": "SUCCEED_CHALLENGE"
        },
        {
          "useCallback": "FAIL_CHALLENGE"
        }
      ]
    },
    {
      "id": "mariner.challenge.endure.edge.med",
      "label": "Resilient Scars",
      "startdescription": "I have survived worse before, and in my bones and in my soul I carry scars that cannot be deepened. We will likely succeed.",
      "requirements": {
        "edge": 5
      },
      "linked": [
        {
          "chance": 70,
          "useCallback": "SUCCEED_CHALLENGE"
        },
        {
          "useCallback": "FAIL_CHALLENGE"
        }
      ]
    },
    {
      "id": "mariner.challenge.endure.edge.low",
      "label": "Straining Scars",
      "startdescription": "I have weathered worse before. I'll remember the tricks I learned from those encounters. We may yet succed.",
      "requirements": {
        "edge": 2
      },
      "linked": [
        {
          "chance": 30,
          "useCallback": "SUCCEED_CHALLENGE"
        },
        {
          "useCallback": "FAIL_CHALLENGE"
        }
      ]
    },
    {
      "id": "mariner.challenge.endure.heart.high",
      "label": "Unbroken",
      "startdescription": "Like the grand Ring-Yew, who encircles and renews, I will weather this storm. We will almost certainly succeed.",
      "requirements": {
        "heart": 10
      },
      "linked": [
        {
          "chance": 90,
          "useCallback": "SUCCEED_CHALLENGE"
        },
        {
          "useCallback": "FAIL_CHALLENGE"
        }
      ]
    },
    {
      "id": "mariner.challenge.endure.heart.med",
      "label": "Unbent",
      "startdescription": "Like the shifting reeds, who bend but do not break, I'll weather this storm. We will likely succeed.",
      "requirements": {
        "heart": 5
      },
      "linked": [
        {
          "chance": 70,
          "useCallback": "SUCCEED_CHALLENGE"
        },
        {
          "useCallback": "FAIL_CHALLENGE"
        }
      ]
    },
    {
      "id": "mariner.challenge.endure.heart.low",
      "label": "Unbowed",
      "startdescription": "Like the battered pines, who bleed resin, I will weather this storm. We may yet succeed.",
      "requirements": {
        "heart": 2
      },
      "linked": [
        {
          "chance": 30,
          "useCallback": "SUCCEED_CHALLENGE"
        },
        {
          "useCallback": "FAIL_CHALLENGE"
        }
      ]
    }
  ]
}