{
    "recipes": [
        {
            "id": "mariner.starvation.start",
            "actionId": "mariner.starvation",
            "grandReqs": {
                "mariner.sailing.timesincelastmeal": 13,
                "[~/exterior : { [mariner.crew.traits.nonliving] = 0 } : mariner.crew ]": 1
            },
            "effects": {
                "mariner.sailing.timesincelastmeal": -14
            },
            "linked": [
                {
                    "id": "mariner.starvation"
                }
            ]
        },
        {
            "id": "mariner.starvation",
            "label": "<The Crew is Hungry>",
            "startdescription": "<The Crew is Hungry>",
            "warmup": 20,
            "slots": [
                {
                    "id": "food",
                    "label": "<Something to Eat>",
                    "description": "<>",
                    "required": {
                        "mariner.rations": 1,
                        "mariner.crew": 1
                    }
                }
            ],
            "alt": [
                "mariner.starvation.fedhuman",
                "mariner.starvation.fed"
            ],
            "linked": [
                {
                    "id": "mariner.starvation.nofood"
                }
            ]
        },
        {
            "id": "mariner.starvation.fed",
            "label": "<Giving the Crew Food>",
            "startdescription": "<Giving ration?>",
            "description": "<Fed>",
            "requirements": {
                "mariner.rations": 1
            },
            "effects": {
                "mariner.rations": -1
            },
            "linked": [
                {
                    "id": "mariner.sailing.openseamainloop"
                },
                {
                    "id": "mariner.sailing.mainloop"
                }
            ]
        },
        {
            "id": "mariner.starvation.fedhuman",
            "label": "<Surrendering someone to the crew>",
            "startdescription": "<Should I select someone to be sacrified, for the good of others?>",
            "description": "<Fed>",
            "requirements": {
                "mariner.crew": 1
            },
            "furthermore": [
                {
                    "effects": {
                        "mariner.crew": -1
                    }
                },
                {
                    "target": "~/extant",
                    "aspects": {
                        "mariner.signal.witnessedcannibalism": 1
                    }
                }
            ],
            "linked": [
                {
                    "id": "mariner.sailing.openseamainloop"
                },
                {
                    "id": "mariner.sailing.mainloop"
                }
            ]
        },
        {
            "id": "mariner.starvation.nofood",
            "label": "<Hunger Sets In>",
            "startdescription": "<>",
            "requirements": {
                "mariner.rations": -1,
                "mariner.crew": -1
            },
            "furthermore": [
                {
                    "target": "~/exterior",
                    "mutations": [
                        {
                            "filter": "[mariner.crew] and not [mariner.crew.traits.nonliving]",
                            "mutate": "mariner.crew.exhausted",
                            "level": 1,
                            "additive": true
                        },
                        {
                            "filter": "[mariner.crew] and not [mariner.crew.traits.nonliving]",
                            "mutate": "mariner.crew.longing",
                            "level": 3,
                            "additive": true
                        }
                    ]
                }
            ],
            "linked": [
                {
                    "id": "mariner.sailing.openseamainloop"
                },
                {
                    "id": "mariner.sailing.mainloop"
                }
            ]
        }
    ]
}