{
  "recipes": [
    {
      "id": "mariner.sailing.seaevents.start.friendlyrace",
      "warmup": 20,
      "label": "A Friendly Race",
      "startdescription": "Another vessel sails the same course as us. As is natural for us seamen, we decide on a friendly competition, to test our skills. [Approach this challenge with Heart or Edge.]",
      "slots": [
        {
          "actionId": "mariner.sail",
          "id": "mariner.sail1",
          "label": "Help",
          "description": "Which implements are available for my approach.",
          "required": {
            "funds": 1,
            "mariner.crew": 1,
            "mariner.tune": 1,
            "tool": 1,
            "mariner.inspiration.nature": 1,
            "mariner.lackheart": 1,
            "mariner.halfheart": 1
          },
          "forbidden": {
            "mariner.crew.traits.landlubber": 1,
            "mariner.crew.exhausted": 1,
            "mariner.tool.broken": 1,
            "mariner.lackheart.exhausted": 1,
            "mariner.halfheart.exhausted": 1,
            "mariner.vaults.help": 1
          }
        },
        {
          "actionId": "mariner.sail",
          "id": "mariner.sail2",
          "label": "Help",
          "description": "Which implements are available for my approach.",
          "required": {
            "funds": 1,
            "mariner.crew": 1,
            "mariner.tune": 1,
            "tool": 1,
            "mariner.inspiration.nature": 1,
            "mariner.lackheart": 1,
            "mariner.halfheart": 1
          },
          "forbidden": {
            "mariner.crew.traits.landlubber": 1,
            "mariner.crew.exhausted": 1,
            "mariner.tool.broken": 1,
            "mariner.lackheart.exhausted": 1,
            "mariner.halfheart.exhausted": 1,
            "mariner.vaults.help": 1
          }
        },
        {
          "actionId": "mariner.sail",
          "id": "mariner.sail3",
          "label": "Help",
          "description": "Which implements are available for my approach.",
          "required": {
            "funds": 1,
            "mariner.crew": 1,
            "mariner.tune": 1,
            "tool": 1,
            "mariner.inspiration.nature": 1,
            "mariner.lackheart": 1,
            "mariner.halfheart": 1
          },
          "forbidden": {
            "mariner.crew.traits.landlubber": 1,
            "mariner.crew.exhausted": 1,
            "mariner.tool.broken": 1,
            "mariner.lackheart.exhausted": 1,
            "mariner.halfheart.exhausted": 1,
            "mariner.vaults.help": 1
          }
        }
      ],
      "linked": [
        {
          "id": "mariner.sailing.seaevents.friendlyrace.outcome.windsuccess"
        },
        {
          "id": "mariner.sailing.seaevents.friendlyrace.outcome.success",
          "chance": "([edge]/7)*100"
        },
        {
          "id": "mariner.sailing.seaevents.friendlyrace.outcome.success",
          "chance": "([heart]/7)*100"
        },
        {
          "id": "mariner.sailing.seaevents.friendlyrace.outcome.success",
          "chance": 10
        },
        {
          "id": "mariner.sailing.seaevents.friendlyrace.outcome.terriblefailure",
          "chance": 10
        },
        {
          "id": "mariner.sailing.seaevents.friendlyrace.outcome.failure"
        }
      ]
    },
    {
      "id": "mariner.sailing.seaevents.friendlyrace.outcome.windsuccess",
      "warmup": 20,
      "tablereqs": {
        "mariner.weathermeta.windy": 1
      },
      "label": "Victory and Reward",
      "startdescription": "The competition pushes our efforts, and the wind rewards us. We sail the distance in half the time expected.",
      "effects": {
        "mariner.sailing.distancetravelled": 30,
        "mariner.thrill": 1
      },
      "linked": [
        {
          "id": "mariner.sailing.postevent"
        }
      ]
    },
    {
      "id": "mariner.sailing.seaevents.friendlyrace.outcome.success",
      "warmup": 20,
      "label": "Victory!",
      "startdescription": "We surpass our rivals, and leave them in our wake. They leave us with visceral emotions however, known to hunters, sailors and adventurers alike.",
      "effects": {
        "mariner.thrill": 1
      },
      "linked": [
        {
          "id": "mariner.sailing.postevent"
        }
      ]
    },
    {
      "id": "mariner.sailing.seaevents.friendlyrace.outcome.terriblefailure",
      "warmup": 20,
      "label": "A Crash!",
      "startdescription": "All efforts focussed on the race, both parties do not wish to give eachother the space to make their turn. Our ships graze eachother before pulling apart. While the crew flings insults, the captains simply share a look of pained embarrassment.",
      "mutations": [
        {
          "filter": "mariner.ship",
          "mutate": "mariner.ship.damage",
          "level": 1,
          "additive": true
        }
      ],
      "linked": [
        {
          "id": "mariner.sailing.postevent"
        }
      ]
    },
    {
      "id": "mariner.sailing.seaevents.friendlyrace.outcome.failure",
      "warmup": 20,
      "label": "Second Place",
      "startdescription": "We give it our all, but our competors edge out the distance. As we trail behind, they wave their good byes from the bow, and we give them a joyous salute.",
      "linked": [
        {
          "id": "mariner.sailing.postevent"
        }
      ]
    }
  ]
}