{
  "elements": [
    {
      "id": "mariner.instrument.plain.lantern",
      "label": "Theremin",
      "description": "Its tunes live on the ether alone; Are these the tones that angels sing?",
      "aspects": {
        "mariner.instrument": 1,
        "mariner.trapping": 1,
        "mariner.trapping.worth": 2,
        "mariner.trappings.lantern": 1,
        "lantern": 1,
        "mariner.trappingtypes.crafts": 1
      }
    },
    {
      "id": "mariner.instrument.plain.forge",
      "label": "Organ",
      "description": "More an apparatus than a tool. Brass pipes and polished copper, it contorts the air into sound.",
      "aspects": {
        "mariner.instrument": 1,
        "mariner.trapping": 1,
        "mariner.trapping.worth": 2,
        "mariner.trappings.forge": 1,
        "forge": 1,
        "mariner.trappingtypes.crafts": 1
      }
    },
    {
      "id": "mariner.instrument.plain.edge",
      "label": "Brass",
      "description": "For Valor, Victory of Funeral, its song carries echoes of battle.",
      "aspects": {
        "mariner.instrument": 1,
        "mariner.trapping": 1,
        "mariner.trapping.worth": 2,
        "mariner.trappings.edge": 1,
        "edge": 1,
        "mariner.trappingtypes.crafts": 1
      }
    },
    {
      "id": "mariner.instrument.plain.winter",
      "label": "Bell",
      "description": "Its call marks the silence.",
      "aspects": {
        "mariner.instrument": 1,
        "mariner.trapping": 1,
        "mariner.trapping.worth": 2,
        "mariner.trappings.winter": 1,
        "winter": 1,
        "mariner.trappingtypes.crafts": 1
      }
    },
    {
      "id": "mariner.instrument.plain.heart",
      "label": "Drum",
      "description": "The oldest instrument, the most familiar rhythms.",
      "aspects": {
        "mariner.instrument": 1,
        "mariner.trapping": 1,
        "mariner.trapping.worth": 2,
        "mariner.trappings.heart": 1,
        "heart": 1,
        "mariner.trappingtypes.crafts": 1
      }
    },
    {
      "id": "mariner.instrument.plain.grail",
      "label": "Guitar",
      "description": "Cradled on your lap, this instrument can be your perfect accompaniment",
      "aspects": {
        "mariner.instrument": 1,
        "mariner.trapping": 1,
        "mariner.trapping.worth": 2,
        "mariner.trappings.grail": 1,
        "grail": 1,
        "mariner.trappingtypes.crafts": 1
      }
    },
    {
      "id": "mariner.instrument.plain.moth",
      "label": "Violin",
      "description": "An instrument made for lilting tunes, to describe changing moods or changing seasons.",
      "aspects": {
        "mariner.instrument": 1,
        "mariner.trapping": 1,
        "mariner.trapping.worth": 2,
        "mariner.trappings.moth": 1,
        "moth": 1,
        "mariner.trappingtypes.crafts": 1
      }
    },
    {
      "id": "mariner.instrument.plain.knock",
      "label": "Sitar",
      "description": "Through these strings, give your audience a taste of your experiences, an understanding of your view.",
      "aspects": {
        "mariner.instrument": 1,
        "mariner.trapping": 1,
        "mariner.trapping.worth": 2,
        "mariner.trappings.knock": 1,
        "knock": 1,
        "mariner.trappingtypes.crafts": 1
      }
    }
  ]
}