{
  "elements": [
    {
      "isAspect": true,
      "id": "mariner.displaylocalwharf.northsea.london",
      "noArtNeeded": false,
      "isHidden": false,
      "label": "[HIDDEN] mariner.displaylocalwharf.northsea.london"
    },
    {
      "isAspect": true,
      "id": "mariner.displaylocalwharf.northsea.amsterdam",
      "noArtNeeded": false,
      "isHidden": false,
      "label": "[HIDDEN] mariner.displaylocalwharf.northsea.amsterdam"
    },
    {
      "isAspect": true,
      "id": "mariner.displaylocalwharf.northsea.copenhagen",
      "noArtNeeded": false,
      "isHidden": false,
      "label": "[HIDDEN] mariner.displaylocalwharf.northsea.copenhagen"
    }
  ]
}