{
  "recipes": [
    {
      "id": "mariner.docking.northsea.london.displaybar",
      "grandReqs": {
        "~/exterior : mariner.nobaratsea": 1,
        "~/exterior : mariner.discoveredbars.northsea.london": 1
      },
      "furthermore": [
        {
          "target": "~/exterior",
          "aspects": {
            "mariner.displaylocalbar.northsea.london": 1
          }
        }
      ],
      "linked": [
        {
          "id": "mariner.dockto.northsea.london"
        }
      ]
    },
    {
      "id": "mariner.docking.northsea.amsterdam.displaybar",
      "grandReqs": {
        "~/exterior : mariner.nobaratsea": 1,
        "~/exterior : mariner.discoveredbars.northsea.amsterdam": 1
      },
      "furthermore": [
        {
          "target": "~/exterior",
          "aspects": {
            "mariner.displaylocalbar.northsea.amsterdam": 1
          }
        }
      ],
      "linked": [
        {
          "id": "mariner.dockto.northsea.amsterdam"
        }
      ]
    },
    {
      "id": "mariner.docking.northsea.copenhagen.displaybar",
      "grandReqs": {
        "~/exterior : mariner.nobaratsea": 1,
        "~/exterior : mariner.discoveredbars.northsea.copenhagen": 1
      },
      "furthermore": [
        {
          "target": "~/exterior",
          "aspects": {
            "mariner.displaylocalbar.northsea.copenhagen": 1
          }
        }
      ],
      "linked": [
        {
          "id": "mariner.dockto.northsea.copenhagen"
        }
      ]
    }
  ]
}