{
  "recipes": [
    {
      "id": "mariner.docking.northsea.london.displaywharf",
      "grandReqs": {
        "~/exterior : mariner.nowharfatsea": 1,
        "~/exterior : mariner.discoveredwharves.northsea.london": 1
      },
      "furthermore": [
        {
          "target": "~/exterior",
          "aspects": {
            "mariner.displaylocalwharf.northsea.london": 1
          }
        }
      ],
      "linked": [
        {
          "id": "mariner.dockto.northsea.london"
        }
      ]
    },
    {
      "id": "mariner.docking.northsea.amsterdam.displaywharf",
      "grandReqs": {
        "~/exterior : mariner.nowharfatsea": 1,
        "~/exterior : mariner.discoveredwharves.northsea.amsterdam": 1
      },
      "furthermore": [
        {
          "target": "~/exterior",
          "aspects": {
            "mariner.displaylocalwharf.northsea.amsterdam": 1
          }
        }
      ],
      "linked": [
        {
          "id": "mariner.dockto.northsea.amsterdam"
        }
      ]
    },
    {
      "id": "mariner.docking.northsea.copenhagen.displaywharf",
      "grandReqs": {
        "~/exterior : mariner.nowharfatsea": 1,
        "~/exterior : mariner.discoveredwharves.northsea.copenhagen": 1
      },
      "furthermore": [
        {
          "target": "~/exterior",
          "aspects": {
            "mariner.displaylocalwharf.northsea.copenhagen": 1
          }
        }
      ],
      "linked": [
        {
          "id": "mariner.dockto.northsea.copenhagen"
        }
      ]
    }
  ]
}