{
  "recipes": [
    {
      "id": "mariner.discoverwharf.northsea.london",
      "label": "Discovered the Local Wharf",
      "description": "I have found the street that smells like oil and wood chips.",
      "requirements": {
        "mariner.locations.northsea.london.wharf": 1
      },
      "effects": {
        "mariner.locations.northsea.london.wharf": -1
      },
      "furthermore": [
        {
          "target": "~/exterior",
          "mutations": {
            "mariner.nowharfhere": {
              "mariner.discoveredwharves.northsea.london": 1
            }
          }
        },
        {
          "target": "~/exterior",
          "decays": [
            "mariner.nowharfhere"
          ]
        },
        {
          "target": "~/exterior",
          "aspects": {
            "mariner.displaylocalwharf.northsea.london": 1
          }
        }
      ],
      "linked": [
        {
          "id": "mariner.addgroundedness"
        }
      ]
    },
    {
      "id": "mariner.discoverwharf.northsea.amsterdam",
      "label": "Discovered the Local Wharf",
      "description": "I have found the street that smells like oil and wood chips.",
      "requirements": {
        "mariner.locations.northsea.amsterdam.wharf": 1
      },
      "effects": {
        "mariner.locations.northsea.amsterdam.wharf": -1
      },
      "furthermore": [
        {
          "target": "~/exterior",
          "mutations": {
            "mariner.nowharfhere": {
              "mariner.discoveredwharves.northsea.amsterdam": 1
            }
          }
        },
        {
          "target": "~/exterior",
          "decays": [
            "mariner.nowharfhere"
          ]
        },
        {
          "target": "~/exterior",
          "aspects": {
            "mariner.displaylocalwharf.northsea.amsterdam": 1
          }
        }
      ],
      "linked": [
        {
          "id": "mariner.addgroundedness"
        }
      ]
    },
    {
      "id": "mariner.discoverwharf.northsea.copenhagen",
      "label": "Discovered the Local Wharf",
      "description": "I have found the street that smells like oil and wood chips.",
      "requirements": {
        "mariner.locations.northsea.copenhagen.wharf": 1
      },
      "effects": {
        "mariner.locations.northsea.copenhagen.wharf": -1
      },
      "furthermore": [
        {
          "target": "~/exterior",
          "mutations": {
            "mariner.nowharfhere": {
              "mariner.discoveredwharves.northsea.copenhagen": 1
            }
          }
        },
        {
          "target": "~/exterior",
          "decays": [
            "mariner.nowharfhere"
          ]
        },
        {
          "target": "~/exterior",
          "aspects": {
            "mariner.displaylocalwharf.northsea.copenhagen": 1
          }
        }
      ],
      "linked": [
        {
          "id": "mariner.addgroundedness"
        }
      ]
    }
  ]
}