{
  "recipes": [
    {
      "id": "mariner.discoverbar.northsea.london",
      "label": "Discovered The Sailor's Bar.",
      "description": "I have found the bars where sailors meet when the longing for travel pulls at them oncemore.",
      "requirements": {
        "mariner.locations.northsea.london.bar": 1
      },
      "effects": {
        "mariner.locations.northsea.london.bar": -1
      },
      "furthermore": [
        {
          "target": "~/exterior",
          "mutations": {
            "mariner.nobarhere": {
              "mariner.discoveredbars.northsea.london": 1
            }
          }
        },
        {
          "target": "~/exterior",
          "decays": [
            "mariner.nobarhere"
          ]
        },
        {
          "target": "~/exterior",
          "aspects": {
            "mariner.displaylocalbar.northsea.london": 1
          }
        }
      ],
      "linked": [
        {
          "id": "mariner.addgroundedness"
        }
      ]
    },
    {
      "id": "mariner.discoverbar.northsea.amsterdam",
      "label": "Discovered The Sailor's Bar.",
      "description": "I have found the bars where sailors meet when the longing for travel pulls at them oncemore.",
      "requirements": {
        "mariner.locations.northsea.amsterdam.bar": 1
      },
      "effects": {
        "mariner.locations.northsea.amsterdam.bar": -1
      },
      "furthermore": [
        {
          "target": "~/exterior",
          "mutations": {
            "mariner.nobarhere": {
              "mariner.discoveredbars.northsea.amsterdam": 1
            }
          }
        },
        {
          "target": "~/exterior",
          "decays": [
            "mariner.nobarhere"
          ]
        },
        {
          "target": "~/exterior",
          "aspects": {
            "mariner.displaylocalbar.northsea.amsterdam": 1
          }
        }
      ],
      "linked": [
        {
          "id": "mariner.addgroundedness"
        }
      ]
    },
    {
      "id": "mariner.discoverbar.northsea.copenhagen",
      "label": "Discovered The Sailor's Bar.",
      "description": "I have found the bars where sailors meet when the longing for travel pulls at them oncemore.",
      "requirements": {
        "mariner.locations.northsea.copenhagen.bar": 1
      },
      "effects": {
        "mariner.locations.northsea.copenhagen.bar": -1
      },
      "furthermore": [
        {
          "target": "~/exterior",
          "mutations": {
            "mariner.nobarhere": {
              "mariner.discoveredbars.northsea.copenhagen": 1
            }
          }
        },
        {
          "target": "~/exterior",
          "decays": [
            "mariner.nobarhere"
          ]
        },
        {
          "target": "~/exterior",
          "aspects": {
            "mariner.displaylocalbar.northsea.copenhagen": 1
          }
        }
      ],
      "linked": [
        {
          "id": "mariner.addgroundedness"
        }
      ]
    }
  ]
}