{
  "elements": [
    {
      "isAspect": true,
      "id": "mariner.enum.principles.lantern"
    },
    {
      "isAspect": true,
      "id": "mariner.enum.principles.forge"
    },
    {
      "isAspect": true,
      "id": "mariner.enum.principles.edge"
    },
    {
      "isAspect": true,
      "id": "mariner.enum.principles.winter"
    },
    {
      "isAspect": true,
      "id": "mariner.enum.principles.heart"
    },
    {
      "isAspect": true,
      "id": "mariner.enum.principles.grail"
    },
    {
      "isAspect": true,
      "id": "mariner.enum.principles.moth"
    },
    {
      "isAspect": true,
      "id": "mariner.enum.principles.knock"
    }
  ]
}