{
  "recipes": [
    {
      "id": "mariner.medsea.haifa.towersoflight.start",
      "actionId": "talk",
      "label": "A Glimpse In a Café",
      "startdescription": "As I sit in dark shadow of a sunbaithed café, a young woman approaches me.",
      "description": "",
      "maxexecutions": 1,
      "craftable": true,
      "furthermore": [
        {
          "effects": {
            "mariner.quests.towersoflight": 1
          }
        },
        {
          "target": "~/visible",
          "aspects": {
            "mariner.questsignal.towersoflight.applyupdate.start": 1
          }
        }
      ],
      "requirements": {
        "mariner.locations.medsea.haifa.zoha": 1
      },
      "unlockCodexEntries": [
        "codex.zoha"
      ],
      "warmup": 60
    }
  ]
}