{
  "recipes": [
    {
      "id": "mariner.wanderingevents.special.start.northsea.copenhagen.randomevent.mermaid",
      "label": "A Familiar Story, and a Familiar Name",
      "tablereqs": {
        "mariner.locations.northsea.copenhagen.harald": 1
      },
      "description": "As my ramblings took me past the statuesque Royal Danish Theater, I noticed an old weatherworn bill. It depicts a woman, arms outstretched to the sky, head cast back in agony or exstacy. It is a striking image, but with it I also notice the name of the composer... Harald Blomkwist.",
      "effects": {
        "mariner.stories.mermaid.source": 1
      },
      "maxexecutions": 1
    }
  ]
}