{
  "recipes": [
    {
      "id": "mariner.wanderingevents.start.northsea.randomevent.division",
      "label": "A Stirring Performance at the New Scandinavian",
      "grandReqs": {
        "root/mariner.cycle": "Abs([root/mariner.globaltimers.northsea.randomevent.division]) + 25"
      },
      "rootAdd": {
        "mariner.globaltimers.northsea.randomevent.division": "[root/mariner.cycle] - [root/mariner.globaltimers.northsea.randomevent.division]"
      },
      "startdescription": "I caught a performance at the New Scandinavian last night. The Production was called the Smiths' Lament, and blast furnace was the performers only acompanyment. As she sang her aria's, she took apart a standing clock, and fed it to the furnace. Even over the roar of the fire, it seemed you could sense the moment that the ticking stopped.",
      "effects": {
        "mariner.influences.forge": 1,
        "mariner.influences.lantern": 1,
        "mariner.influences.winter": 1,
        "mariner.experiences.vivid": 1
      },
      "tablereqs": {
        "mariner.locations.northsea.copenhagen.newscandinavian": 1
      }
    }
  ]
}