{
  "recipes": [
    {
      "id": "mariner.sailing.grammarievents.level1.start.ShipOfMoth",
      "warmup": 20,
      "grandReqs": {
        "[~/exterior : { [mariner.crew] } : moth] + [ ~/local: { [mariner.ship.kite] } : moth]": 10
      },
      "label": "<Crecuspular Ship>",
      "startdescription": "On wings on canvas we glide through the night...",
      "linked": [
        {
          "id": "mariner.sailing.grammarievents.level1.ShipOfMoth.outcome.end"
        }
      ]
    },
    {
      "id": "mariner.sailing.grammarievents.level1.ShipOfMoth.outcome.end",
      "warmup": 20,
      "label": "Crecuspular Ship: Fly into the night",
      "startdescription": "<On wings on canvas we glide through the night,  each contemplating the change wrought form each landing and each departure. it is not only theseus ship that was slowly changed, it's crew too sheds perceptions, truths, aspirations, lies, with each new experience displaying one before. in this night, we are renewed.>",
      "linked": [
        {
          "id": "mariner.sailing.postevent"
        }
      ]
    }
  ]
}