{
    "recipes": [
        {
            "warmup": 1,
            "id": "mariner.genericevents.unravelcrewmember",
            "actionId": "mariner.unravelcrewmember",
            "linked": [
                {
                    "id": "mariner.genericevents.unravelcrewmember.foundexpulsed"
                },
                {
                    "id": "mariner.genericevents.unravelcrewmember.grabexpulsed"
                }
            ]
        },
        {
            "id": "mariner.genericevents.unravelcrewmember.foundexpulsed",
            "requirements": {
                "mariner.crew": 1
            },
            "label": "The anticipation of the End",
            "startdescription": "<Muscles go tense, and then slack forever.>",
            "linked": [
                {
                    "id": "mariner.genericevents.unravelcrewmember.triggeraction"
                }
            ]
        },
        {
            "id": "mariner.genericevents.unravelcrewmember.grabexpulsed",
            "warmup": 15,
            "label": "The Anticipation of the End",
            "startdescription": "<Muscles go tense, and then slack forever.>",
            "requirements": {
                "mariner.crew": -1
            },
            "slots": [
                {
                    "id": "victim",
                    "label": "The Daggers of Danger",
                    "description": "I know this won't end well.",
                    "greedy": true,
                    "required": {
                        "mariner.crew": 1
                    }
                }
            ],
            "alt": [
                {
                    "id": "mariner.genericevents.unravelcrewmember.killplayer.nooneleft"
                }
            ],
            "linked": [
                {
                    "id": "mariner.genericevents.unravelcrewmember.triggeraction"
                }
            ]
        },
        {
            "id": "mariner.genericevents.unravelcrewmember.triggeraction",
            "aspects": {
                "mariner.signal.triggeunravelattackresult": 1
            }
        },
        {
            "id": "mariner.genericevents.unravelcrewmember.kill",
            "label": "<Dead>",
            "description": "<They're dead.>",
            "effects": {
                "mariner.crew": -1
            }
        }
    ]
}