{
  "elements": [
    {
      "isAspect": true,
      "id": "mariner.aspects.vaults.galicia.layer.1",
      "noArtNeeded": false,
      "isHidden": false,
      "label": "[HIDDEN] mariner.aspects.vaults.galicia.layer.1"
    },
    {
      "isAspect": true,
      "id": "mariner.aspects.vaults.galicia.activelayer.1",
      "noArtNeeded": false,
      "isHidden": false,
      "label": "[HIDDEN] mariner.aspects.vaults.galicia.activelayer.1"
    },
    {
      "isAspect": true,
      "id": "mariner.aspects.vaults.galicia.activeexclusivelayer.1",
      "noArtNeeded": false,
      "isHidden": false,
      "label": "[HIDDEN] mariner.aspects.vaults.galicia.activeexclusivelayer.1"
    },
    {
      "isAspect": true,
      "id": "mariner.flag.galantha.prepared"
    }
  ]
}