{
  "decks": [
    {
      "id": "mariner.defaulttideinports",
      "label": "Seasons",
      "spec": [
        "seasonsuspicion",
        "mariner.seasons.wanderlust",
        "mariner.seasons.heartache",
        "mariner.seasons.wounds"
      ],
      "resetonexhaustion": true,
      "shuffleAfterDraw": true
    },
    {
      "id": "mariner.decks.tide.salvagemission.layer.1",
      "spec": [
        "mariner.events.vaults.salvagemission.events.boredom",
        "seasonsuspicion"
      ],
      "resetonexhaustion": true,
      "shuffleAfterDraw": true
    },
    {
      "id": "mariner.decks.tide.salvagemission.layer.2",
      "spec": [
        "mariner.events.vaults.salvagemission.events.fairweather",
        "mariner.events.vaults.salvagemission.events.windrises",
        "mariner.events.vaults.salvagemission.events.marinemists",
        "seasonsuspicion"
      ],
      "resetonexhaustion": true,
      "shuffleAfterDraw": true
    },
    {
      "id": "mariner.decks.tide.rescuemission.layer.1",
      "spec": [
        "mariner.events.vaults.rescuemission.events.boredom",
        "seasonsuspicion"
      ],
      "resetonexhaustion": true,
      "shuffleAfterDraw": true
    },
    {
      "id": "mariner.decks.tide.rescuemission.layer.2",
      "spec": [
        "mariner.events.vaults.rescuemission.events.fairweather",
        "mariner.events.vaults.rescuemission.events.windrises",
        "mariner.events.vaults.rescuemission.events.marinemists",
        "seasonsuspicion"
      ],
      "resetonexhaustion": true,
      "shuffleAfterDraw": true
    },
    {
      "id": "mariner.decks.tide.ekstersnest.layer.1",
      "spec": [
        "mariner.events.vaults.ekstersnest.events.foulvapors",
        "mariner.events.vaults.ekstersnest.events.flashflood",
        "mariner.events.vaults.ekstersnest.events.smugglingcrew",
        "seasonsuspicion"
      ],
      "resetonexhaustion": true,
      "shuffleAfterDraw": true
    },
    {
      "id": "mariner.decks.tide.ekstersnest.layer.2",
      "spec": [
        "mariner.events.vaults.ekstersnest.events.uncomfortableacquaintance",
        "mariner.events.vaults.ekstersnest.events.bazaarbrawl",
        "seasonsuspicion"
      ],
      "resetonexhaustion": true,
      "shuffleAfterDraw": true
    },
    {
      "id": "mariner.decks.tide.sunkencity.layer.1",
      "spec": [
        "mariner.events.vaults.sunkencity.events.stormtakesus",
        "mariner.events.vaults.sunkencity.events.seagulls",
        "seasonsuspicion"
      ],
      "resetonexhaustion": true,
      "shuffleAfterDraw": true
    },
    {
      "id": "mariner.decks.tide.sunkencity.layer.2",
      "spec": [
        "mariner.events.vaults.sunkencity.events.seagull",
        "mariner.events.vaults.sunkencity.events.specters",
        "mariner.events.vaults.sunkencity.events.tidepools",
        "seasonsuspicion"
      ],
      "resetonexhaustion": true,
      "shuffleAfterDraw": true
    },
    {
      "id": "mariner.decks.tide.thebes.layer.1",
      "spec": [
        "mariner.events.vaults.thebes.events.others",
        "mariner.events.vaults.thebes.events.scales",
        "mariner.events.vaults.thebes.events.colossus",
        "seasonsuspicion"
      ],
      "resetonexhaustion": true,
      "shuffleAfterDraw": true
    },
    {
      "id": "mariner.decks.tide.damascus.layer.1",
      "spec": [
        "mariner.events.vaults.damascus.events.guards",
        "mariner.events.vaults.damascus.events.throngs",
        "seasonsuspicion"
      ],
      "resetonexhaustion": true,
      "shuffleAfterDraw": true
    }
  ]
}