{
  "elements": [
    {
      "id": "mariner.events.vaults.rescuemission.events.boredom",
      "aspects": {
        "mariner.vaults.event": 1
      }
    },
    {
      "id": "mariner.events.vaults.rescuemission.events.fairweather",
      "aspects": {
        "mariner.vaults.event": 1
      }
    },
    {
      "id": "mariner.events.vaults.rescuemission.events.windrises",
      "aspects": {
        "mariner.vaults.event": 1
      }
    },
    {
      "id": "mariner.events.vaults.rescuemission.events.marinemists",
      "aspects": {
        "mariner.vaults.event": 1
      }
    }
  ]
}