{
  "recipes": [
    {
      "id": "mariner.sailing.seaevents.start.shipwreck",
      "warmup": 20,
      "label": "Remains of Another Vessel",
      "slots": [
        {
          "actionId": "mariner.sail",
          "id": "mariner.sail1",
          "label": "Help",
          "description": "Which implements are available for my approach.",
          "required": {
            "funds": 1,
            "mariner.crew": 1,
            "mariner.tune": 1,
            "tool": 1,
            "mariner.inspiration.nature": 1,
            "mariner.lackheart": 1,
            "mariner.halfheart": 1
          },
          "forbidden": {
            "mariner.crew.traits.fingerless": 1,
            "mariner.crew.traits.landlubber": 1,
            "mariner.crew.exhausted": 1,
            "mariner.tool.broken": 1,
            "mariner.lackheart.exhausted": 1,
            "mariner.halfheart.exhausted": 1,
            "mariner.vaults.help": 1
          }
        },
        {
          "actionId": "mariner.sail",
          "id": "mariner.sail2",
          "label": "Help",
          "description": "Which implements are available for my approach.",
          "required": {
            "funds": 1,
            "mariner.crew": 1,
            "mariner.tune": 1,
            "tool": 1,
            "mariner.inspiration.nature": 1,
            "mariner.lackheart": 1,
            "mariner.halfheart": 1
          },
          "forbidden": {
            "mariner.crew.traits.fingerless": 1,
            "mariner.crew.traits.landlubber": 1,
            "mariner.crew.exhausted": 1,
            "mariner.tool.broken": 1,
            "mariner.lackheart.exhausted": 1,
            "mariner.halfheart.exhausted": 1,
            "mariner.vaults.help": 1
          }
        },
        {
          "actionId": "mariner.sail",
          "id": "mariner.sail3",
          "label": "Help",
          "description": "Which implements are available for my approach.",
          "required": {
            "funds": 1,
            "mariner.crew": 1,
            "mariner.tune": 1,
            "tool": 1,
            "mariner.inspiration.nature": 1,
            "mariner.lackheart": 1,
            "mariner.halfheart": 1
          },
          "forbidden": {
            "mariner.crew.traits.fingerless": 1,
            "mariner.crew.traits.landlubber": 1,
            "mariner.crew.exhausted": 1,
            "mariner.tool.broken": 1,
            "mariner.lackheart.exhausted": 1,
            "mariner.halfheart.exhausted": 1,
            "mariner.vaults.help": 1
          }
        }
      ],
      "startdescription": "We reach an area where the sea is cluttered like a workshop floor. Ships collided here, and what was once their hull and insides is spilled out to open air and sea. I can approach this challenge with Knock or Forge.",
      "linked": [
        {
          "id": "mariner.sailing.seaevents.shipwreck.outcome.success",
          "chance": "([forge]/7)*100"
        },
        {
          "id": "mariner.sailing.seaevents.shipwreck.outcome.success",
          "chance": "([knock]/7)*100"
        },
        {
          "id": "mariner.sailing.seaevents.shipwreck.outcome.nothing",
          "chance": 66
        },
        {
          "id": "mariner.sailing.seaevents.shipwreck.outcome.pain"
        }
      ]
    },
    {
      "id": "mariner.sailing.seaevents.shipwreck.outcome.success",
      "warmup": 20,
      "label": "Salvage from the Wreck",
      "startdescription": "The sea carries many gifts, it is said. With net and hook and cable, we fish what can still be of use out of the water.",
      "furthermore": [
        {
          "effects": {
            "mariner.drawreward.precious.caller": 1
          }
        },
        {
          "aspects": {
            "mariner.function.caller": 1
          }
        },
        {
          "deckeffects": {
            "mariner.decks.cargo": 2
          }
        },
        {
          "movements": {
            "~/tabletop": [
              "mariner.cargo",
              "mariner.trapping"
            ]
          }
        }
      ],
      "linked": [
        {
          "id": "mariner.sailing.postevent"
        }
      ]
    },
    {
      "id": "mariner.sailing.seaevents.shipwreck.outcome.nothing",
      "warmup": 20,
      "label": "Nothing of Note",
      "startdescription": "The Sea is a fickle provider, it is said. We spend some time salvaging, but find nothing worth anything except as a soggy souvenir. We continue.",
      "linked": [
        {
          "id": "mariner.sailing.postevent"
        }
      ]
    },
    {
      "id": "mariner.sailing.seaevents.shipwreck.outcome.pain",
      "warmup": 20,
      "label": "Scrape on the Hull",
      "startdescription": "Moving through this field of debris is a delicate manoeuver, and the constelation of scrap was ill-omened today. A screeching sound and horrible tremble indicate that an unseen danger has breached the hull.",
      "mutations": [
        {
          "filter": "mariner.ship",
          "mutate": "mariner.ship.damage",
          "level": 1,
          "additive": true
        }
      ],
      "linked": [
        {
          "id": "mariner.sailing.postevent"
        }
      ]
    }
  ]
}