{
  "recipes": [
    {
      "id": "mariner.sailing.seaevents.start.sickness",
      "warmup": 20,
      "label": "An Unwholesome Air",
      "tablereqs": {
        "mariner.weathermeta.sickly": 1
      },
      "slots": [
        {
          "actionId": "mariner.sail",
          "id": "mariner.sail1",
          "label": "Help",
          "description": "Which implements are available for my approach.",
          "required": {
            "funds": 1,
            "mariner.crew": 1,
            "mariner.tune": 1,
            "tool": 1,
            "mariner.inspiration.nature": 1,
            "mariner.lackheart": 1,
            "mariner.halfheart": 1
          },
          "forbidden": {
            "mariner.crew.traits.landlubber": 1,
            "mariner.crew.exhausted": 1,
            "mariner.tool.broken": 1,
            "mariner.lackheart.exhausted": 1,
            "mariner.halfheart.exhausted": 1,
            "mariner.vaults.help": 1
          }
        },
        {
          "actionId": "mariner.sail",
          "id": "mariner.sail2",
          "label": "Help",
          "description": "Which implements are available for my approach.",
          "required": {
            "funds": 1,
            "mariner.crew": 1,
            "mariner.tune": 1,
            "tool": 1,
            "mariner.inspiration.nature": 1,
            "mariner.lackheart": 1,
            "mariner.halfheart": 1
          },
          "forbidden": {
            "mariner.crew.traits.landlubber": 1,
            "mariner.crew.exhausted": 1,
            "mariner.tool.broken": 1,
            "mariner.lackheart.exhausted": 1,
            "mariner.halfheart.exhausted": 1,
            "mariner.vaults.help": 1
          }
        },
        {
          "actionId": "mariner.sail",
          "id": "mariner.sail3",
          "label": "Help",
          "description": "Which implements are available for my approach.",
          "required": {
            "funds": 1,
            "mariner.crew": 1,
            "mariner.tune": 1,
            "tool": 1,
            "mariner.inspiration.nature": 1,
            "mariner.lackheart": 1,
            "mariner.halfheart": 1
          },
          "forbidden": {
            "mariner.crew.traits.landlubber": 1,
            "mariner.crew.exhausted": 1,
            "mariner.tool.broken": 1,
            "mariner.lackheart.exhausted": 1,
            "mariner.halfheart.exhausted": 1,
            "mariner.vaults.help": 1
          }
        }
      ],
      "startdescription": "Normaly the sea air is brisk, hale and salt-laden, but today the effluvium of industry has followed us from the city into the sea. The vile retchings of smoke stacks clogs the air like bitter miasm and me must be hearty to survive it. [Approach this challenge with Heart or Grail.]",
      "linked": [
        {
          "id": "mariner.sailing.seaevents.sickness.outcome.success",
          "chance": "([heart]/10)*100"
        },
        {
          "id": "mariner.sailing.seaevents.sickness.outcome.success",
          "chance": "([grail]/10)*100"
        },
        {
          "id": "mariner.sailing.seaevents.sickness.outcome.failure"
        }
      ]
    },
    {
      "id": "mariner.sailing.seaevents.sickness.outcome.success",
      "warmup": 20,
      "label": "Through the Miasma",
      "startdescription": "Through nurtering our private spaces, and keeping care to keep the air in the ship free of stain, we make it through the area without any lasting sickness.",
      "linked": [
        {
          "id": "mariner.sailing.postevent"
        }
      ]
    },
    {
      "id": "mariner.sailing.seaevents.sickness.outcome.failure",
      "warmup": 20,
      "label": "A Rattling Cough",
      "startdescription": "The foul fog is clogging up our rooms, our mouths our longs. Some of my crew is lost to a coughing fit they just cannot shake, even after we leave the area. they will be bed-ridden and feverish for the journey remaining at least.",
      "furthermore": [
        {
          "target": "~/tabletop",
          "mutations": {
            "[mariner.crew] && [mariner.crew.traits.frail] && [mariner.crew.exhausted]<1": {
              "mutate": "mariner.crew.exhausted",
              "level": 5,
              "limit": 30
            }
          }
        },
        {
          "target": "~/tabletop",
          "mutations": {
            "[mariner.crew] && [mariner.crew.exhausted]<1": {
              "mutate": "mariner.crew.exhausted",
              "level": 5,
              "limit": 3
            }
          }
        }
      ],
      "linked": [
        {
          "id": "mariner.sailing.postevent"
        }
      ]
    }
  ]
}