{
  "recipes": [
    {
      "id": "mariner.sailing.seaevents.start.windrises",
      "warmup": 20,
      "label": "The Wind Rises",
      "startdescription": "The flag stands straight horizontal, and a constant wind tempts the kite to turn its way. We need to tame this weather with Forge, or survive it with Heart.",
      "slots": [
        {
          "actionId": "mariner.sail",
          "id": "mariner.sail1",
          "label": "Help",
          "description": "Which implements are available for my approach.",
          "required": {
            "funds": 1,
            "mariner.crew": 1,
            "mariner.tune": 1,
            "tool": 1,
            "mariner.inspiration.nature": 1,
            "mariner.lackheart": 1,
            "mariner.halfheart": 1
          },
          "forbidden": {
            "mariner.crew.traits.fingerless": 1,
            "mariner.crew.traits.landlubber": 1,
            "mariner.crew.exhausted": 1,
            "mariner.tool.broken": 1,
            "mariner.lackheart.exhausted": 1,
            "mariner.halfheart.exhausted": 1,
            "mariner.vaults.help": 1
          }
        },
        {
          "actionId": "mariner.sail",
          "id": "mariner.sail2",
          "label": "Help",
          "description": "Which implements are available for my approach.",
          "required": {
            "funds": 1,
            "mariner.crew": 1,
            "mariner.tune": 1,
            "tool": 1,
            "mariner.inspiration.nature": 1,
            "mariner.lackheart": 1,
            "mariner.halfheart": 1
          },
          "forbidden": {
            "mariner.crew.traits.fingerless": 1,
            "mariner.crew.traits.landlubber": 1,
            "mariner.crew.exhausted": 1,
            "mariner.tool.broken": 1,
            "mariner.lackheart.exhausted": 1,
            "mariner.halfheart.exhausted": 1,
            "mariner.vaults.help": 1
          }
        },
        {
          "actionId": "mariner.sail",
          "id": "mariner.sail3",
          "label": "Help",
          "description": "Which implements are available for my approach.",
          "required": {
            "funds": 1,
            "mariner.crew": 1,
            "mariner.tune": 1,
            "tool": 1,
            "mariner.inspiration.nature": 1,
            "mariner.lackheart": 1,
            "mariner.halfheart": 1
          },
          "forbidden": {
            "mariner.crew.traits.fingerless": 1,
            "mariner.crew.traits.landlubber": 1,
            "mariner.crew.exhausted": 1,
            "mariner.tool.broken": 1,
            "mariner.lackheart.exhausted": 1,
            "mariner.halfheart.exhausted": 1,
            "mariner.vaults.help": 1
          }
        }
      ],
      "linked": [
        {
          "id": "mariner.sailing.seaevents.windrises.highwindcheck.forge",
          "chance": "([forge]/10)*100"
        },
        {
          "id": "mariner.sailing.seaevents.windrises.highwindcheck.heart",
          "chance": "([heart]/10)*100"
        },
        {
          "id": "mariner.sailing.seaevents.windrises.outcome.criticalfailure"
        },
        {
          "id": "mariner.sailing.seaevents.windrises.outcome.success",
          "chance": "([forge]/7)*100"
        },
        {
          "id": "mariner.sailing.seaevents.windrises.outcome.success",
          "chance": "([heart]/7)*100"
        },
        {
          "id": "mariner.sailing.seaevents.windrises.outcome.success",
          "chance": 10
        },
        {
          "id": "mariner.sailing.seaevents.windrises.outcome.failure"
        }
      ]
    },
    {
      "id": "mariner.sailing.seaevents.windrises.highwindcheck.forge",
      "tablereqs": {
        "mariner.weathermeta.windy": 1
      },
      "linked": [
        {
          "id": "mariner.sailing.seaevents.windrises.outcome.criticalsuccess"
        }
      ]
    },
    {
      "id": "mariner.sailing.seaevents.windrises.highwindcheck.heart",
      "tablereqs": {
        "mariner.weathermeta.windy": 1
      },
      "linked": [
        {
          "id": "mariner.sailing.seaevents.windrises.outcome.criticalsuccess"
        }
      ]
    },
    {
      "id": "mariner.sailing.seaevents.windrises.outcome.success",
      "warmup": 20,
      "label": "Control the Vessel",
      "startdescription": "The wind plays with us, but we manoeuvre, turn, dance and fight against it. It will not cost us any time on our travel.",
      "linked": [
        {
          "id": "mariner.sailing.postevent"
        }
      ]
    },
    {
      "id": "mariner.sailing.seaevents.windrises.outcome.criticalsuccess",
      "warmup": 20,
      "label": "Strong Tailwind",
      "startdescription": "We leash the wind, and let it serve us instead. With this we will arrive at our destination sooner than expected.",
      "effects": {
        "mariner.sailing.distance": -24
      },
      "linked": [
        {
          "id": "mariner.sailing.postevent"
        }
      ]
    },
    {
      "id": "mariner.sailing.seaevents.windrises.outcome.criticalfailure",
      "warmup": 20,
      "label": "Battered and Bruised",
      "startdescription": "tears, groans, scraps and finally, the snapping of treated wood.",
      "effects": {
        "mariner.sailing.distance": 24
      },
      "mutations": [
        {
          "filter": "mariner.ship",
          "mutate": "mariner.ship.damage",
          "level": 1,
          "additive": true
        }
      ],
      "tablereqs": {
        "mariner.weathermeta.windy": 1
      },
      "linked": [
        {
          "id": "mariner.sailing.postevent"
        }
      ]
    },
    {
      "id": "mariner.sailing.seaevents.windrises.outcome.failure",
      "warmup": 20,
      "label": "Blown off Course",
      "startdescription": "We fight against the wind, but at some point we have to bend, and give ourselves.",
      "effects": {
        "mariner.sailing.distance": 24
      },
      "linked": [
        {
          "id": "mariner.sailing.postevent"
        }
      ]
    }
  ]
}