{
  "recipes": [
    {
      "id": "mariner.sailing.seaevents.start.fire",
      "warmup": 20,
      "label": "Fire in the Hull",
      "startdescription": "A lantern spilled, and a pool of burning oil in the depths of the ship. If we do not act quickly, the fire might continue to spread until nothing of the Kite is left. I could order to dampen the fire, or drown it out with buckets from the sea. [Use Winter or Grail to approach this event, or throw able-bodied men it's way to contain it.]",
      "slots": [
        {
          "actionId": "mariner.sail",
          "id": "mariner.sail1",
          "label": "Help",
          "description": "Which implements are available for my approach.",
          "required": {
            "funds": 1,
            "mariner.crew": 1,
            "mariner.tune": 1,
            "tool": 1,
            "mariner.inspiration.nature": 1,
            "mariner.lackheart": 1,
            "mariner.halfheart": 1
          },
          "forbidden": {
            "mariner.crew.traits.landlubber": 1,
            "mariner.crew.exhausted": 1,
            "mariner.tool.broken": 1,
            "mariner.lackheart.exhausted": 1,
            "mariner.halfheart.exhausted": 1,
            "mariner.vaults.help": 1
          }
        },
        {
          "actionId": "mariner.sail",
          "id": "mariner.sail2",
          "label": "Help",
          "description": "Which implements are available for my approach.",
          "required": {
            "funds": 1,
            "mariner.crew": 1,
            "mariner.tune": 1,
            "tool": 1,
            "mariner.inspiration.nature": 1,
            "mariner.lackheart": 1,
            "mariner.halfheart": 1
          },
          "forbidden": {
            "mariner.crew.traits.landlubber": 1,
            "mariner.crew.exhausted": 1,
            "mariner.tool.broken": 1,
            "mariner.lackheart.exhausted": 1,
            "mariner.halfheart.exhausted": 1,
            "mariner.vaults.help": 1
          }
        },
        {
          "actionId": "mariner.sail",
          "id": "mariner.sail3",
          "label": "Help",
          "description": "Which implements are available for my approach.",
          "required": {
            "funds": 1,
            "mariner.crew": 1,
            "mariner.tune": 1,
            "tool": 1,
            "mariner.inspiration.nature": 1,
            "mariner.lackheart": 1,
            "mariner.halfheart": 1
          },
          "forbidden": {
            "mariner.crew.traits.landlubber": 1,
            "mariner.crew.exhausted": 1,
            "mariner.tool.broken": 1,
            "mariner.lackheart.exhausted": 1,
            "mariner.halfheart.exhausted": 1,
            "mariner.vaults.help": 1
          }
        }
      ],
      "linked": [
        {
          "id": "mariner.sailing.seaevents.fire.weathersuccess"
        },
        {
          "id": "mariner.sailing.seaevents.fire.highwindcheck.winter",
          "chance": "([winter]/10)*100"
        },
        {
          "id": "mariner.sailing.seaevents.fire.highwindcheck.grail",
          "chance": "([grail]/10)*100"
        },
        {
          "id": "mariner.sailing.seaevents.fire.outcome.success",
          "chance": "([winter]/7)*100"
        },
        {
          "id": "mariner.sailing.seaevents.fire.outcome.success",
          "chance": "([grail]/7)*100"
        },
        {
          "id": "mariner.sailing.seaevents.fire.outcome.success",
          "chance": "10 + 5*[mariner.crew]"
        },
        {
          "id": "mariner.sailing.seaevents.fire.outcome.failure"
        }
      ]
    },
    {
      "id": "mariner.sailing.seaevents.fire.highwindcheck.winter",
      "grandReqs": {
        "[~/visible : mariner.weathermeta.windy]": 1
      },
      "linked": [
        {
          "id": "mariner.sailing.seaevents.fire.outcome.success"
        }
      ]
    },
    {
      "id": "mariner.sailing.seaevents.fire.highwindcheck.grail",
      "tablereqs": {
        "[~/visible : mariner.weathermeta.windy]": 1
      },
      "linked": [
        {
          "id": "mariner.sailing.seaevents.fire.outcome.success"
        }
      ]
    },
    {
      "id": "mariner.sailing.seaevents.fire.weathersuccess",
      "tablereqs": {
        "[~/visible : mariner.weathermeta.rainy]": 1
      },
      "linked": [
        {
          "id": "mariner.sailing.seaevents.fire.outcome.success"
        }
      ]
    },
    {
      "id": "mariner.sailing.seaevents.fire.outcome.success",
      "warmup": 20,
      "label": "The Flames Last Whimper",
      "startdescription": "We have managed to decrease the flames until they are nothing but some glowing timber, and even that soon ceases to spark.",
      "linked": [
        {
          "id": "mariner.sailing.postevent"
        }
      ]
    },
    {
      "id": "mariner.sailing.seaevents.fire.outcome.failure",
      "linked": [
        {
          "id": "mariner.sailing.seaevents.fire.outcome.failure.cargoburnt",
          "chance": 33
        },
        {
          "id": "mariner.sailing.seaevents.fire.outcome.failure.killedcrew",
          "chance": 50
        },
        {
          "id": "mariner.sailing.seaevents.fire.outcome.failure.shipdamage"
        }
      ]
    },
    {
      "id": "mariner.sailing.seaevents.fire.outcome.failure.cargoburnt",
      "tablereqs": {
        "mariner.cargo": 1
      },
      "warmup": 20,
      "label": "Cargo Damaged",
      "startdescription": "Some cargo was lost to the flames.",
      "purge": {
        "mariner.cargo": 1
      },
      "linked": [
        {
          "id": "mariner.sailing.seaevents.start.fire"
        }
      ]
    },
    {
      "id": "mariner.sailing.seaevents.fire.outcome.failure.killedcrew",
      "tablereqs": {
        "mariner.crew": 1
      },
      "warmup": 20,
      "label": "Lost Someone",
      "startdescription": "No horror as visceral as the smell of burning flesh.",
      "inductions": [
        {
          "id": "mariner.genericevents.injurecrewmember",
          "expulsion": {
            "limit": 1,
            "filter": {
              "mariner.crew": 1
            }
          }
        }
      ],
      "linked": [
        {
          "id": "mariner.sailing.seaevents.start.fire"
        }
      ]
    },
    {
      "id": "mariner.sailing.seaevents.fire.outcome.failure.shipdamage",
      "warmup": 20,
      "label": "Ship Damaged",
      "startdescription": "Ship sustained a wound.",
      "mutations": [
        {
          "filter": "mariner.ship",
          "mutate": "mariner.ship.damage",
          "level": 1,
          "additive": true
        }
      ],
      "linked": [
        {
          "id": "mariner.sailing.sinking"
        },
        {
          "id": "mariner.sailing.seaevents.start.fire"
        }
      ]
    }
  ]
}