{
  "recipes": [
    {
      "id": "mariner.performances.grail.hint",
      "label": "Hint: A Charming Performance: Not Enough!",
      "startdescription": "There is something here, but I cannot quite reach it. If I could stage a performance with a stronger tie to Grail.",
      "actionid": "mariner.sing",
      "hintOnly": true,
      "requirements": {
        "mariner.theater": 1,
        "mariner.song.grail": 1,
        "grail": -4
      }
    },
    {
      "id": "mariner.performances.grail.start",
      "previewLabel": " Start A Performance of Grail",
      "previewDescription": "If I start with a with a sensual movement, I can enrapture the audience, as well as further targets.",
      "label": "Perform a Show laced with the Intent of Grail",
      "startdescription": "I reach for a finale with all the passion I can muster. As my cheeks flush, so does the audience.",
      "warmup": 10,
      "actionId": "mariner.sing",
      "craftable": true,
      "requirements": {
        "mariner.theater": 1,
        "mariner.song.grail": 1,
        "grail": 4
      },
      "aspects": {
        "mariner.signal.performing": 1
      },
      "linked": [
        {
          "id": "mariner.performances.grail.addnoun"
        }
      ]
    },
    {
      "id": "mariner.performances.grail.addnoun",
      "warmup": 20,
      "startdescription": "Now comes the time for me to channel this energy into whatever target I desire.",
      "slots": [
        {
          "id": "noun",
          "label": "Direction",
          "description": "Now that my Intent is set, I have to set my Direction. What do I wish to affect?",
          "required": {
            "mariner.song": 1
          }
        }
      ],
      "aspects": {
        "mariner.signal.performing": 1
      },
      "linked": [
        {
          "id": "mariner.performances.grail.lantern"
        },
        {
          "id": "mariner.performances.grail.forge"
        },
        {
          "id": "mariner.performances.grail.edge"
        },
        {
          "id": "mariner.performances.grail.winter"
        },
        {
          "id": "mariner.performances.grail.heart"
        },
        {
          "id": "mariner.performances.grail.moth"
        },
        {
          "id": "mariner.performances.grail.knock"
        },
        {
          "id": "mariner.performances.failure"
        }
      ]
    },
    {
      "id": "mariner.performances.grail.lantern",
      "requirements": {
        "mariner.song.grail": 1,
        "mariner.song.lantern": 1
      },
      "aspects": {
        "mariner.signal.performing": 1
      },
      "linked": [
        {
          "id": "mariner.performances.failure",
          "chance": "45 + ((Min([grail], [lantern]) + Round(Abs([grail]-[lantern])/2)) * 50) / 20"
        },
        {
          "id": "mariner.performances.failure"
        }
      ]
    },
    {
      "id": "mariner.performances.grail.forge",
      "requirements": {
        "mariner.song.grail": 1,
        "mariner.song.forge": 1
      },
      "aspects": {
        "mariner.signal.performing": 1
      },
      "linked": [
        {
          "id": "mariner.performances.grail.forge.success.1",
          "chance": "45 + ((Min([grail], [forge]) + Round(Abs([grail]-[forge])/2)) * 50) / 20"
        },
        {
          "id": "mariner.performances.failure"
        }
      ]
    },
    {
      "id": "mariner.performances.grail.forge.success.1",
      "label": "The Ballad of the Monstrous",
      "startdescription": "<what is small and spurned may spring forth to smite <br> dropped in a well, a kitten-whelp once lost <br> grew up in the darkness, growling in the dank muck <br> flint on claws whetting -iron clanging wells up <br>on shale their skin-scruff is roughed to be scale-tough",
      "warmup": 8,
      "aspects": {
        "mariner.signal.performing": 1
      },
      "linked": [
        {
          "id": "mariner.performances.grail.forge.success.2"
        }
      ]
    },
    {
      "id": "mariner.performances.grail.forge.success.2",
      "label": "The Ballad of the Monstrous",
      "startdescription": "through hardship find hardness, hell-scarred and strong-harmed <br>a monster made manifest, moulded in mole-space <br>but never once forgetting, the forged things throwing it nether <br>giving the gift of being beneath him <br>mighty that hand; a knight errant fleeing",
      "warmup": 8,
      "aspects": {
        "mariner.signal.performing": 1
      },
      "linked": [
        {
          "id": "mariner.performances.grail.forge.success.3"
        }
      ]
    },
    {
      "id": "mariner.performances.grail.forge.success.3",
      "label": "The Ballad of the Monstrous",
      "startdescription": "to go halberd clashing for holy lands castles <br>soon a retinue legging: the legion returning <br>up in this hilled earldom, upturned in upheavel <br>a dragon-catastrophe, dragged cattle to cave-lairs <br>so he vowed triple-tricemore, the vermin to vanquish",
      "warmup": 8,
      "aspects": {
        "mariner.signal.performing": 1
      },
      "linked": [
        {
          "id": "mariner.performances.grail.forge.success.4"
        }
      ]
    },
    {
      "id": "mariner.performances.grail.forge.success.4",
      "label": "The Ballad of the Monstrous",
      "startdescription": "and heaved with his halberd, achieving half-nothing <br>his hammer swings second which shatters to splinters <br>willing to retreat he entreats with a witch <br>she says that the monstrous a monster can slay <br>so his clan-mates then raised him razor clad mail coat",
      "warmup": 8,
      "aspects": {
        "mariner.signal.performing": 1
      },
      "linked": [
        {
          "id": "mariner.performances.grail.forge.success.5"
        }
      ]
    },
    {
      "id": "mariner.performances.grail.forge.success.5",
      "label": "The Ballad of the Monstrous",
      "startdescription": "so when that mole-beast molested his breastplate <br>the razors to ribbons would raze the flesh of her ribs<br>rended the tendons,  rendered tender and bleeding <br>when rivals do spill blood, who rightly can split <br>menace from mortal, monster  from men",
      "warmup": 8,
      "aspects": {
        "mariner.signal.performing": 1
      },
      "linked": [
        {
          "id": "mariner.performances.skaptodon"
        }
      ]
    },
    {
      "id": "mariner.performances.grail.edge",
      "requirements": {
        "mariner.song.grail": 1,
        "mariner.song.edge": 1
      },
      "aspects": {
        "mariner.signal.performing": 1
      },
      "linked": [
        {
          "id": "mariner.performances.failure",
          "chance": "45 + ((Min([grail], [edge]) + Round(Abs([grail]-[edge])/2)) * 50) / 20"
        },
        {
          "id": "mariner.performances.failure"
        }
      ]
    },
    {
      "id": "mariner.performances.grail.winter",
      "requirements": {
        "mariner.song.grail": 1,
        "mariner.song.winter": 1
      },
      "aspects": {
        "mariner.signal.performing": 1
      },
      "linked": [
        {
          "id": "mariner.performances.grail.winter.success.1",
          "chance": "45 + ((Min([grail], [winter]) + Round(Abs([grail]-[winter])/2)) * 50) / 20"
        },
        {
          "id": "mariner.performances.failure"
        }
      ]
    },
    {
      "id": "mariner.performances.grail.winter.success.1",
      "label": "Two Wade in, Two Wade out",
      "startdescription": "<past the roots' edge, two children wade towards the water line <br>To depths that sing, filled with what is eternal and is old <br>Where do they journey, what did they leave behind <br>Blood still remembers, abyss dark and waters freezing cold>",
      "warmup": 10,
      "aspects": {
        "mariner.signal.performing": 1
      },
      "linked": [
        {
          "id": "mariner.performances.grail.winter.success.2"
        }
      ]
    },
    {
      "id": "mariner.performances.grail.winter.success.2",
      "label": "Two Wade in, Two Wade out",
      "startdescription": "To depths that sing, filled with what is eternal and is old <br>as the currents rise and the waves do sway and course <br>blood still remembers, abyss dark and waters freezing cold <br>swept down below, where waters' soul knows no remorse",
      "warmup": 10,
      "aspects": {
        "mariner.signal.performing": 1
      },
      "linked": [
        {
          "id": "mariner.performances.grail.winter.success.3"
        }
      ]
    },
    {
      "id": "mariner.performances.grail.winter.success.3",
      "label": "Two Wade in, Two Wade out",
      "startdescription": "As the currents rise and the waves do sway and course <br>air gives out and flesh gives way, we recall our kin <br>swept down below, where waters' soul knows no remorse <br>a remembered mercy, a change wrought from within",
      "warmup": 10,
      "aspects": {
        "mariner.signal.performing": 1
      },
      "linked": [
        {
          "id": "mariner.performances.grail.winter.success.4"
        }
      ]
    },
    {
      "id": "mariner.performances.grail.winter.success.4",
      "label": "Two Wade in, Two Wade out",
      "startdescription": "Air gives out and flesh gives way, we recall our kin I <br>where do they journey, what did they leave behind <br>a remembered mercy, a change wrought from within <br>past the last roots, two children wade towards the water line",
      "warmup": 10,
      "aspects": {
        "mariner.signal.performing": 1
      },
      "linked": [
        {
          "id": "mariner.performances.invited"
        }
      ]
    },
    {
      "id": "mariner.performances.grail.heart",
      "requirements": {
        "mariner.song.grail": 1,
        "mariner.song.heart": 1
      },
      "aspects": {
        "mariner.signal.performing": 1
      },
      "linked": [
        {
          "id": "mariner.performances.failure",
          "chance": "45 + ((Min([grail], [heart]) + Round(Abs([grail]-[heart])/2)) * 50) / 20"
        },
        {
          "id": "mariner.performances.failure"
        }
      ]
    },
    {
      "id": "mariner.performances.grail.moth",
      "requirements": {
        "mariner.song.grail": 1,
        "mariner.song.moth": 1
      },
      "aspects": {
        "mariner.signal.performing": 1
      },
      "linked": [
        {
          "id": "mariner.performances.grail.moth.success.1",
          "chance": "45 + ((Min([grail], [moth]) + Round(Abs([grail]-[moth])/2)) * 50) / 20"
        },
        {
          "id": "mariner.performances.failure"
        }
      ]
    },
    {
      "id": "mariner.performances.grail.moth.success.1",
      "label": "Borrowed Meaning",
      "startdescription": "<1 One impulse from a vernal wood, I wandered lonely as a cloud <br>Upon the breathless starlit air, Hark! to the swelling nuptial song, <br>till a free soul to composedness charmed. tameless, and swift, and proud. <br>One strains with his strength at the fetter, gates of steel so strong. <br><br>Alone in chains! who shall me deliver whole <br>I have promises to keep;  like a corpse within its grave, until <br>Do with me as thou wilt; captain of my soul... <br>O Captain! my Captain, The Mariner hath his will.>",
      "warmup": 30,
      "aspects": {
        "mariner.signal.performing": 1
      },
      "linked": [
        {
          "id": "mariner.performances.cousin"
        }
      ]
    },
    {
      "id": "mariner.performances.grail.knock",
      "requirements": {
        "mariner.song.grail": 1,
        "mariner.song.knock": 1
      },
      "aspects": {
        "mariner.signal.performing": 1
      },
      "linked": [
        {
          "id": "mariner.performances.grail.knock.success.1",
          "chance": "45 + ((Min([grail], [knock]) + Round(Abs([grail]-[knock])/2)) * 50) / 20"
        },
        {
          "id": "mariner.performances.failure"
        }
      ]
    },
    {
      "id": "mariner.performances.grail.knock.success.1",
      "label": "Sister-river, riversister",
      "startdescription": "<great river, stretched in repose from starting source<br>to your far end. do you coil with power course <br>or swell in sorrow, ripe with spilled tears? <br>of humanity trailing wonders, rage and fears <br>do you thunder past us in a loping gait <br>or do you dawdle, look up at us and wait <br>we throng upon your shorelines, eyes cast down <br>looking for a mirror, looking where to drown?",
      "warmup": 20,
      "aspects": {
        "mariner.signal.performing": 1
      },
      "linked": [
        {
          "id": "mariner.performances.grail.knock.success.2"
        }
      ]
    },
    {
      "id": "mariner.performances.grail.knock.success.2",
      "label": "Sister-river, riversister",
      "startdescription": "selfishly, our hearts wish to be with you <br>wild, free, languid and resplendent too <br>what could we shed upon your banks <br>sorrow, heartbreak or restraint, classes and ranks <br>at the plunge down, swaddled only by your stream <br>live as huntress, as solid as a dream <br>as river foam, as a scales silver glints <br>in murky depths, as airs' embrace rescinds <br> <br> powerful as lightning, with a panthers grace <br>not now, but one day, I'll beg for your embrace",
      "warmup": 20,
      "aspects": {
        "mariner.signal.performing": 1
      },
      "linked": [
        {
          "id": "mariner.performances.iarella"
        }
      ]
    }
  ]
}