{
  "recipes": [
    {
      "id": "mariner.performances.edge.hint",
      "label": "Hint: A Rousing Performance: Not Enough!",
      "startdescription": "There is something here, but I cannot quite reach it. If I could stage a performance with a stronger tie to Edge.",
      "actionid": "mariner.sing",
      "hintOnly": true,
      "requirements": {
        "mariner.theater": 1,
        "mariner.song.edge": 1,
        "edge": -4
      }
    },
    {
      "id": "mariner.performances.edge.start",
      "previewLabel": " Start A Performance of Edge",
      "previewDescription": "I could start in the dark, catching my audience in surprise. These furious rhytms will arouse their passions, as well as that of any other target I may seek. ",
      "label": "Perform a Show laced with the Intent of Edge",
      "startdescription": "The audience is my army, their muscles clenched with summoned passion.",
      "warmup": 10,
      "actionId": "mariner.sing",
      "craftable": true,
      "requirements": {
        "mariner.theater": 1,
        "mariner.song.edge": 1,
        "edge": 4
      },
      "aspects": {
        "mariner.signal.performing": 1
      },
      "linked": [
        {
          "id": "mariner.performances.edge.addnoun"
        }
      ]
    },
    {
      "id": "mariner.performances.edge.addnoun",
      "warmup": 20,
      "startdescription": "Now comes the time for me to channel this energy into whatever target I desire.",
      "slots": [
        {
          "id": "noun",
          "label": "Direction",
          "description": "Now that my Intent is set, I have to set my Direction. What do I wish to affect?",
          "required": {
            "mariner.song": 1
          }
        }
      ],
      "aspects": {
        "mariner.signal.performing": 1
      },
      "linked": [
        {
          "id": "mariner.performances.edge.lantern"
        },
        {
          "id": "mariner.performances.edge.forge"
        },
        {
          "id": "mariner.performances.edge.winter"
        },
        {
          "id": "mariner.performances.edge.heart"
        },
        {
          "id": "mariner.performances.edge.grail"
        },
        {
          "id": "mariner.performances.edge.moth"
        },
        {
          "id": "mariner.performances.edge.knock"
        },
        {
          "id": "mariner.performances.failure"
        }
      ]
    },
    {
      "id": "mariner.performances.edge.lantern",
      "requirements": {
        "mariner.song.edge": 1,
        "mariner.song.lantern": 1
      },
      "aspects": {
        "mariner.signal.performing": 1
      },
      "linked": [
        {
          "id": "mariner.performances.failure",
          "chance": "45 + ((Min([edge], [lantern]) + Round(Abs([edge]-[lantern])/2)) * 50) / 20"
        },
        {
          "id": "mariner.performances.failure"
        }
      ]
    },
    {
      "id": "mariner.performances.edge.forge",
      "requirements": {
        "mariner.song.edge": 1,
        "mariner.song.forge": 1
      },
      "aspects": {
        "mariner.signal.performing": 1
      },
      "linked": [
        {
          "id": "mariner.performances.failure",
          "chance": "45 + ((Min([edge], [forge]) + Round(Abs([edge]-[forge])/2)) * 50) / 20"
        },
        {
          "id": "mariner.performances.failure"
        }
      ]
    },
    {
      "id": "mariner.performances.edge.winter",
      "requirements": {
        "mariner.song.edge": 1,
        "mariner.song.winter": 1
      },
      "aspects": {
        "mariner.signal.performing": 1
      },
      "linked": [
        {
          "id": "mariner.performances.failure",
          "chance": "45 + ((Min([edge], [winter]) + Round(Abs([edge]-[winter])/2)) * 50) / 20"
        },
        {
          "id": "mariner.performances.failure"
        }
      ]
    },
    {
      "id": "mariner.performances.edge.heart",
      "requirements": {
        "mariner.song.edge": 1,
        "mariner.song.heart": 1
      },
      "aspects": {
        "mariner.signal.performing": 1
      },
      "linked": [
        {
          "id": "mariner.performances.edge.heart.success.1",
          "chance": "45 + ((Min([edge], [heart]) + Round(Abs([edge]-[heart])/2)) * 50) / 20"
        },
        {
          "id": "mariner.performances.failure"
        }
      ]
    },
    {
      "id": "mariner.performances.edge.heart.success.1",
      "label": "The Concord of Queens",
      "startdescription": "A knight he marches on he marches on <br>Through the lands he marches on...<br>",
      "warmup": 10,
      "aspects": {
        "mariner.signal.performing": 1
      },
      "linked": [
        {
          "id": "mariner.performances.edge.heart.success.2"
        }
      ]
    },
    {
      "id": "mariner.performances.edge.heart.success.2",
      "label": "The Concord of Queens",
      "startdescription": "The stone queen speaks<br>She speaks the words of Duty<br>Of the ties that bind<br>And the lines that divide <br>And of those borders which never should be crossed at all.<br> <br>But the knight he marches on, he marches on<br>To his doom he marches on<br>",
      "warmup": 10,
      "aspects": {
        "mariner.signal.performing": 1
      },
      "linked": [
        {
          "id": "mariner.performances.edge.heart.success.3"
        }
      ]
    },
    {
      "id": "mariner.performances.edge.heart.success.3",
      "label": "The Concord of Queens",
      "startdescription": "As the wild queen sings<br>She sings the whimper of desire<br>Of the whims on wings of whimsy<br>To be cherished and discarded<br>But which now hurt more than they should<br> <br> As the knight he marches on, he marches on<br> For his love he marches on<br>",
      "warmup": 10,
      "aspects": {
        "mariner.signal.performing": 1
      },
      "linked": [
        {
          "id": "mariner.performances.edge.heart.success.4"
        }
      ]
    },
    {
      "id": "mariner.performances.edge.heart.success.4",
      "label": "The Concord of Queens",
      "startdescription": "As the red queen speaks<br>She speaks of demands of true devotion<br>Of her aspirations for their future<br>And sacrifices now required,<br>An accord that must be made <br> <br>So the pine knight marches on he marches on <br>To a knotted noose he marches on",
      "warmup": 10,
      "aspects": {
        "mariner.signal.performing": 1
      },
      "linked": [
        {
          "id": "mariner.performances.mendcharacter.check"
        }
      ]
    },
    {
      "id": "mariner.performances.edge.grail",
      "requirements": {
        "mariner.song.edge": 1,
        "mariner.song.grail": 1
      },
      "aspects": {
        "mariner.signal.performing": 1
      },
      "linked": [
        {
          "id": "mariner.performances.edge.grail.success.1",
          "chance": "45 + ((Min([edge], [grail]) + Round(Abs([edge]-[grail])/2)) * 50) / 20"
        },
        {
          "id": "mariner.performances.failure"
        }
      ]
    },
    {
      "id": "mariner.performances.edge.grail.success.1",
      "label": "Counting The Winds",
      "startdescription": "Who runs the Winds, Who runs the Wild Hunt?<br>Who herds the clouds, who whips up the stormfronts?<br><br><br>",
      "warmup": 8,
      "aspects": {
        "mariner.signal.performing": 1
      },
      "linked": [
        {
          "id": "mariner.performances.edge.grail.success.2"
        }
      ]
    },
    {
      "id": "mariner.performances.edge.grail.success.2",
      "label": "Counting The Winds",
      "startdescription": "Coarser hunts the Seawinds, the Wild Winds<br><br>Föhn!<br>Mistral!<br>Kataburan!<br>",
      "warmup": 8,
      "aspects": {
        "mariner.signal.performing": 1
      },
      "linked": [
        {
          "id": "mariner.performances.edge.grail.success.3"
        }
      ]
    },
    {
      "id": "mariner.performances.edge.grail.success.3",
      "label": "Counting The Winds",
      "startdescription": "Imago sails the Trade Winds, the Scorch Winds<br><br>Sirocco!<br>No'western!<br>Harmattan!<br>",
      "warmup": 8,
      "aspects": {
        "mariner.signal.performing": 1
      },
      "linked": [
        {
          "id": "mariner.performances.edge.grail.success.4"
        }
      ]
    },
    {
      "id": "mariner.performances.edge.grail.success.4",
      "label": "Counting The Winds",
      "startdescription": "Knotwing rides the Dream Winds, the Mad Winds<br><br>Doctor!<br>st Anna's!<br>Pampero!<br>",
      "warmup": 8,
      "aspects": {
        "mariner.signal.performing": 1
      },
      "linked": [
        {
          "id": "mariner.performances.edge.grail.success.5"
        }
      ]
    },
    {
      "id": "mariner.performances.edge.grail.success.5",
      "label": "Counting The Winds",
      "startdescription": "The Howl stalks the Chill Winds, the Death Winds<br><br>Citanoq!<br>Boran!<br>Kamigari!<br>",
      "warmup": 8,
      "aspects": {
        "mariner.signal.performing": 1
      },
      "linked": [
        {
          "id": "mariner.performances.rouseweather"
        }
      ]
    },
    {
      "id": "mariner.performances.edge.moth",
      "requirements": {
        "mariner.song.edge": 1,
        "mariner.song.moth": 1
      },
      "aspects": {
        "mariner.signal.performing": 1
      },
      "linked": [
        {
          "id": "mariner.performances.failure",
          "chance": "45 + ((Min([edge], [moth]) + Round(Abs([edge]-[moth])/2)) * 50) / 20"
        },
        {
          "id": "mariner.performances.failure"
        }
      ]
    },
    {
      "id": "mariner.performances.edge.knock",
      "requirements": {
        "mariner.song.edge": 1,
        "mariner.song.knock": 1
      },
      "aspects": {
        "mariner.signal.performing": 1
      },
      "linked": [
        {
          "id": "mariner.performances.failure",
          "chance": "45 + ((Min([edge], [knock]) + Round(Abs([edge]-[knock])/2)) * 50) / 20"
        },
        {
          "id": "mariner.performances.failure"
        }
      ]
    }
  ]
}