{
  "recipes": [
    {
      "id": "mariner.vaults.destroywasted",
      "actionId": "mariner.vaults.destroywasted",
      "requirements": {
        "mariner.vaults.help": 1
      },
      "label": "Wasted Opportunity",
      "startdescription": "Wasted Opportunity",
      "description": "Opportunity Wasted",
      "warmup": 10,
      "effects": {
        "mariner.vaults.help": -50
      }
    }
  ]
}