{
  "recipes": [
    {
      "actionId": "talk",
      "craftable": true,
      "id": "mariner.cleanhostile.bar.pre",
      "label": "Tough Crowd",
      "startdescription": "The crowds here have turned sour to me. My name is a curse here, and I will have trouble finding crewmembers, much less passengers. If I put my best face forward, I might be able to turn the crowd. [Approach this challenge with Heart or Grail.]",
      "warmup": 0,
      "aspects": {
        "mariner.signal.useheart": 1
      },
      "requirements": {
        "mariner.bar": 1,
        "mariner.location.hostile": 1
      },
      "extantreqs": {},
      "effects": {},
      "linked": [
        {
          "id": "mariner.cleanhostile.bar"
        }
      ]
    },
    {
      "actionId": "talk",
      "warmup": 0,
      "id": "mariner.cleanhostile.bar",
      "label": "Tough Crowd",
      "startdescription": "The crowds here have turned sour to me. My name is a curse here, and I will have trouble finding crewmembers, much less passengers. If I put my best face forward, I might be able to turn the crowd. [Approach this challenge with Heart or Grail.]",
      "craftable": false,
      "aspects": {
        "mariner.signal.useheart": 1
      },
      "addCallbacks": {
        "FAIL_CHALLENGE": "mariner.cleanhostile.bar.failure",
        "SUCCEED_CHALLENGE": "mariner.cleanhostile.bar.success.expulsewasted"
      },
      "linked": [
        {
          "id": "mariner.challenge.honeyed_tongue"
        }
      ]
    },
    {
      "id": "mariner.cleanhostile.bar.success.expulsewasted",
      "actionId": "talk",
      "linked": [
        {
          "id": "mariner.cleanhostile.bar.success"
        },
        {
          "id": "mariner.cleanhostile.bar.failure"
        }
      ]
    },
    {
      "id": "mariner.cleanhostile.bar.success",
      "actionId": "talk",
      "label": "Turn the Crowd",
      "description": "As any performer knows, audiences are fickle. A few well placed words and this one was on my hand again.",
      "aspects": {
        "mariner.signal.usesong": 1,
        "mariner.signal.usetool": 1,
        "mariner.signal.useheart": 1,
        "mariner.signal.exhaustmelody": 1,
        "mariner.signal.exhauststory": 1,
        "mariner.location.makenothostile": 1
      },
      "effects": {
        "mariner.tune": -1
      }
    },
    {
      "id": "mariner.cleanhostile.bar.failure",
      "actionId": "talk",
      "label": "Unwelcome!",
      "description": "The drinks I buy are hurled back at my face, and the door slams only inches from it.",
      "effects": {
        "mariner.notoriety": 1,
        "mariner.tune": -1
      },
      "linked": [
        {
          "id": "mariner.trouble.start"
        }
      ],
      "aspects": {
        "mariner.signal.usesong": 1,
        "mariner.signal.misusetool": 1,
        "mariner.signal.useheart": 1,
        "mariner.signal.exhaustmelody": 1,
        "mariner.signal.exhauststory": 1
      }
    }
  ]
}