{
  "elements": [
    {
      "verbIcon": "mariner.curses.concealed",
      "id": "mariner.curses.leadheart.concealer",
      "isHidden": true,
      "label": "leadheart concealer element.",
      "aspects": {
        "mariner.curses.concealer": 1
      }
    }
  ]
}