{
  "recipes": [
    {
      "id": "mariner.curses.leadheart.start",
      "actionId": "mariner.curses.leadheart",
      "linked": [
        {
          "id": "mariner.curses.leadheart.sleep"
        }
      ],
      "effects": {
        "mariner.curses.leadheart.concealer": 1
      }
    },
    {
      "id": "mariner.curses.leadheart.sleep",
      "warmup": 800,
      "label": "@#mariner.curses.concealer|Concealed Curse#|Lead Heart Curse@",
      "startdescription": "@#mariner.curses.concealer|This curse is concealed.#|The Lead Heart Curse is approaching...@",
      "effects": {
        "mariner.curses.concealer": -1
      },
      "linked": [
        {
          "id": "mariner.curses.leadheart.applyeffect"
        },
        {
          "id": "mariner.curses.leadheart"
        }
      ]
    },
    {
      "id": "mariner.curses.leadheart",
      "warmup": 20,
      "effects": {
        "mariner.curses.lifetimecounter": 1
      },
      "label": "Lead Heart Curse",
      "startdescription": "The Lead Heart Curse is approaching...",
      "linked": [
        {
          "id": "mariner.curses.leadheart.applyeffect"
        },
        {
          "id": "mariner.curses.leadheart.end"
        },
        {
          "id": "mariner.curses.leadheart"
        }
      ]
    },
    {
      "id": "mariner.curses.leadheart.applyeffect",
      "label": "The Lead Heart: Weighed Down from Within",
      "startdescription": "Each dark thought, each bitter truth, each weighs us down, and pulls us down into that abyss.",
      "warmup": 30,
      "furthermore": [
        {
          "target": "~/visible",
          "aspects": {
            "mariner.signal.exhaustlackheart": 1
          }
        }
      ],
      "linked": [
        {
          "id": "mariner.curses.leadheart.end"
        },
        {
          "id": "mariner.curses.leadheart"
        }
      ]
    },
    {
      "id": "mariner.curses.leadheart.end",
      "label": "Lead Heart Curse Clearing",
      "description": "Crumbling like rusting ore...",
      "requirements": {
        "mariner.curses.lifetimecounter": 50
      },
      "effects": {
        "mariner.curses.lifetimecounter": -50
      }
    }
  ]
}