{
  "recipes": [
    {
      "id": "mariner.upgradesongwith.nature.alreadyused",
      "actionId": "mariner.navigate",
      "label": "Using the same inspiration again?",
      "startdescription": "The soul is not sustained on the familiar. I cannot mine the same source twice. My music might become trite, or even worse, predictable.",
      "hintOnly": true,
      "requirements": {
        "mariner.song": 1,
        "mariner.inspiration.nature": 1,
        "mariner.song.inspirationused.nature": 1
      }
    },
    {
      "id": "mariner.upgradesongwith.nature.lantern",
      "actionId": "mariner.navigate",
      "craftable": true,
      "label": "Upgrade lantern song with Nature Inspiration",
      "startdescription": "Those who think Ideals cannot be found in nature, have not looked up at at the sky, during day or night. I will let it imprint on my retina and compose my song around that perfect circle.",
      "warmup": 60,
      "requirements": {
        "mariner.song.lantern": 1,
        "lantern": 1,
        "mariner.inspiration.nature": 1,
        "mariner.song.inspirationused.nature": -1
      },
      "effects": {
        "mariner.inspirationtype.consumable": -1,
        "mariner.influences.lantern": 6
      },
      "aspects": {
        "mariner.signal.upgradesong": 1
      },
      "mutations": [
        {
          "filter": "mariner.song",
          "mutate": "mariner.song.inspirationused.nature",
          "level": 1
        }
      ],
      "achievements": [
        "mariner.achievements.firstusednatureinspiration"
      ]
    },
    {
      "id": "mariner.upgradesongwith.nature.forge",
      "actionId": "mariner.navigate",
      "craftable": true,
      "label": "Upgrade forge song with Nature Inspiration",
      "startdescription": "The heat of the forge was not the first heat in the world. the engine was not the first form of motion. Nature itself presses forward, ever changing, it only needs a mortal hand to guide it. Today however, I will let nature guide mine.",
      "warmup": 60,
      "requirements": {
        "mariner.song.forge": 1,
        "forge": 1,
        "mariner.inspiration.nature": 1,
        "mariner.song.inspirationused.nature": -1
      },
      "effects": {
        "mariner.inspirationtype.consumable": -1,
        "mariner.influences.forge": 6
      },
      "aspects": {
        "mariner.signal.upgradesong": 1
      },
      "mutations": [
        {
          "filter": "mariner.song",
          "mutate": "mariner.song.inspirationused.nature",
          "level": 1
        }
      ],
      "achievements": [
        "mariner.achievements.firstusednatureinspiration"
      ]
    },
    {
      "id": "mariner.upgradesongwith.nature.edge",
      "actionId": "mariner.navigate",
      "craftable": true,
      "label": "Upgrade edge song with Nature Inspiration",
      "startdescription": "A man can only know themselves when opposed, and on some days one can feel there is no truer opposition to mankind than nature. I will write an anthem that will inspire you to take up arms against impossible odds.",
      "warmup": 60,
      "requirements": {
        "mariner.song.edge": 1,
        "edge": 1,
        "mariner.inspiration.nature": 1,
        "mariner.song.inspirationused.nature": -1
      },
      "effects": {
        "mariner.inspirationtype.consumable": -1,
        "mariner.influences.edge": 6
      },
      "aspects": {
        "mariner.signal.upgradesong": 1
      },
      "mutations": [
        {
          "filter": "mariner.song",
          "mutate": "mariner.song.inspirationused.nature",
          "level": 1
        }
      ],
      "achievements": [
        "mariner.achievements.firstusednatureinspiration"
      ]
    },
    {
      "id": "mariner.upgradesongwith.nature.winter",
      "actionId": "mariner.navigate",
      "craftable": true,
      "label": "Upgrade winter song with Nature Inspiration",
      "startdescription": "Starting this song seems an impossibility, for I loathe to besmirch the perfect snow-white blankness of the page. In the end, I only commit the notes to memory, but there they shall remain for all eternity.",
      "warmup": 60,
      "requirements": {
        "mariner.song.winter": 1,
        "winter": 1,
        "mariner.inspiration.nature": 1,
        "mariner.song.inspirationused.nature": -1
      },
      "effects": {
        "mariner.inspirationtype.consumable": -1,
        "mariner.influences.winter": 6
      },
      "aspects": {
        "mariner.signal.upgradesong": 1
      },
      "mutations": [
        {
          "filter": "mariner.song",
          "mutate": "mariner.song.inspirationused.nature",
          "level": 1
        }
      ],
      "achievements": [
        "mariner.achievements.firstusednatureinspiration"
      ]
    },
    {
      "id": "mariner.upgradesongwith.nature.heart",
      "actionId": "mariner.navigate",
      "craftable": true,
      "label": "Upgrade heart song with Nature Inspiration",
      "startdescription": "The world is a song thats sings eternal, with rhythms expressed in rain and wind and thundering heartbeats. I shall touch them briefly in this composition, and portray a fragment of their intensity,",
      "warmup": 60,
      "requirements": {
        "mariner.song.heart": 1,
        "heart": 1,
        "mariner.inspiration.nature": 1,
        "mariner.song.inspirationused.nature": -1
      },
      "effects": {
        "mariner.inspirationtype.consumable": -1,
        "mariner.influences.heart": 6
      },
      "aspects": {
        "mariner.signal.upgradesong": 1
      },
      "mutations": [
        {
          "filter": "mariner.song",
          "mutate": "mariner.song.inspirationused.nature",
          "level": 1
        }
      ],
      "achievements": [
        "mariner.achievements.firstusednatureinspiration"
      ]
    },
    {
      "id": "mariner.upgradesongwith.nature.grail",
      "actionId": "mariner.navigate",
      "craftable": true,
      "label": "Upgrade grail song with Nature Inspiration",
      "startdescription": "The sweet, the salt, the deep, the bright. This song is inspired by all that we crave for, all that that is to vast and too intense for us too behold.",
      "warmup": 60,
      "requirements": {
        "mariner.song.grail": 1,
        "grail": 1,
        "mariner.inspiration.nature": 1,
        "mariner.song.inspirationused.nature": -1
      },
      "effects": {
        "mariner.inspirationtype.consumable": -1,
        "mariner.influences.grail": 6
      },
      "aspects": {
        "mariner.signal.upgradesong": 1
      },
      "mutations": [
        {
          "filter": "mariner.song",
          "mutate": "mariner.song.inspirationused.nature",
          "level": 1
        }
      ],
      "achievements": [
        "mariner.achievements.firstusednatureinspiration"
      ]
    },
    {
      "id": "mariner.upgradesongwith.nature.moth",
      "actionId": "mariner.navigate",
      "craftable": true,
      "label": "Upgrade moth song with Nature Inspiration",
      "startdescription": "Finding the right notes for this song is always a hunt. A hunt of the wind between the leaves, of grey paws through greyer mist. I learn that I do not need to understand what I see, and I do not need to see to understand.",
      "warmup": 60,
      "requirements": {
        "mariner.song.moth": 1,
        "moth": 1,
        "mariner.inspiration.nature": 1,
        "mariner.song.inspirationused.nature": -1
      },
      "effects": {
        "mariner.inspirationtype.consumable": -1,
        "mariner.influences.moth": 6
      },
      "aspects": {
        "mariner.signal.upgradesong": 1
      },
      "mutations": [
        {
          "filter": "mariner.song",
          "mutate": "mariner.song.inspirationused.nature",
          "level": 1
        }
      ],
      "achievements": [
        "mariner.achievements.firstusednatureinspiration"
      ]
    },
    {
      "id": "mariner.upgradesongwith.nature.knock",
      "actionId": "mariner.navigate",
      "craftable": true,
      "label": "Upgrade knock song with Nature Inspiration",
      "startdescription": "The moon is a sliver outside my window, and has granted me a new understanding. I do not pen down, I slice. I carve from the sheet what is not needed, and my notes can be found in the spaces in between.",
      "warmup": 60,
      "requirements": {
        "mariner.song.knock": 1,
        "knock": 1,
        "mariner.inspiration.nature": 1,
        "mariner.song.inspirationused.nature": -1
      },
      "effects": {
        "mariner.inspirationtype.consumable": -1,
        "mariner.influences.knock": 6
      },
      "aspects": {
        "mariner.signal.upgradesong": 1
      },
      "mutations": [
        {
          "filter": "mariner.song",
          "mutate": "mariner.song.inspirationused.nature",
          "level": 1
        }
      ],
      "achievements": [
        "mariner.achievements.firstusednatureinspiration"
      ]
    },
    {
      "id": "mariner.upgradesongwith.muse.lantern",
      "actionId": "mariner.navigate",
      "craftable": true,
      "label": "Upgrade lantern song with Muse Inspiration",
      "startdescription": "",
      "warmup": 60,
      "requirements": {
        "mariner.song.lantern": 1,
        "lantern": 1,
        "mariner.inspiration.muse": 1,
        "mariner.song.inspirationused.muse": -1
      },
      "effects": {
        "mariner.inspirationtype.consumable": -1,
        "mariner.influences.lantern": 6
      },
      "aspects": {
        "mariner.signal.upgradesong": 1
      },
      "mutations": [
        {
          "filter": "mariner.song",
          "mutate": "mariner.song.inspirationused.muse",
          "level": 1
        }
      ],
      "achievements": [
        "mariner.achievements.firstusedmuseinspiration"
      ]
    },
    {
      "id": "mariner.upgradesongwith.muse.forge",
      "actionId": "mariner.navigate",
      "craftable": true,
      "label": "Upgrade forge song with Muse Inspiration",
      "startdescription": "",
      "warmup": 60,
      "requirements": {
        "mariner.song.forge": 1,
        "forge": 1,
        "mariner.inspiration.muse": 1,
        "mariner.song.inspirationused.muse": -1
      },
      "effects": {
        "mariner.inspirationtype.consumable": -1,
        "mariner.influences.forge": 6
      },
      "aspects": {
        "mariner.signal.upgradesong": 1
      },
      "mutations": [
        {
          "filter": "mariner.song",
          "mutate": "mariner.song.inspirationused.muse",
          "level": 1
        }
      ],
      "achievements": [
        "mariner.achievements.firstusedmuseinspiration"
      ]
    },
    {
      "id": "mariner.upgradesongwith.muse.edge",
      "actionId": "mariner.navigate",
      "craftable": true,
      "label": "Upgrade edge song with Muse Inspiration",
      "startdescription": "",
      "warmup": 60,
      "requirements": {
        "mariner.song.edge": 1,
        "edge": 1,
        "mariner.inspiration.muse": 1,
        "mariner.song.inspirationused.muse": -1
      },
      "effects": {
        "mariner.inspirationtype.consumable": -1,
        "mariner.influences.edge": 6
      },
      "aspects": {
        "mariner.signal.upgradesong": 1
      },
      "mutations": [
        {
          "filter": "mariner.song",
          "mutate": "mariner.song.inspirationused.muse",
          "level": 1
        }
      ],
      "achievements": [
        "mariner.achievements.firstusedmuseinspiration"
      ]
    },
    {
      "id": "mariner.upgradesongwith.muse.winter",
      "actionId": "mariner.navigate",
      "craftable": true,
      "label": "Upgrade winter song with Muse Inspiration",
      "startdescription": "",
      "warmup": 60,
      "requirements": {
        "mariner.song.winter": 1,
        "winter": 1,
        "mariner.inspiration.muse": 1,
        "mariner.song.inspirationused.muse": -1
      },
      "effects": {
        "mariner.inspirationtype.consumable": -1,
        "mariner.influences.winter": 6
      },
      "aspects": {
        "mariner.signal.upgradesong": 1
      },
      "mutations": [
        {
          "filter": "mariner.song",
          "mutate": "mariner.song.inspirationused.muse",
          "level": 1
        }
      ],
      "achievements": [
        "mariner.achievements.firstusedmuseinspiration"
      ]
    },
    {
      "id": "mariner.upgradesongwith.muse.heart",
      "actionId": "mariner.navigate",
      "craftable": true,
      "label": "Upgrade heart song with Muse Inspiration",
      "startdescription": "",
      "warmup": 60,
      "requirements": {
        "mariner.song.heart": 1,
        "heart": 1,
        "mariner.inspiration.muse": 1,
        "mariner.song.inspirationused.muse": -1
      },
      "effects": {
        "mariner.inspirationtype.consumable": -1,
        "mariner.influences.heart": 6
      },
      "aspects": {
        "mariner.signal.upgradesong": 1
      },
      "mutations": [
        {
          "filter": "mariner.song",
          "mutate": "mariner.song.inspirationused.muse",
          "level": 1
        }
      ],
      "achievements": [
        "mariner.achievements.firstusedmuseinspiration"
      ]
    },
    {
      "id": "mariner.upgradesongwith.muse.grail",
      "actionId": "mariner.navigate",
      "craftable": true,
      "label": "Upgrade grail song with Muse Inspiration",
      "startdescription": "I am full of memories of her, but I shall not make my inspiration plain. She has thaught me that desire is as much what you hold back as what you give.",
      "warmup": 60,
      "requirements": {
        "mariner.song.grail": 1,
        "grail": 1,
        "mariner.inspiration.muse": 1,
        "mariner.song.inspirationused.muse": -1
      },
      "effects": {
        "mariner.inspirationtype.consumable": -1,
        "mariner.influences.grail": 6
      },
      "aspects": {
        "mariner.signal.upgradesong": 1
      },
      "mutations": [
        {
          "filter": "mariner.song",
          "mutate": "mariner.song.inspirationused.muse",
          "level": 1
        }
      ],
      "achievements": [
        "mariner.achievements.firstusedmuseinspiration"
      ]
    },
    {
      "id": "mariner.upgradesongwith.muse.moth",
      "actionId": "mariner.navigate",
      "craftable": true,
      "label": "Upgrade moth song with Muse Inspiration",
      "startdescription": "",
      "warmup": 60,
      "requirements": {
        "mariner.song.moth": 1,
        "moth": 1,
        "mariner.inspiration.muse": 1,
        "mariner.song.inspirationused.muse": -1
      },
      "effects": {
        "mariner.inspirationtype.consumable": -1,
        "mariner.influences.moth": 6
      },
      "aspects": {
        "mariner.signal.upgradesong": 1
      },
      "mutations": [
        {
          "filter": "mariner.song",
          "mutate": "mariner.song.inspirationused.muse",
          "level": 1
        }
      ],
      "achievements": [
        "mariner.achievements.firstusedmuseinspiration"
      ]
    },
    {
      "id": "mariner.upgradesongwith.muse.knock",
      "actionId": "mariner.navigate",
      "craftable": true,
      "label": "Upgrade knock song with Muse Inspiration",
      "startdescription": "",
      "warmup": 60,
      "requirements": {
        "mariner.song.knock": 1,
        "knock": 1,
        "mariner.inspiration.muse": 1,
        "mariner.song.inspirationused.muse": -1
      },
      "effects": {
        "mariner.inspirationtype.consumable": -1,
        "mariner.influences.knock": 6
      },
      "aspects": {
        "mariner.signal.upgradesong": 1
      },
      "mutations": [
        {
          "filter": "mariner.song",
          "mutate": "mariner.song.inspirationused.muse",
          "level": 1
        }
      ],
      "achievements": [
        "mariner.achievements.firstusedmuseinspiration"
      ]
    },
    {
      "id": "mariner.upgradesongwith.melody.lantern",
      "actionId": "mariner.navigate",
      "craftable": true,
      "label": "Upgrade lantern song with Melody Inspiration",
      "startdescription": "",
      "warmup": 60,
      "requirements": {
        "mariner.song.lantern": 1,
        "lantern": 1,
        "mariner.inspiration.melody": 1,
        "mariner.song.inspirationused.melody": -1
      },
      "effects": {
        "mariner.inspirationtype.consumable": -1,
        "mariner.influences.lantern": 6
      },
      "aspects": {
        "mariner.signal.upgradesong": 1
      },
      "mutations": [
        {
          "filter": "mariner.song",
          "mutate": "mariner.song.inspirationused.melody",
          "level": 1
        }
      ],
      "achievements": [
        "mariner.achievements.firstusedmelodyinspiration"
      ]
    },
    {
      "id": "mariner.upgradesongwith.melody.forge",
      "actionId": "mariner.navigate",
      "craftable": true,
      "label": "Upgrade forge song with Melody Inspiration",
      "startdescription": "",
      "warmup": 60,
      "requirements": {
        "mariner.song.forge": 1,
        "forge": 1,
        "mariner.inspiration.melody": 1,
        "mariner.song.inspirationused.melody": -1
      },
      "effects": {
        "mariner.inspirationtype.consumable": -1,
        "mariner.influences.forge": 6
      },
      "aspects": {
        "mariner.signal.upgradesong": 1
      },
      "mutations": [
        {
          "filter": "mariner.song",
          "mutate": "mariner.song.inspirationused.melody",
          "level": 1
        }
      ],
      "achievements": [
        "mariner.achievements.firstusedmelodyinspiration"
      ]
    },
    {
      "id": "mariner.upgradesongwith.melody.edge",
      "actionId": "mariner.navigate",
      "craftable": true,
      "label": "Upgrade edge song with Melody Inspiration",
      "startdescription": "",
      "warmup": 60,
      "requirements": {
        "mariner.song.edge": 1,
        "edge": 1,
        "mariner.inspiration.melody": 1,
        "mariner.song.inspirationused.melody": -1
      },
      "effects": {
        "mariner.inspirationtype.consumable": -1,
        "mariner.influences.edge": 6
      },
      "aspects": {
        "mariner.signal.upgradesong": 1
      },
      "mutations": [
        {
          "filter": "mariner.song",
          "mutate": "mariner.song.inspirationused.melody",
          "level": 1
        }
      ],
      "achievements": [
        "mariner.achievements.firstusedmelodyinspiration"
      ]
    },
    {
      "id": "mariner.upgradesongwith.melody.winter",
      "actionId": "mariner.navigate",
      "craftable": true,
      "label": "Upgrade winter song with Melody Inspiration",
      "startdescription": "I am inspired by all of the whole score, but I the magic I capture is from the final notes, and the silence that follows.",
      "warmup": 60,
      "requirements": {
        "mariner.song.winter": 1,
        "winter": 1,
        "mariner.inspiration.melody": 1,
        "mariner.song.inspirationused.melody": -1
      },
      "effects": {
        "mariner.inspirationtype.consumable": -1,
        "mariner.influences.winter": 6
      },
      "aspects": {
        "mariner.signal.upgradesong": 1
      },
      "mutations": [
        {
          "filter": "mariner.song",
          "mutate": "mariner.song.inspirationused.melody",
          "level": 1
        }
      ],
      "achievements": [
        "mariner.achievements.firstusedmelodyinspiration"
      ]
    },
    {
      "id": "mariner.upgradesongwith.melody.heart",
      "actionId": "mariner.navigate",
      "craftable": true,
      "label": "Upgrade heart song with Melody Inspiration",
      "startdescription": "",
      "warmup": 60,
      "requirements": {
        "mariner.song.heart": 1,
        "heart": 1,
        "mariner.inspiration.melody": 1,
        "mariner.song.inspirationused.melody": -1
      },
      "effects": {
        "mariner.inspirationtype.consumable": -1,
        "mariner.influences.heart": 6
      },
      "aspects": {
        "mariner.signal.upgradesong": 1
      },
      "mutations": [
        {
          "filter": "mariner.song",
          "mutate": "mariner.song.inspirationused.melody",
          "level": 1
        }
      ],
      "achievements": [
        "mariner.achievements.firstusedmelodyinspiration"
      ]
    },
    {
      "id": "mariner.upgradesongwith.melody.grail",
      "actionId": "mariner.navigate",
      "craftable": true,
      "label": "Upgrade grail song with Melody Inspiration",
      "startdescription": "",
      "warmup": 60,
      "requirements": {
        "mariner.song.grail": 1,
        "grail": 1,
        "mariner.inspiration.melody": 1,
        "mariner.song.inspirationused.melody": -1
      },
      "effects": {
        "mariner.inspirationtype.consumable": -1,
        "mariner.influences.grail": 6
      },
      "aspects": {
        "mariner.signal.upgradesong": 1
      },
      "mutations": [
        {
          "filter": "mariner.song",
          "mutate": "mariner.song.inspirationused.melody",
          "level": 1
        }
      ],
      "achievements": [
        "mariner.achievements.firstusedmelodyinspiration"
      ]
    },
    {
      "id": "mariner.upgradesongwith.melody.moth",
      "actionId": "mariner.navigate",
      "craftable": true,
      "label": "Upgrade moth song with Melody Inspiration",
      "startdescription": "",
      "warmup": 60,
      "requirements": {
        "mariner.song.moth": 1,
        "moth": 1,
        "mariner.inspiration.melody": 1,
        "mariner.song.inspirationused.melody": -1
      },
      "effects": {
        "mariner.inspirationtype.consumable": -1,
        "mariner.influences.moth": 6
      },
      "aspects": {
        "mariner.signal.upgradesong": 1
      },
      "mutations": [
        {
          "filter": "mariner.song",
          "mutate": "mariner.song.inspirationused.melody",
          "level": 1
        }
      ],
      "achievements": [
        "mariner.achievements.firstusedmelodyinspiration"
      ]
    },
    {
      "id": "mariner.upgradesongwith.melody.knock",
      "actionId": "mariner.navigate",
      "craftable": true,
      "label": "Upgrade knock song with Melody Inspiration",
      "startdescription": "",
      "warmup": 60,
      "requirements": {
        "mariner.song.knock": 1,
        "knock": 1,
        "mariner.inspiration.melody": 1,
        "mariner.song.inspirationused.melody": -1
      },
      "effects": {
        "mariner.inspirationtype.consumable": -1,
        "mariner.influences.knock": 6
      },
      "aspects": {
        "mariner.signal.upgradesong": 1
      },
      "mutations": [
        {
          "filter": "mariner.song",
          "mutate": "mariner.song.inspirationused.melody",
          "level": 1
        }
      ],
      "achievements": [
        "mariner.achievements.firstusedmelodyinspiration"
      ]
    },
    {
      "id": "mariner.upgradesongwith.location.lantern",
      "actionId": "mariner.navigate",
      "craftable": true,
      "label": "Upgrade lantern song with Location Inspiration",
      "startdescription": "",
      "warmup": 60,
      "requirements": {
        "mariner.song.lantern": 1,
        "lantern": 1,
        "mariner.inspiration.location": 1,
        "mariner.song.inspirationused.location": -1
      },
      "effects": {
        "mariner.inspirationtype.consumable": -1,
        "mariner.influences.lantern": 6
      },
      "aspects": {
        "mariner.signal.upgradesong": 1
      },
      "mutations": [
        {
          "filter": "mariner.song",
          "mutate": "mariner.song.inspirationused.location",
          "level": 1
        }
      ],
      "achievements": [
        "mariner.achievements.firstusedlocationinspiration"
      ]
    },
    {
      "id": "mariner.upgradesongwith.location.forge",
      "actionId": "mariner.navigate",
      "craftable": true,
      "label": "Upgrade forge song with Location Inspiration",
      "startdescription": "",
      "warmup": 60,
      "requirements": {
        "mariner.song.forge": 1,
        "forge": 1,
        "mariner.inspiration.location": 1,
        "mariner.song.inspirationused.location": -1
      },
      "effects": {
        "mariner.inspirationtype.consumable": -1,
        "mariner.influences.forge": 6
      },
      "aspects": {
        "mariner.signal.upgradesong": 1
      },
      "mutations": [
        {
          "filter": "mariner.song",
          "mutate": "mariner.song.inspirationused.location",
          "level": 1
        }
      ],
      "achievements": [
        "mariner.achievements.firstusedlocationinspiration"
      ]
    },
    {
      "id": "mariner.upgradesongwith.location.edge",
      "actionId": "mariner.navigate",
      "craftable": true,
      "label": "Upgrade edge song with Location Inspiration",
      "startdescription": "",
      "warmup": 60,
      "requirements": {
        "mariner.song.edge": 1,
        "edge": 1,
        "mariner.inspiration.location": 1,
        "mariner.song.inspirationused.location": -1
      },
      "effects": {
        "mariner.inspirationtype.consumable": -1,
        "mariner.influences.edge": 6
      },
      "aspects": {
        "mariner.signal.upgradesong": 1
      },
      "mutations": [
        {
          "filter": "mariner.song",
          "mutate": "mariner.song.inspirationused.location",
          "level": 1
        }
      ],
      "achievements": [
        "mariner.achievements.firstusedlocationinspiration"
      ]
    },
    {
      "id": "mariner.upgradesongwith.location.winter",
      "actionId": "mariner.navigate",
      "craftable": true,
      "label": "Upgrade winter song with Location Inspiration",
      "startdescription": "",
      "warmup": 60,
      "requirements": {
        "mariner.song.winter": 1,
        "winter": 1,
        "mariner.inspiration.location": 1,
        "mariner.song.inspirationused.location": -1
      },
      "effects": {
        "mariner.inspirationtype.consumable": -1,
        "mariner.influences.winter": 6
      },
      "aspects": {
        "mariner.signal.upgradesong": 1
      },
      "mutations": [
        {
          "filter": "mariner.song",
          "mutate": "mariner.song.inspirationused.location",
          "level": 1
        }
      ],
      "achievements": [
        "mariner.achievements.firstusedlocationinspiration"
      ]
    },
    {
      "id": "mariner.upgradesongwith.location.heart",
      "actionId": "mariner.navigate",
      "craftable": true,
      "label": "Upgrade heart song with Location Inspiration",
      "startdescription": "",
      "warmup": 60,
      "requirements": {
        "mariner.song.heart": 1,
        "heart": 1,
        "mariner.inspiration.location": 1,
        "mariner.song.inspirationused.location": -1
      },
      "effects": {
        "mariner.inspirationtype.consumable": -1,
        "mariner.influences.heart": 6
      },
      "aspects": {
        "mariner.signal.upgradesong": 1
      },
      "mutations": [
        {
          "filter": "mariner.song",
          "mutate": "mariner.song.inspirationused.location",
          "level": 1
        }
      ],
      "achievements": [
        "mariner.achievements.firstusedlocationinspiration"
      ]
    },
    {
      "id": "mariner.upgradesongwith.location.grail",
      "actionId": "mariner.navigate",
      "craftable": true,
      "label": "Upgrade grail song with Location Inspiration",
      "startdescription": "",
      "warmup": 60,
      "requirements": {
        "mariner.song.grail": 1,
        "grail": 1,
        "mariner.inspiration.location": 1,
        "mariner.song.inspirationused.location": -1
      },
      "effects": {
        "mariner.inspirationtype.consumable": -1,
        "mariner.influences.grail": 6
      },
      "aspects": {
        "mariner.signal.upgradesong": 1
      },
      "mutations": [
        {
          "filter": "mariner.song",
          "mutate": "mariner.song.inspirationused.location",
          "level": 1
        }
      ],
      "achievements": [
        "mariner.achievements.firstusedlocationinspiration"
      ]
    },
    {
      "id": "mariner.upgradesongwith.location.moth",
      "actionId": "mariner.navigate",
      "craftable": true,
      "label": "Upgrade moth song with Location Inspiration",
      "startdescription": "",
      "warmup": 60,
      "requirements": {
        "mariner.song.moth": 1,
        "moth": 1,
        "mariner.inspiration.location": 1,
        "mariner.song.inspirationused.location": -1
      },
      "effects": {
        "mariner.inspirationtype.consumable": -1,
        "mariner.influences.moth": 6
      },
      "aspects": {
        "mariner.signal.upgradesong": 1
      },
      "mutations": [
        {
          "filter": "mariner.song",
          "mutate": "mariner.song.inspirationused.location",
          "level": 1
        }
      ],
      "achievements": [
        "mariner.achievements.firstusedlocationinspiration"
      ]
    },
    {
      "id": "mariner.upgradesongwith.location.knock",
      "actionId": "mariner.navigate",
      "craftable": true,
      "label": "Upgrade knock song with Location Inspiration",
      "startdescription": "",
      "warmup": 60,
      "requirements": {
        "mariner.song.knock": 1,
        "knock": 1,
        "mariner.inspiration.location": 1,
        "mariner.song.inspirationused.location": -1
      },
      "effects": {
        "mariner.inspirationtype.consumable": -1,
        "mariner.influences.knock": 6
      },
      "aspects": {
        "mariner.signal.upgradesong": 1
      },
      "mutations": [
        {
          "filter": "mariner.song",
          "mutate": "mariner.song.inspirationused.location",
          "level": 1
        }
      ],
      "achievements": [
        "mariner.achievements.firstusedlocationinspiration"
      ]
    },
    {
      "id": "mariner.upgradesongwith.instrument.lantern",
      "actionId": "mariner.navigate",
      "craftable": true,
      "label": "Upgrade lantern song with Instrument Inspiration",
      "startdescription": "",
      "warmup": 60,
      "requirements": {
        "mariner.song.lantern": 1,
        "lantern": 1,
        "mariner.inspiration.instrument": 1,
        "mariner.song.inspirationused.instrument": -1
      },
      "effects": {
        "mariner.inspirationtype.consumable": -1,
        "mariner.influences.lantern": 6
      },
      "aspects": {
        "mariner.signal.upgradesong": 1
      },
      "mutations": [
        {
          "filter": "mariner.song",
          "mutate": "mariner.song.inspirationused.instrument",
          "level": 1
        }
      ],
      "achievements": [
        "mariner.achievements.firstusedinstrumentinspiration"
      ]
    },
    {
      "id": "mariner.upgradesongwith.instrument.forge",
      "actionId": "mariner.navigate",
      "craftable": true,
      "label": "Upgrade forge song with Instrument Inspiration",
      "startdescription": "",
      "warmup": 60,
      "requirements": {
        "mariner.song.forge": 1,
        "forge": 1,
        "mariner.inspiration.instrument": 1,
        "mariner.song.inspirationused.instrument": -1
      },
      "effects": {
        "mariner.inspirationtype.consumable": -1,
        "mariner.influences.forge": 6
      },
      "aspects": {
        "mariner.signal.upgradesong": 1
      },
      "mutations": [
        {
          "filter": "mariner.song",
          "mutate": "mariner.song.inspirationused.instrument",
          "level": 1
        }
      ],
      "achievements": [
        "mariner.achievements.firstusedinstrumentinspiration"
      ]
    },
    {
      "id": "mariner.upgradesongwith.instrument.edge",
      "actionId": "mariner.navigate",
      "craftable": true,
      "label": "Upgrade edge song with Instrument Inspiration",
      "startdescription": "",
      "warmup": 60,
      "requirements": {
        "mariner.song.edge": 1,
        "edge": 1,
        "mariner.inspiration.instrument": 1,
        "mariner.song.inspirationused.instrument": -1
      },
      "effects": {
        "mariner.inspirationtype.consumable": -1,
        "mariner.influences.edge": 6
      },
      "aspects": {
        "mariner.signal.upgradesong": 1
      },
      "mutations": [
        {
          "filter": "mariner.song",
          "mutate": "mariner.song.inspirationused.instrument",
          "level": 1
        }
      ],
      "achievements": [
        "mariner.achievements.firstusedinstrumentinspiration"
      ]
    },
    {
      "id": "mariner.upgradesongwith.instrument.winter",
      "actionId": "mariner.navigate",
      "craftable": true,
      "label": "Upgrade winter song with Instrument Inspiration",
      "startdescription": "",
      "warmup": 60,
      "requirements": {
        "mariner.song.winter": 1,
        "winter": 1,
        "mariner.inspiration.instrument": 1,
        "mariner.song.inspirationused.instrument": -1
      },
      "effects": {
        "mariner.inspirationtype.consumable": -1,
        "mariner.influences.winter": 6
      },
      "aspects": {
        "mariner.signal.upgradesong": 1
      },
      "mutations": [
        {
          "filter": "mariner.song",
          "mutate": "mariner.song.inspirationused.instrument",
          "level": 1
        }
      ],
      "achievements": [
        "mariner.achievements.firstusedinstrumentinspiration"
      ]
    },
    {
      "id": "mariner.upgradesongwith.instrument.heart",
      "actionId": "mariner.navigate",
      "craftable": true,
      "label": "Upgrade heart song with Instrument Inspiration",
      "startdescription": "",
      "warmup": 60,
      "requirements": {
        "mariner.song.heart": 1,
        "heart": 1,
        "mariner.inspiration.instrument": 1,
        "mariner.song.inspirationused.instrument": -1
      },
      "effects": {
        "mariner.inspirationtype.consumable": -1,
        "mariner.influences.heart": 6
      },
      "aspects": {
        "mariner.signal.upgradesong": 1
      },
      "mutations": [
        {
          "filter": "mariner.song",
          "mutate": "mariner.song.inspirationused.instrument",
          "level": 1
        }
      ],
      "achievements": [
        "mariner.achievements.firstusedinstrumentinspiration"
      ]
    },
    {
      "id": "mariner.upgradesongwith.instrument.grail",
      "actionId": "mariner.navigate",
      "craftable": true,
      "label": "Upgrade grail song with Instrument Inspiration",
      "startdescription": "",
      "warmup": 60,
      "requirements": {
        "mariner.song.grail": 1,
        "grail": 1,
        "mariner.inspiration.instrument": 1,
        "mariner.song.inspirationused.instrument": -1
      },
      "effects": {
        "mariner.inspirationtype.consumable": -1,
        "mariner.influences.grail": 6
      },
      "aspects": {
        "mariner.signal.upgradesong": 1
      },
      "mutations": [
        {
          "filter": "mariner.song",
          "mutate": "mariner.song.inspirationused.instrument",
          "level": 1
        }
      ],
      "achievements": [
        "mariner.achievements.firstusedinstrumentinspiration"
      ]
    },
    {
      "id": "mariner.upgradesongwith.instrument.moth",
      "actionId": "mariner.navigate",
      "craftable": true,
      "label": "Upgrade moth song with Instrument Inspiration",
      "startdescription": "",
      "warmup": 60,
      "requirements": {
        "mariner.song.moth": 1,
        "moth": 1,
        "mariner.inspiration.instrument": 1,
        "mariner.song.inspirationused.instrument": -1
      },
      "effects": {
        "mariner.inspirationtype.consumable": -1,
        "mariner.influences.moth": 6
      },
      "aspects": {
        "mariner.signal.upgradesong": 1
      },
      "mutations": [
        {
          "filter": "mariner.song",
          "mutate": "mariner.song.inspirationused.instrument",
          "level": 1
        }
      ],
      "achievements": [
        "mariner.achievements.firstusedinstrumentinspiration"
      ]
    },
    {
      "id": "mariner.upgradesongwith.instrument.knock",
      "actionId": "mariner.navigate",
      "craftable": true,
      "label": "Upgrade knock song with Instrument Inspiration",
      "startdescription": "",
      "warmup": 60,
      "requirements": {
        "mariner.song.knock": 1,
        "knock": 1,
        "mariner.inspiration.instrument": 1,
        "mariner.song.inspirationused.instrument": -1
      },
      "effects": {
        "mariner.inspirationtype.consumable": -1,
        "mariner.influences.knock": 6
      },
      "aspects": {
        "mariner.signal.upgradesong": 1
      },
      "mutations": [
        {
          "filter": "mariner.song",
          "mutate": "mariner.song.inspirationused.instrument",
          "level": 1
        }
      ],
      "achievements": [
        "mariner.achievements.firstusedinstrumentinspiration"
      ]
    },
    {
      "id": "mariner.upgradesongwith.experience.lantern",
      "actionId": "mariner.navigate",
      "craftable": true,
      "label": "Upgrade lantern song with Experience Inspiration",
      "startdescription": "",
      "warmup": 60,
      "requirements": {
        "mariner.song.lantern": 1,
        "lantern": 1,
        "mariner.inspiration.experience": 1,
        "mariner.song.inspirationused.experience": -1
      },
      "effects": {
        "mariner.inspirationtype.consumable": -1,
        "mariner.influences.lantern": 6
      },
      "aspects": {
        "mariner.signal.upgradesong": 1
      },
      "mutations": [
        {
          "filter": "mariner.song",
          "mutate": "mariner.song.inspirationused.experience",
          "level": 1
        }
      ],
      "achievements": [
        "mariner.achievements.firstusedexperienceinspiration"
      ]
    },
    {
      "id": "mariner.upgradesongwith.experience.forge",
      "actionId": "mariner.navigate",
      "craftable": true,
      "label": "Upgrade forge song with Experience Inspiration",
      "startdescription": "",
      "warmup": 60,
      "requirements": {
        "mariner.song.forge": 1,
        "forge": 1,
        "mariner.inspiration.experience": 1,
        "mariner.song.inspirationused.experience": -1
      },
      "effects": {
        "mariner.inspirationtype.consumable": -1,
        "mariner.influences.forge": 6
      },
      "aspects": {
        "mariner.signal.upgradesong": 1
      },
      "mutations": [
        {
          "filter": "mariner.song",
          "mutate": "mariner.song.inspirationused.experience",
          "level": 1
        }
      ],
      "achievements": [
        "mariner.achievements.firstusedexperienceinspiration"
      ]
    },
    {
      "id": "mariner.upgradesongwith.experience.edge",
      "actionId": "mariner.navigate",
      "craftable": true,
      "label": "Upgrade edge song with Experience Inspiration",
      "startdescription": "",
      "warmup": 60,
      "requirements": {
        "mariner.song.edge": 1,
        "edge": 1,
        "mariner.inspiration.experience": 1,
        "mariner.song.inspirationused.experience": -1
      },
      "effects": {
        "mariner.inspirationtype.consumable": -1,
        "mariner.influences.edge": 6
      },
      "aspects": {
        "mariner.signal.upgradesong": 1
      },
      "mutations": [
        {
          "filter": "mariner.song",
          "mutate": "mariner.song.inspirationused.experience",
          "level": 1
        }
      ],
      "achievements": [
        "mariner.achievements.firstusedexperienceinspiration"
      ]
    },
    {
      "id": "mariner.upgradesongwith.experience.winter",
      "actionId": "mariner.navigate",
      "craftable": true,
      "label": "Upgrade winter song with Experience Inspiration",
      "startdescription": "",
      "warmup": 60,
      "requirements": {
        "mariner.song.winter": 1,
        "winter": 1,
        "mariner.inspiration.experience": 1,
        "mariner.song.inspirationused.experience": -1
      },
      "effects": {
        "mariner.inspirationtype.consumable": -1,
        "mariner.influences.winter": 6
      },
      "aspects": {
        "mariner.signal.upgradesong": 1
      },
      "mutations": [
        {
          "filter": "mariner.song",
          "mutate": "mariner.song.inspirationused.experience",
          "level": 1
        }
      ],
      "achievements": [
        "mariner.achievements.firstusedexperienceinspiration"
      ]
    },
    {
      "id": "mariner.upgradesongwith.experience.heart",
      "actionId": "mariner.navigate",
      "craftable": true,
      "label": "Upgrade heart song with Experience Inspiration",
      "startdescription": "",
      "warmup": 60,
      "requirements": {
        "mariner.song.heart": 1,
        "heart": 1,
        "mariner.inspiration.experience": 1,
        "mariner.song.inspirationused.experience": -1
      },
      "effects": {
        "mariner.inspirationtype.consumable": -1,
        "mariner.influences.heart": 6
      },
      "aspects": {
        "mariner.signal.upgradesong": 1
      },
      "mutations": [
        {
          "filter": "mariner.song",
          "mutate": "mariner.song.inspirationused.experience",
          "level": 1
        }
      ],
      "achievements": [
        "mariner.achievements.firstusedexperienceinspiration"
      ]
    },
    {
      "id": "mariner.upgradesongwith.experience.grail",
      "actionId": "mariner.navigate",
      "craftable": true,
      "label": "Upgrade grail song with Experience Inspiration",
      "startdescription": "",
      "warmup": 60,
      "requirements": {
        "mariner.song.grail": 1,
        "grail": 1,
        "mariner.inspiration.experience": 1,
        "mariner.song.inspirationused.experience": -1
      },
      "effects": {
        "mariner.inspirationtype.consumable": -1,
        "mariner.influences.grail": 6
      },
      "aspects": {
        "mariner.signal.upgradesong": 1
      },
      "mutations": [
        {
          "filter": "mariner.song",
          "mutate": "mariner.song.inspirationused.experience",
          "level": 1
        }
      ],
      "achievements": [
        "mariner.achievements.firstusedexperienceinspiration"
      ]
    },
    {
      "id": "mariner.upgradesongwith.experience.moth",
      "actionId": "mariner.navigate",
      "craftable": true,
      "label": "Upgrade moth song with Experience Inspiration",
      "startdescription": "",
      "warmup": 60,
      "requirements": {
        "mariner.song.moth": 1,
        "moth": 1,
        "mariner.inspiration.experience": 1,
        "mariner.song.inspirationused.experience": -1
      },
      "effects": {
        "mariner.inspirationtype.consumable": -1,
        "mariner.influences.moth": 6
      },
      "aspects": {
        "mariner.signal.upgradesong": 1
      },
      "mutations": [
        {
          "filter": "mariner.song",
          "mutate": "mariner.song.inspirationused.experience",
          "level": 1
        }
      ],
      "achievements": [
        "mariner.achievements.firstusedexperienceinspiration"
      ]
    },
    {
      "id": "mariner.upgradesongwith.experience.knock",
      "actionId": "mariner.navigate",
      "craftable": true,
      "label": "Upgrade knock song with Experience Inspiration",
      "startdescription": "",
      "warmup": 60,
      "requirements": {
        "mariner.song.knock": 1,
        "knock": 1,
        "mariner.inspiration.experience": 1,
        "mariner.song.inspirationused.experience": -1
      },
      "effects": {
        "mariner.inspirationtype.consumable": -1,
        "mariner.influences.knock": 6
      },
      "aspects": {
        "mariner.signal.upgradesong": 1
      },
      "mutations": [
        {
          "filter": "mariner.song",
          "mutate": "mariner.song.inspirationused.experience",
          "level": 1
        }
      ],
      "achievements": [
        "mariner.achievements.firstusedexperienceinspiration"
      ]
    },
    {
      "id": "mariner.upgradesongwith.urstory.lantern",
      "actionId": "mariner.navigate",
      "craftable": true,
      "label": "Upgrade lantern song with Urstory Inspiration",
      "startdescription": "",
      "warmup": 60,
      "requirements": {
        "mariner.song.lantern": 1,
        "lantern": 1,
        "mariner.inspiration.urstory": 1,
        "mariner.song.inspirationused.urstory": -1
      },
      "effects": {
        "mariner.inspirationtype.consumable": -1,
        "mariner.influences.lantern": 6
      },
      "aspects": {
        "mariner.signal.upgradesong": 1
      },
      "mutations": [
        {
          "filter": "mariner.song",
          "mutate": "mariner.song.inspirationused.urstory",
          "level": 1
        }
      ],
      "achievements": [
        "mariner.achievements.firstusedurstoryinspiration"
      ]
    },
    {
      "id": "mariner.upgradesongwith.urstory.forge",
      "actionId": "mariner.navigate",
      "craftable": true,
      "label": "Upgrade forge song with Urstory Inspiration",
      "startdescription": "",
      "warmup": 60,
      "requirements": {
        "mariner.song.forge": 1,
        "forge": 1,
        "mariner.inspiration.urstory": 1,
        "mariner.song.inspirationused.urstory": -1
      },
      "effects": {
        "mariner.inspirationtype.consumable": -1,
        "mariner.influences.forge": 6
      },
      "aspects": {
        "mariner.signal.upgradesong": 1
      },
      "mutations": [
        {
          "filter": "mariner.song",
          "mutate": "mariner.song.inspirationused.urstory",
          "level": 1
        }
      ],
      "achievements": [
        "mariner.achievements.firstusedurstoryinspiration"
      ]
    },
    {
      "id": "mariner.upgradesongwith.urstory.edge",
      "actionId": "mariner.navigate",
      "craftable": true,
      "label": "Upgrade edge song with Urstory Inspiration",
      "startdescription": "",
      "warmup": 60,
      "requirements": {
        "mariner.song.edge": 1,
        "edge": 1,
        "mariner.inspiration.urstory": 1,
        "mariner.song.inspirationused.urstory": -1
      },
      "effects": {
        "mariner.inspirationtype.consumable": -1,
        "mariner.influences.edge": 6
      },
      "aspects": {
        "mariner.signal.upgradesong": 1
      },
      "mutations": [
        {
          "filter": "mariner.song",
          "mutate": "mariner.song.inspirationused.urstory",
          "level": 1
        }
      ],
      "achievements": [
        "mariner.achievements.firstusedurstoryinspiration"
      ]
    },
    {
      "id": "mariner.upgradesongwith.urstory.winter",
      "actionId": "mariner.navigate",
      "craftable": true,
      "label": "Upgrade winter song with Urstory Inspiration",
      "startdescription": "",
      "warmup": 60,
      "requirements": {
        "mariner.song.winter": 1,
        "winter": 1,
        "mariner.inspiration.urstory": 1,
        "mariner.song.inspirationused.urstory": -1
      },
      "effects": {
        "mariner.inspirationtype.consumable": -1,
        "mariner.influences.winter": 6
      },
      "aspects": {
        "mariner.signal.upgradesong": 1
      },
      "mutations": [
        {
          "filter": "mariner.song",
          "mutate": "mariner.song.inspirationused.urstory",
          "level": 1
        }
      ],
      "achievements": [
        "mariner.achievements.firstusedurstoryinspiration"
      ]
    },
    {
      "id": "mariner.upgradesongwith.urstory.heart",
      "actionId": "mariner.navigate",
      "craftable": true,
      "label": "Upgrade heart song with Urstory Inspiration",
      "startdescription": "",
      "warmup": 60,
      "requirements": {
        "mariner.song.heart": 1,
        "heart": 1,
        "mariner.inspiration.urstory": 1,
        "mariner.song.inspirationused.urstory": -1
      },
      "effects": {
        "mariner.inspirationtype.consumable": -1,
        "mariner.influences.heart": 6
      },
      "aspects": {
        "mariner.signal.upgradesong": 1
      },
      "mutations": [
        {
          "filter": "mariner.song",
          "mutate": "mariner.song.inspirationused.urstory",
          "level": 1
        }
      ],
      "achievements": [
        "mariner.achievements.firstusedurstoryinspiration"
      ]
    },
    {
      "id": "mariner.upgradesongwith.urstory.grail",
      "actionId": "mariner.navigate",
      "craftable": true,
      "label": "Upgrade grail song with Urstory Inspiration",
      "startdescription": "",
      "warmup": 60,
      "requirements": {
        "mariner.song.grail": 1,
        "grail": 1,
        "mariner.inspiration.urstory": 1,
        "mariner.song.inspirationused.urstory": -1
      },
      "effects": {
        "mariner.inspirationtype.consumable": -1,
        "mariner.influences.grail": 6
      },
      "aspects": {
        "mariner.signal.upgradesong": 1
      },
      "mutations": [
        {
          "filter": "mariner.song",
          "mutate": "mariner.song.inspirationused.urstory",
          "level": 1
        }
      ],
      "achievements": [
        "mariner.achievements.firstusedurstoryinspiration"
      ]
    },
    {
      "id": "mariner.upgradesongwith.urstory.moth",
      "actionId": "mariner.navigate",
      "craftable": true,
      "label": "Upgrade moth song with Urstory Inspiration",
      "startdescription": "",
      "warmup": 60,
      "requirements": {
        "mariner.song.moth": 1,
        "moth": 1,
        "mariner.inspiration.urstory": 1,
        "mariner.song.inspirationused.urstory": -1
      },
      "effects": {
        "mariner.inspirationtype.consumable": -1,
        "mariner.influences.moth": 6
      },
      "aspects": {
        "mariner.signal.upgradesong": 1
      },
      "mutations": [
        {
          "filter": "mariner.song",
          "mutate": "mariner.song.inspirationused.urstory",
          "level": 1
        }
      ],
      "achievements": [
        "mariner.achievements.firstusedurstoryinspiration"
      ]
    },
    {
      "id": "mariner.upgradesongwith.urstory.knock",
      "actionId": "mariner.navigate",
      "craftable": true,
      "label": "Upgrade knock song with Urstory Inspiration",
      "startdescription": "",
      "warmup": 60,
      "requirements": {
        "mariner.song.knock": 1,
        "knock": 1,
        "mariner.inspiration.urstory": 1,
        "mariner.song.inspirationused.urstory": -1
      },
      "effects": {
        "mariner.inspirationtype.consumable": -1,
        "mariner.influences.knock": 6
      },
      "aspects": {
        "mariner.signal.upgradesong": 1
      },
      "mutations": [
        {
          "filter": "mariner.song",
          "mutate": "mariner.song.inspirationused.urstory",
          "level": 1
        }
      ],
      "achievements": [
        "mariner.achievements.firstusedurstoryinspiration"
      ]
    }
  ]
}