{
  "elements": [
    {
      "id": "mariner.tunes.forgeheart",
      "label": "The Tune of Industry",
      "description": "Hammers slam, fire roars, foremen yell warnings and instructions. This district thrums with the roar of living metal.",
      "icon": "tunes/mariner.tunes.forgeheart",
      "aspects": {
        "mariner.tune": 1,
        "mariner.sing_allowed": 1,
        "mariner.tune.forge": 1,
        "forge": 4,
        "mariner.tune.heart": 1,
        "heart": 4
      },
      "slots": [
        {
          "id": "inspiration",
          "label": "Inspiration or Story",
          "description": "In what manner do I want to engage with this Tune?",
          "actionId": "mariner.navigate",
          "required": {
            "mariner.inspiration": 1,
            "mariner.story": 1
          }
        },
        {
          "id": "trapping",
          "label": "Trapping",
          "description": "power begets power",
          "actionId": "mariner.sing",
          "required": {
            "mariner.trapping": 1
          }
        }
      ],
      "lifetime": 240
    },
    {
      "id": "mariner.tunes.forgeheart.long",
      "label": "The Tune of Industry",
      "description": "Hammers slam, fire roars, foremen yell warnings and instructions. This district thrums with the roar of living metal.",
      "aspects": {
        "mariner.tune": 1,
        "mariner.sing_allowed": 1,
        "mariner.tune.forge": 1,
        "forge": 4,
        "mariner.tune.heart": 1,
        "heart": 4
      },
      "icon": "tunes/mariner.tunes.forgeheart",
      "slots": [
        {
          "id": "inspiration",
          "label": "Inspiration",
          "description": "In what manner do I want to engage with this Tune?",
          "actionId": "mariner.navigate",
          "required": {
            "mariner.inspiration": 1
          }
        },
        {
          "id": "trapping",
          "label": "Trapping",
          "description": "power begets power",
          "actionId": "mariner.sing",
          "required": {
            "mariner.trapping": 1
          }
        }
      ],
      "lifetime": 2400
    },
    {
      "id": "mariner.tunes.grailedge",
      "label": "The Tune of the Market",
      "description": "The honey-laced voices of the merchants mix with the metal clink of coin against coin. Here, each transaction is a battle, each smile sharp as knives.",
      "icon": "tunes/mariner.tunes.grailedge",
      "aspects": {
        "mariner.tune": 1,
        "mariner.sing_allowed": 1,
        "mariner.tune.grail": 1,
        "grail": 4,
        "mariner.tune.edge": 1,
        "edge": 4
      },
      "slots": [
        {
          "id": "inspiration",
          "label": "Inspiration or Story",
          "description": "In what manner do I want to engage with this Tune?",
          "actionId": "mariner.navigate",
          "required": {
            "mariner.inspiration": 1,
            "mariner.story": 1
          }
        },
        {
          "id": "trapping",
          "label": "Trapping",
          "description": "power begets power",
          "actionId": "mariner.sing",
          "required": {
            "mariner.trapping": 1
          }
        }
      ],
      "lifetime": 240
    },
    {
      "id": "mariner.tunes.grailedge.long",
      "label": "The Tune of the Market",
      "description": "The honey-laced voices of the merchants mix with the metal clink of coin against coin. Here, each transaction is a battle, each smile sharp as knives.",
      "aspects": {
        "mariner.tune": 1,
        "mariner.sing_allowed": 1,
        "mariner.tune.grail": 1,
        "grail": 4,
        "mariner.tune.edge": 1,
        "edge": 4
      },
      "icon": "tunes/mariner.tunes.grailedge",
      "slots": [
        {
          "id": "inspiration",
          "label": "Inspiration",
          "description": "In what manner do I want to engage with this Tune?",
          "actionId": "mariner.navigate",
          "required": {
            "mariner.inspiration": 1
          }
        },
        {
          "id": "trapping",
          "label": "Trapping",
          "description": "power begets power",
          "actionId": "mariner.sing",
          "required": {
            "mariner.trapping": 1
          }
        }
      ],
      "lifetime": 2400
    },
    {
      "id": "mariner.tunes.heartgrail",
      "label": "The Tune of the Docks",
      "description": "Never quiet, wether it's bars and saloons beckoning the sailors landwards, or water lapping at the quay, beckoning them back to sea.",
      "icon": "tunes/mariner.tunes.heartgrail",
      "aspects": {
        "mariner.tune": 1,
        "mariner.sing_allowed": 1,
        "mariner.tune.heart": 1,
        "heart": 4,
        "mariner.tune.grail": 1,
        "grail": 4
      },
      "slots": [
        {
          "id": "inspiration",
          "label": "Inspiration or Story",
          "description": "In what manner do I want to engage with this Tune?",
          "actionId": "mariner.navigate",
          "required": {
            "mariner.inspiration": 1,
            "mariner.story": 1
          }
        },
        {
          "id": "trapping",
          "label": "Trapping",
          "description": "power begets power",
          "actionId": "mariner.sing",
          "required": {
            "mariner.trapping": 1
          }
        }
      ],
      "lifetime": 240
    },
    {
      "id": "mariner.tunes.heartgrail.long",
      "label": "The Tune of the Docks",
      "description": "Never quiet, wether it's bars and saloons beckoning the sailors landwards, or water lapping at the quay, beckoning them back to sea.",
      "aspects": {
        "mariner.tune": 1,
        "mariner.sing_allowed": 1,
        "mariner.tune.heart": 1,
        "heart": 4,
        "mariner.tune.grail": 1,
        "grail": 4
      },
      "icon": "tunes/mariner.tunes.heartgrail",
      "slots": [
        {
          "id": "inspiration",
          "label": "Inspiration",
          "description": "In what manner do I want to engage with this Tune?",
          "actionId": "mariner.navigate",
          "required": {
            "mariner.inspiration": 1
          }
        },
        {
          "id": "trapping",
          "label": "Trapping",
          "description": "power begets power",
          "actionId": "mariner.sing",
          "required": {
            "mariner.trapping": 1
          }
        }
      ],
      "lifetime": 2400
    },
    {
      "id": "mariner.tunes.knocklantern",
      "label": "Church bells",
      "description": "The bright and crisp sound calling a flock to the promise of enlightenment.",
      "icon": "tunes/mariner.tunes.knocklantern",
      "aspects": {
        "mariner.tune": 1,
        "mariner.sing_allowed": 1,
        "mariner.tune.knock": 1,
        "knock": 4,
        "mariner.tune.lantern": 1,
        "lantern": 4
      },
      "slots": [
        {
          "id": "inspiration",
          "label": "Inspiration or Story",
          "description": "In what manner do I want to engage with this Tune?",
          "actionId": "mariner.navigate",
          "required": {
            "mariner.inspiration": 1,
            "mariner.story": 1
          }
        },
        {
          "id": "trapping",
          "label": "Trapping",
          "description": "power begets power",
          "actionId": "mariner.sing",
          "required": {
            "mariner.trapping": 1
          }
        }
      ],
      "lifetime": 240
    },
    {
      "id": "mariner.tunes.knocklantern.long",
      "label": "Church bells",
      "description": "The bright and crisp sound calling a flock to the promise of enlightenment.",
      "aspects": {
        "mariner.tune": 1,
        "mariner.sing_allowed": 1,
        "mariner.tune.knock": 1,
        "knock": 4,
        "mariner.tune.lantern": 1,
        "lantern": 4
      },
      "icon": "tunes/mariner.tunes.knocklantern",
      "slots": [
        {
          "id": "inspiration",
          "label": "Inspiration",
          "description": "In what manner do I want to engage with this Tune?",
          "actionId": "mariner.navigate",
          "required": {
            "mariner.inspiration": 1
          }
        },
        {
          "id": "trapping",
          "label": "Trapping",
          "description": "power begets power",
          "actionId": "mariner.sing",
          "required": {
            "mariner.trapping": 1
          }
        }
      ],
      "lifetime": 2400
    },
    {
      "id": "mariner.tunes.winterlantern",
      "label": "The Hush of the Library",
      "description": "The russle of paper, the dull thud of a book returned to its proper place on the proper shelf. Sacred Semi-Silence Serves Studious Souls.",
      "icon": "tunes/mariner.tunes.winterlantern",
      "aspects": {
        "mariner.tune": 1,
        "mariner.sing_allowed": 1,
        "mariner.tune.winter": 1,
        "winter": 4,
        "mariner.tune.lantern": 1,
        "lantern": 4
      },
      "slots": [
        {
          "id": "inspiration",
          "label": "Inspiration or Story",
          "description": "In what manner do I want to engage with this Tune?",
          "actionId": "mariner.navigate",
          "required": {
            "mariner.inspiration": 1,
            "mariner.story": 1
          }
        },
        {
          "id": "trapping",
          "label": "Trapping",
          "description": "power begets power",
          "actionId": "mariner.sing",
          "required": {
            "mariner.trapping": 1
          }
        }
      ],
      "lifetime": 240
    },
    {
      "id": "mariner.tunes.winterlantern.long",
      "label": "The Hush of the Library",
      "description": "The russle of paper, the dull thud of a book returned to its proper place on the proper shelf. Sacred Semi-Silence Serves Studious Souls.",
      "aspects": {
        "mariner.tune": 1,
        "mariner.sing_allowed": 1,
        "mariner.tune.winter": 1,
        "winter": 4,
        "mariner.tune.lantern": 1,
        "lantern": 4
      },
      "icon": "tunes/mariner.tunes.winterlantern",
      "slots": [
        {
          "id": "inspiration",
          "label": "Inspiration",
          "description": "In what manner do I want to engage with this Tune?",
          "actionId": "mariner.navigate",
          "required": {
            "mariner.inspiration": 1
          }
        },
        {
          "id": "trapping",
          "label": "Trapping",
          "description": "power begets power",
          "actionId": "mariner.sing",
          "required": {
            "mariner.trapping": 1
          }
        }
      ],
      "lifetime": 2400
    },
    {
      "id": "mariner.tunes.winterknock",
      "label": "A Funeral Dirge",
      "description": "The shuffle of feet, watched by downcast eyes. You might expect a widow's wail, but you are just as likely to hear nothing at all.",
      "icon": "tunes/mariner.tunes.winterknock",
      "aspects": {
        "mariner.tune": 1,
        "mariner.sing_allowed": 1,
        "mariner.tune.winter": 1,
        "winter": 4,
        "mariner.tune.knock": 1,
        "knock": 4
      },
      "slots": [
        {
          "id": "inspiration",
          "label": "Inspiration or Story",
          "description": "In what manner do I want to engage with this Tune?",
          "actionId": "mariner.navigate",
          "required": {
            "mariner.inspiration": 1,
            "mariner.story": 1
          }
        },
        {
          "id": "trapping",
          "label": "Trapping",
          "description": "power begets power",
          "actionId": "mariner.sing",
          "required": {
            "mariner.trapping": 1
          }
        }
      ],
      "lifetime": 240
    },
    {
      "id": "mariner.tunes.winterknock.long",
      "label": "A Funeral Dirge",
      "description": "The shuffle of feet, watched by downcast eyes. You might expect a widow's wail, but you are just as likely to hear nothing at all.",
      "aspects": {
        "mariner.tune": 1,
        "mariner.sing_allowed": 1,
        "mariner.tune.winter": 1,
        "winter": 4,
        "mariner.tune.knock": 1,
        "knock": 4
      },
      "icon": "tunes/mariner.tunes.winterknock",
      "slots": [
        {
          "id": "inspiration",
          "label": "Inspiration",
          "description": "In what manner do I want to engage with this Tune?",
          "actionId": "mariner.navigate",
          "required": {
            "mariner.inspiration": 1
          }
        },
        {
          "id": "trapping",
          "label": "Trapping",
          "description": "power begets power",
          "actionId": "mariner.sing",
          "required": {
            "mariner.trapping": 1
          }
        }
      ],
      "lifetime": 2400
    },
    {
      "id": "mariner.tunes.mothedge",
      "label": "The Tune of the Underworld",
      "description": "Hushed conversation, careful footsteps. A dull thud comes from an alley, as a shingle slides from the roof.",
      "icon": "tunes/mariner.tunes.mothedge",
      "aspects": {
        "mariner.tune": 1,
        "mariner.sing_allowed": 1,
        "mariner.tune.moth": 1,
        "moth": 4,
        "mariner.tune.edge": 1,
        "edge": 4
      },
      "slots": [
        {
          "id": "inspiration",
          "label": "Inspiration or Story",
          "description": "In what manner do I want to engage with this Tune?",
          "actionId": "mariner.navigate",
          "required": {
            "mariner.inspiration": 1,
            "mariner.story": 1
          }
        },
        {
          "id": "trapping",
          "label": "Trapping",
          "description": "power begets power",
          "actionId": "mariner.sing",
          "required": {
            "mariner.trapping": 1
          }
        }
      ],
      "lifetime": 240
    },
    {
      "id": "mariner.tunes.mothedge.long",
      "label": "The Tune of the Underworld",
      "description": "Hushed conversation, careful footsteps. A dull thud comes from an alley, as a shingle slides from the roof.",
      "aspects": {
        "mariner.tune": 1,
        "mariner.sing_allowed": 1,
        "mariner.tune.moth": 1,
        "moth": 4,
        "mariner.tune.edge": 1,
        "edge": 4
      },
      "icon": "tunes/mariner.tunes.mothedge",
      "slots": [
        {
          "id": "inspiration",
          "label": "Inspiration",
          "description": "In what manner do I want to engage with this Tune?",
          "actionId": "mariner.navigate",
          "required": {
            "mariner.inspiration": 1
          }
        },
        {
          "id": "trapping",
          "label": "Trapping",
          "description": "power begets power",
          "actionId": "mariner.sing",
          "required": {
            "mariner.trapping": 1
          }
        }
      ],
      "lifetime": 2400
    },
    {
      "id": "mariner.tunes.mothheart",
      "label": "The Tune of the Bars",
      "description": "The echoes of laughter promise the impossible merriment of others. There is music in the air, and the dancing will not stop, not yet.",
      "icon": "tunes/mariner.tunes.mothheart",
      "aspects": {
        "mariner.tune": 1,
        "mariner.sing_allowed": 1,
        "mariner.tune.moth": 1,
        "moth": 4,
        "mariner.tune.heart": 1,
        "heart": 4
      },
      "slots": [
        {
          "id": "inspiration",
          "label": "Inspiration or Story",
          "description": "In what manner do I want to engage with this Tune?",
          "actionId": "mariner.navigate",
          "required": {
            "mariner.inspiration": 1,
            "mariner.story": 1
          }
        },
        {
          "id": "trapping",
          "label": "Trapping",
          "description": "power begets power",
          "actionId": "mariner.sing",
          "required": {
            "mariner.trapping": 1
          }
        }
      ],
      "lifetime": 240
    },
    {
      "id": "mariner.tunes.mothheart.long",
      "label": "The Tune of the Bars",
      "description": "The echoes of laughter promise the impossible merriment of others. There is music in the air, and the dancing will not stop, not yet.",
      "aspects": {
        "mariner.tune": 1,
        "mariner.sing_allowed": 1,
        "mariner.tune.moth": 1,
        "moth": 4,
        "mariner.tune.heart": 1,
        "heart": 4
      },
      "icon": "tunes/mariner.tunes.mothheart",
      "slots": [
        {
          "id": "inspiration",
          "label": "Inspiration",
          "description": "In what manner do I want to engage with this Tune?",
          "actionId": "mariner.navigate",
          "required": {
            "mariner.inspiration": 1
          }
        },
        {
          "id": "trapping",
          "label": "Trapping",
          "description": "power begets power",
          "actionId": "mariner.sing",
          "required": {
            "mariner.trapping": 1
          }
        }
      ],
      "lifetime": 2400
    }
  ]
}