{
  "verbs": [
    {
      "id": "mariner.verbs.summon.freaksoutsomeone",
      "multiple": true,
      "spontaneous": true
    },
    {
      "id": "mariner.verbs.summon.freaksoutcrew",
      "multiple": true,
      "spontaneous": true
    }
  ]
}