{
  "recipes": [
    {
      "id": "mariner.updatequest.tinyheist.applyupdate.salutations",
      "furthermore": [
        {
          "target": "~/visible",
          "rootAdd": {
            "mariner.globalflags.quest.tinyheist.salutations": 1
          },
          "mutations": [
            {
              "filter": "mariner.quests.tinyheist",
              "mutate": "mariner.globalflags.quest.tinyheist.salutations",
              "level": 1,
              "additive": true
            }
          ]
        }
      ]
    },
    {
      "id": "mariner.updatequest.tinyheist.applyupdate.preparations",
      "furthermore": [
        {
          "target": "~/visible",
          "rootAdd": {
            "mariner.globalflags.quest.tinyheist.preparations": 1
          },
          "mutations": [
            {
              "filter": "mariner.quests.tinyheist",
              "mutate": "mariner.globalflags.quest.tinyheist.preparations",
              "level": 1,
              "additive": true
            }
          ]
        },
        {
          "updateCodexEntries": {
            "codex.tourist": {
              "add": [
                "codex.tourist.neg"
              ]
            }
          }
        }
      ]
    },
    {
      "id": "mariner.updatequest.tinyheist.applyupdate.invitations",
      "furthermore": [
        {
          "target": "~/visible",
          "rootAdd": {
            "mariner.globalflags.quest.tinyheist.invitations": 1
          },
          "mutations": [
            {
              "filter": "mariner.quests.tinyheist",
              "mutate": "mariner.globalflags.quest.tinyheist.invitations",
              "level": 1,
              "additive": true
            }
          ]
        },
        {
          "updateCodexEntries": {
            "codex.tourist": {
              "add": [
                "codex.tourist.s"
              ]
            }
          }
        }
      ]
    },
    {
      "id": "mariner.updatequest.tinyheist.applyupdate.delivered",
      "furthermore": [
        {
          "target": "~/visible",
          "rootAdd": {
            "mariner.globalflags.quest.tinyheist.delivered": 1
          },
          "mutations": [
            {
              "filter": "mariner.quests.tinyheist",
              "mutate": "mariner.globalflags.quest.tinyheist.delivered",
              "level": 1,
              "additive": true
            }
          ]
        },
        {
          "updateCodexEntries": {
            "codex.tourist": {
              "add": [
                "codex.tourist.neg"
              ]
            }
          }
        }
      ]
    },
    {
      "id": "mariner.updatequest.tinyheist.applyupdate.completed",
      "furthermore": [
        {
          "target": "~/visible",
          "rootAdd": {
            "mariner.globalflags.quest.tinyheist.completed": 1
          },
          "mutations": [
            {
              "filter": "mariner.quests.tinyheist",
              "mutate": "mariner.globalflags.quest.tinyheist.completed",
              "level": 1,
              "additive": true
            }
          ]
        },
        {
          "updateCodexEntries": {
            "codex.tourist": {
              "add": [
                "codex.tourist.2"
              ]
            }
          }
        }
      ]
    }
  ]
}