{
  "recipes": [
    {
      "id": "mariner.updatequest.amsterdamsewers.applyupdate.started",
      "furthermore": [
        {
          "target": "~/visible",
          "rootAdd": {
            "mariner.globalflags.quest.amsterdamsewers.started": 1
          },
          "mutations": [
            {
              "filter": "mariner.quests.amsterdamsewers",
              "mutate": "mariner.globalflags.quest.amsterdamsewers.started",
              "level": 1,
              "additive": true
            }
          ]
        },
        {
          "updateCodexEntries": {
            "codex.veiledlady": {
              "add": [
                "codex.veiledlady.1"
              ]
            }
          },
          "unlockCodexEntries": [
            "codex.auntieekster"
          ]
        }
      ]
    },
    {
      "id": "mariner.updatequest.amsterdamsewers.applyupdate.ringcollected",
      "furthermore": [
        {
          "target": "~/visible",
          "rootAdd": {
            "mariner.globalflags.quest.amsterdamsewers.ringcollected": 1
          },
          "mutations": [
            {
              "filter": "mariner.quests.amsterdamsewers",
              "mutate": "mariner.globalflags.quest.amsterdamsewers.ringcollected",
              "level": 1,
              "additive": true
            }
          ]
        },
        {
          "updateCodexEntries": {
            "codex.auntieekster": {
              "add": [
                "codex.auntieekster.negotiatedring"
              ]
            }
          }
        }
      ]
    },
    {
      "id": "mariner.updatequest.amsterdamsewers.applyupdate.ringstolen",
      "furthermore": [
        {
          "target": "~/visible",
          "rootAdd": {
            "mariner.globalflags.quest.amsterdamsewers.ringstolen": 1
          },
          "mutations": [
            {
              "filter": "mariner.quests.amsterdamsewers",
              "mutate": "mariner.globalflags.quest.amsterdamsewers.ringstolen",
              "level": 1,
              "additive": true
            }
          ]
        },
        {
          "updateCodexEntries": {
            "codex.auntieekster": {
              "add": [
                "codex.auntieekster.stolering"
              ]
            }
          }
        }
      ]
    },
    {
      "id": "mariner.updatequest.amsterdamsewers.applyupdate.completed",
      "furthermore": [
        {
          "target": "~/visible",
          "rootAdd": {
            "mariner.globalflags.quest.amsterdamsewers.completed": 1
          },
          "mutations": [
            {
              "filter": "mariner.quests.amsterdamsewers",
              "mutate": "mariner.globalflags.quest.amsterdamsewers.completed",
              "level": 1,
              "additive": true
            }
          ]
        },
        {
          "updateCodexEntries": {
            "codex.veiledlady": {
              "add": [
                "codex.veiledlady.2"
              ]
            }
          }
        }
      ]
    }
  ]
}