{
  "recipes": [
    {
      "id": "mariner.tradestory.marseille.alexia",
      "craftable": true,
      "actionId": "mariner.navigate",
      "requirements": {
        "mariner.recipient.medsea.marseille.alexia": 1,
        "mariner.story": 1
      },
      "label": "<Trading Stories with Alexia>",
      "startdescription": "\"You want a story from me?\" She smiles down at the table. \"Are you sure you can handle it?\"",
      "warmup": 20,
      "description": "My stories tend to end up in case files, and sealed in Institute Vaults. Here is one from before the Institute was founded, so there is no duty of secrecy that binds me.\"",
      "furthermore": [
        {
          "aspects": {
            "mariner.signal.exhauststory": 1
          }
        },
        {
          "effects": {
            "mariner.stories.marseille.alexia": 1
          }
        }
      ]
    }
  ]
}