{
  "recipes": [
    {
      "id": "mariner.sailing.seaevents.start.northernlights",
      "warmup": 20,
      "label": "Solar Aurora",
      "grandReqs": {
        "[~/exterior : mariner.weathermeta.clear]": 1,
        "[~/extant: mariner.locations.northsea.sailingthere]": 1
      },
      "startdescription": "The sky is painted in beauty, the electric representation of an arctic song.",
      "linked": [
        {
          "id": "mariner.sailing.seaevents.northernlights.outcome.firstoutcome",
          "chance": 50
        },
        {
          "id": "mariner.sailing.seaevents.northernlights.outcome.secondoutcome"
        }
      ]
    },
    {
      "id": "mariner.sailing.seaevents.northernlights.outcome.firstoutcome",
      "warmup": 20,
      "label": "A True Miracle",
      "startdescription": "We marvel at the weave of the universe, and the magic that can wrought even in world as grey and listless as ours.",
      "furthermore": [
        {
          "effects": {
            "mariner.addgroundedness.30.caller": 1
          }
        },
        {
          "aspects": {
            "mariner.function.caller": 1
          }
        }
      ],
      "linked": [
        {
          "id": "mariner.sailing.postevent"
        }
      ]
    },
    {
      "id": "mariner.sailing.seaevents.northernlights.outcome.secondoutcome",
      "warmup": 20,
      "label": "The Midnight Dawn",
      "startdescription": "These are the last echoed colours of the Sun's true radiance. But even so far south and in this decayed history, we can still bask in it. Way may wish to travel to experience it's radiance more fully, in a colder, brighter place.",
      "linked": [
        {
          "id": "mariner.sailing.postevent"
        }
      ],
      "effects": {
        "mariner.influences.lantern": 6
      }
    }
  ]
}