{
  "decks": [
    {
      "id": "mariner.decks.vaults.aleppo.explore.maze.tasks",
      "label": "Potential Possibilities",
      "description": "Places, things and people to be explored or exploited.",
      "spec": [],
      "defaultcard": "mariner.emptydeck"
    },
    {
      "id": "mariner.vaults.aleppo.shelfdeck.default",
      "spec": [
        "mariner.vaults.aleppo.shelf.default.1"
      ]
    },
    {
      "id": "mariner.vaults.aleppo.shelfdeck.lantern",
      "spec": [
        "mariner.vaults.aleppo.shelf.lantern.1"
      ]
    },
    {
      "id": "mariner.vaults.aleppo.shelfdeck.forge",
      "spec": [
        "mariner.vaults.aleppo.shelf.forge.1"
      ]
    },
    {
      "id": "mariner.vaults.aleppo.shelfdeck.edge",
      "spec": [
        "mariner.vaults.aleppo.shelf.edge.1"
      ]
    },
    {
      "id": "mariner.vaults.aleppo.shelfdeck.winter",
      "spec": [
        "mariner.vaults.aleppo.shelf.winter.1"
      ]
    },
    {
      "id": "mariner.vaults.aleppo.shelfdeck.heart",
      "spec": [
        "mariner.vaults.aleppo.shelf.heart.1"
      ]
    },
    {
      "id": "mariner.vaults.aleppo.shelfdeck.grail",
      "spec": [
        "mariner.vaults.aleppo.shelf.grail.1"
      ]
    },
    {
      "id": "mariner.vaults.aleppo.shelfdeck.moth",
      "spec": [
        "mariner.vaults.aleppo.shelf.moth.1"
      ]
    },
    {
      "id": "mariner.vaults.aleppo.shelfdeck.knock",
      "spec": [
        "mariner.vaults.aleppo.shelf.knock.1"
      ]
    }
  ]
}