{
  "elements": [
    {
      "isAspect": true,
      "id": "mariner.tool.broken",
      "label": "<Broken Tool>",
      "description": "<>"
    },
    {
      "isAspect": true,
      "id": "mariner.smith",
      "label": "[HIDDEN] <Smith>",
      "description": "<This is where I can find the skilled hands able to work on some of my most precious tools.>",
      "noArtNeeded": false,
      "isHidden": false
    },
    {
      "isAspect": true,
      "id": "mariner.smiths.toolsmith",
      "label": "<Toolsmith>",
      "description": "<Knock and Forge tools>"
    },
    {
      "isAspect": true,
      "id": "mariner.tool.notch",
      "label": "<Tool Notch>",
      "description": "<Tool Notch>"
    },
    {
      "isAspect": true,
      "id": "mariner.tool.level",
      "label": "<Tool Tier/Level>",
      "description": "<Tool Tier/Level>"
    },
    {
      "isAspect": true,
      "id": "mariner.tool.readytoupgrade",
      "label": "<Maxed out Notches>",
      "description": "<Ready to upgrade>"
    },
    {
      "isAspect": true,
      "id": "mariner.tool.specialisationpotential.lantern",
      "noArtNeeded": false,
      "isHidden": false,
      "label": "[HIDDEN] mariner.tool.specialisationpotential.lantern"
    },
    {
      "isAspect": true,
      "id": "mariner.tool.specialisationpotential.forge",
      "noArtNeeded": false,
      "isHidden": false,
      "label": "[HIDDEN] mariner.tool.specialisationpotential.forge"
    },
    {
      "isAspect": true,
      "id": "mariner.tool.specialisationpotential.edge",
      "noArtNeeded": false,
      "isHidden": false,
      "label": "[HIDDEN] mariner.tool.specialisationpotential.edge"
    },
    {
      "isAspect": true,
      "id": "mariner.tool.specialisationpotential.winter",
      "noArtNeeded": false,
      "isHidden": false,
      "label": "[HIDDEN] mariner.tool.specialisationpotential.winter"
    },
    {
      "isAspect": true,
      "id": "mariner.tool.specialisationpotential.heart",
      "noArtNeeded": false,
      "isHidden": false,
      "label": "[HIDDEN] mariner.tool.specialisationpotential.heart"
    },
    {
      "isAspect": true,
      "id": "mariner.tool.specialisationpotential.grail",
      "noArtNeeded": false,
      "isHidden": false,
      "label": "[HIDDEN] mariner.tool.specialisationpotential.grail"
    },
    {
      "isAspect": true,
      "id": "mariner.tool.specialisationpotential.moth",
      "noArtNeeded": false,
      "isHidden": false,
      "label": "[HIDDEN] mariner.tool.specialisationpotential.moth"
    },
    {
      "isAspect": true,
      "id": "mariner.tool.specialisationpotential.knock",
      "noArtNeeded": false,
      "isHidden": false,
      "label": "[HIDDEN] mariner.tool.specialisationpotential.knock"
    },
    {
      "isAspect": true,
      "id": "mariner.tool.lantern",
      "label": "[HIDDEN] Lantern Tool",
      "noArtNeeded": false,
      "isHidden": false
    },
    {
      "isAspect": true,
      "id": "mariner.tool.forge",
      "label": "[HIDDEN] Forge Tool",
      "noArtNeeded": false,
      "isHidden": false
    },
    {
      "isAspect": true,
      "id": "mariner.tool.edge",
      "label": "[HIDDEN] Edge Tool",
      "noArtNeeded": false,
      "isHidden": false
    },
    {
      "isAspect": true,
      "id": "mariner.tool.winter",
      "label": "[HIDDEN] Winter Tool",
      "noArtNeeded": false,
      "isHidden": false
    },
    {
      "isAspect": true,
      "id": "mariner.tool.heart",
      "label": "[HIDDEN] Heart Tool",
      "noArtNeeded": false,
      "isHidden": false
    },
    {
      "isAspect": true,
      "id": "mariner.tool.grail",
      "label": "[HIDDEN] Grail Tool",
      "noArtNeeded": false,
      "isHidden": false
    },
    {
      "isAspect": true,
      "id": "mariner.tool.moth",
      "label": "[HIDDEN] Moth Tool",
      "noArtNeeded": false,
      "isHidden": false
    },
    {
      "isAspect": true,
      "id": "mariner.tool.knock",
      "label": "[HIDDEN] Knock Tool",
      "noArtNeeded": false,
      "isHidden": false
    }
  ]
}