{
  "recipes": [
    {
      "id": "mariner.sailing.grammarievents.level1.start.operation_lead",
      "warmup": 20,
      "grandReqs": {
        "[root/mariner.flag.operation.lead.set]": -1,
        "[~/exterior : mariner.weathermeta.stormy]": 1
      },
      "label": "The Operations of Sky: The Lead Heaven",
      "startdescription": "Homer called the heavens iron, though tonight she is formed of a duller metal. Great clouds are stacked in agitated discontentment. Horomachisters and Ithastrists alike aknowledge the power kept there in potentia. If I expand a Trapping of Edge and sufficient Forge or Moth, I could stir this potential into a higher state, the next time I encounter a potent sky.",
      "linked": [
        {
          "id": "mariner.sailing.grammarievents.level1.operation_lead.outcome.success",
          "chance": "([edge]/6)*100"
        },
        {
          "id": "mariner.sailing.grammarievents.level1.operation_lead.outcome.success",
          "chance": "([forge]/6)*100"
        },
        {
          "id": "mariner.sailing.grammarievents.level1.operation_lead.outcome.failure"
        }
      ],
      "slots": [
        {
          "actionId": "mariner.sail",
          "id": "mariner.sail1",
          "label": "Help",
          "description": "Which implements are available for my approach.",
          "required": {
            "funds": 1,
            "mariner.crew": 1,
            "mariner.tune": 1,
            "tool": 1,
            "mariner.inspiration.nature": 1,
            "mariner.lackheart": 1,
            "mariner.halfheart": 1
          },
          "forbidden": {
            "mariner.crew.traits.landlubber": 1,
            "mariner.crew.exhausted": 1,
            "mariner.tool.broken": 1,
            "mariner.lackheart.exhausted": 1,
            "mariner.halfheart.exhausted": 1,
            "mariner.vaults.help": 1
          }
        },
        {
          "actionId": "mariner.sail",
          "id": "mariner.sail2",
          "label": "Help",
          "description": "Which implements are available for my approach.",
          "required": {
            "funds": 1,
            "mariner.crew": 1,
            "mariner.tune": 1,
            "tool": 1,
            "mariner.inspiration.nature": 1,
            "mariner.lackheart": 1,
            "mariner.halfheart": 1
          },
          "forbidden": {
            "mariner.crew.traits.landlubber": 1,
            "mariner.crew.exhausted": 1,
            "mariner.tool.broken": 1,
            "mariner.lackheart.exhausted": 1,
            "mariner.halfheart.exhausted": 1,
            "mariner.vaults.help": 1
          }
        },
        {
          "actionId": "mariner.sail",
          "id": "mariner.sail3",
          "label": "Help",
          "description": "Which implements are available for my approach.",
          "required": {
            "funds": 1,
            "mariner.crew": 1,
            "mariner.tune": 1,
            "tool": 1,
            "mariner.inspiration.nature": 1,
            "mariner.lackheart": 1,
            "mariner.halfheart": 1
          },
          "forbidden": {
            "mariner.crew.traits.landlubber": 1,
            "mariner.crew.exhausted": 1,
            "mariner.tool.broken": 1,
            "mariner.lackheart.exhausted": 1,
            "mariner.halfheart.exhausted": 1,
            "mariner.vaults.help": 1
          }
        }
      ]
    },
    {
      "id": "mariner.sailing.grammarievents.level1.operation_lead.outcome.success",
      "warmup": 20,
      "label": "The Stirring of Potential",
      "startdescription": "Black yields to silver, as the night yields to dawn and a storm clearing leaves the air crisp and fresh.",
      "furthermore": [
        {
          "rootAdd": {
            "mariner.flag.operation.lead.set": 1
          }
        }
      ],
      "linked": [
        {
          "id": "mariner.sailing.postevent"
        }
      ]
    },
    {
      "id": "mariner.sailing.grammarievents.level1.operation_lead.outcome.failure",
      "warmup": 20,
      "label": "Baser Weathers",
      "startdescription": "We could not meet the demands to wield the airs of potential. The pressure shifts, the moment fades, and we drift back into less leaden weather patterns.",
      "linked": [
        {
          "id": "mariner.sailing.postevent"
        }
      ]
    }
  ]
}