{
  "decks": [
    {
      "id": "mariner.decks.vaults.sunkencity.explore.edge.tasks",
      "label": "Potential Possibilities",
      "description": "Places, things and people to be explored or exploited.",
      "spec": [
        "mariner.vaults.sunkencity.sailors",
        "mariner.vaults.sunkencity.siphon"
      ],
      "defaultcard": "mariner.emptydeck"
    },
    {
      "id": "mariner.decks.vaults.sunkencity.explore.edge.events",
      "label": "Exploration Deck",
      "spec": [
        "mariner.events.vaults.sunkencity.events.stormtakesus",
        "mariner.events.vaults.sunkencity.events.seagulls"
      ],
      "resetonexhaustion": true
    },
    {
      "id": "mariner.vaults.sunkencity.artifacts.deck",
      "spec": [
        "mariner.vaults.sunkencity.gapingcup",
        "mariner.vaults.sunkencity.pair",
        "mariner.vaults.sunkencity.links"
      ],
      "defaultcard": "mariner.vaults.sunkencity.dust"
    },
    {
      "id": "mariner.decks.vaults.sunkencity.explore.city.tasks",
      "label": "Potential Possibilities",
      "description": "Places, things and people to be explored or exploited.",
      "spec": [
        "mariner.vaults.sunkencity.cityremains",
        "mariner.vaults.sunkencity.inkwall",
        "mariner.vaults.sunkencity.storiesend"
      ],
      "defaultcard": "mariner.emptydeck"
    },
    {
      "id": "mariner.decks.vaults.sunkencity.explore.city.events",
      "label": "Exploration Deck",
      "spec": [
        "mariner.events.vaults.sunkencity.events.seagull",
        "mariner.events.vaults.sunkencity.events.specters",
        "mariner.events.vaults.sunkencity.events.tidepools"
      ],
      "resetonexhaustion": true
    },
    {
      "id": "mariner.decks.vaults.sunkencity.explore.seawall.tasks",
      "label": "Potential Possibilities",
      "description": "Places, things and people to be explored or exploited.",
      "spec": [
        "mariner.vaults.sunkencity.blubberthing",
        "mariner.vaults.sunkencity.slivers",
        "mariner.vaults.sunkencity.wallsedge"
      ],
      "defaultcard": "mariner.emptydeck"
    }
  ]
}