{
  "recipes": [
    {
      "id": "mariner.start.day.startroutine",
      "mutations": [
        {
          "filter": "[~/token : professor]",
          "mutate": "mariner.localelement.unavailable",
          "level": 1,
          "additive": false
        }
      ]
    },
    {
      "id": "mariner.stop.day.stoproutine",
      "mutations": [
        {
          "filter": "[~/token : professor]",
          "mutate": "mariner.localelement.unavailable",
          "level": 0,
          "additive": false
        }
      ]
    },
    {
      "id": "mariner.update.day.swaptoroutine.rest",
      "furthermore": [
        {
          "target": "~/exterior",
          "aspects": {
            "mariner.signal.stoproutine": 1
          }
        },
        {
          "target": "~/exterior",
          "mutations": [
            {
              "filter": "[~/token : professor]",
              "mutate": "mariner.routines.professor.day",
              "level": 0,
              "additive": false
            },
            {
              "filter": "[~/token : professor]",
              "mutate": "mariner.routines.professor.rest",
              "level": 1,
              "additive": false
            }
          ]
        },
        {
          "target": "~/exterior",
          "aspects": {
            "mariner.signal.startroutine": 1
          }
        }
      ]
    },
    {
      "id": "mariner.update.rest.swaptorandomroutine",
      "linked": [
        {
          "chance": 75,
          "id": "mariner.update.rest.swaptorandomroutine.nightowl"
        },
        {
          "chance": 100,
          "id": "mariner.update.rest.swaptorandomroutine.day"
        }
      ]
    },
    {
      "id": "mariner.update.rest.swaptorandomroutine.nightowl",
      "furthermore": [
        {
          "target": "~/exterior",
          "aspects": {
            "mariner.signal.stoproutine": 1
          }
        },
        {
          "target": "~/exterior",
          "mutations": [
            {
              "filter": "[~/token : professor]",
              "mutate": "mariner.routines.professor.rest",
              "level": 0,
              "additive": false
            },
            {
              "filter": "[~/token : professor]",
              "mutate": "mariner.routines.professor.nightowl",
              "level": 1,
              "additive": false
            }
          ]
        },
        {
          "target": "~/exterior",
          "aspects": {
            "mariner.signal.startroutine": 1
          }
        }
      ]
    },
    {
      "id": "mariner.update.rest.swaptorandomroutine.day",
      "furthermore": [
        {
          "target": "~/exterior",
          "aspects": {
            "mariner.signal.stoproutine": 1
          }
        },
        {
          "target": "~/exterior",
          "mutations": [
            {
              "filter": "[~/token : professor]",
              "mutate": "mariner.routines.professor.rest",
              "level": 0,
              "additive": false
            },
            {
              "filter": "[~/token : professor]",
              "mutate": "mariner.routines.professor.day",
              "level": 1,
              "additive": false
            }
          ]
        },
        {
          "target": "~/exterior",
          "aspects": {
            "mariner.signal.startroutine": 1
          }
        }
      ]
    },
    {
      "id": "mariner.start.nightowl.startroutine",
      "mutations": [
        {
          "filter": "[~/token : professor]",
          "mutate": "modded_explore_allowed",
          "level": 1,
          "additive": true
        },
        {
          "filter": "[~/token : professor]",
          "mutate": "modded_talk_allowed",
          "level": -1,
          "additive": true
        }
      ]
    },
    {
      "id": "mariner.stop.nightowl.stoproutine",
      "mutations": [
        {
          "filter": "[~/token : professor]",
          "mutate": "modded_explore_allowed",
          "level": -1,
          "additive": true
        },
        {
          "filter": "[~/token : professor]",
          "mutate": "modded_talk_allowed",
          "level": 1,
          "additive": true
        }
      ]
    },
    {
      "id": "mariner.update.nightowl.swaptoroutine.rest2",
      "furthermore": [
        {
          "target": "~/exterior",
          "aspects": {
            "mariner.signal.stoproutine": 1
          }
        },
        {
          "target": "~/exterior",
          "mutations": [
            {
              "filter": "[~/token : professor]",
              "mutate": "mariner.routines.professor.nightowl",
              "level": 0,
              "additive": false
            },
            {
              "filter": "[~/token : professor]",
              "mutate": "mariner.routines.professor.rest2",
              "level": 1,
              "additive": false
            }
          ]
        },
        {
          "target": "~/exterior",
          "aspects": {
            "mariner.signal.startroutine": 1
          }
        }
      ]
    },
    {
      "id": "mariner.update.rest2.swaptorandomroutine",
      "linked": [
        {
          "chance": 25,
          "id": "mariner.update.rest2.swaptorandomroutine.nightowl"
        },
        {
          "chance": 100,
          "id": "mariner.update.rest2.swaptorandomroutine.day"
        }
      ]
    },
    {
      "id": "mariner.update.rest2.swaptorandomroutine.nightowl",
      "furthermore": [
        {
          "target": "~/exterior",
          "aspects": {
            "mariner.signal.stoproutine": 1
          }
        },
        {
          "target": "~/exterior",
          "mutations": [
            {
              "filter": "[~/token : professor]",
              "mutate": "mariner.routines.professor.rest2",
              "level": 0,
              "additive": false
            },
            {
              "filter": "[~/token : professor]",
              "mutate": "mariner.routines.professor.nightowl",
              "level": 1,
              "additive": false
            }
          ]
        },
        {
          "target": "~/exterior",
          "aspects": {
            "mariner.signal.startroutine": 1
          }
        }
      ]
    },
    {
      "id": "mariner.update.rest2.swaptorandomroutine.day",
      "furthermore": [
        {
          "target": "~/exterior",
          "aspects": {
            "mariner.signal.stoproutine": 1
          }
        },
        {
          "target": "~/exterior",
          "mutations": [
            {
              "filter": "[~/token : professor]",
              "mutate": "mariner.routines.professor.rest2",
              "level": 0,
              "additive": false
            },
            {
              "filter": "[~/token : professor]",
              "mutate": "mariner.routines.professor.day",
              "level": 1,
              "additive": false
            }
          ]
        },
        {
          "target": "~/exterior",
          "aspects": {
            "mariner.signal.startroutine": 1
          }
        }
      ]
    }
  ]
}